R-Type/singlecpu.vcd
$date
  Mon Nov 24 13:57:47 2025
$end
$version
  GHDL v0
$end
$timescale
  1 fs
$end
$scope module standard $end
$upscope $end
$scope module std_logic_1164 $end
$upscope $end
$scope module numeric_std $end
$upscope $end
$scope module singlecyclecpu_tb $end
$var reg 1 ! clk $end
$var reg 1 " reset $end
$scope module cpu_inst $end
$var reg 1 # clk $end
$var reg 1 $ reset $end
$var reg 32 % pc_in[31:0] $end
$var reg 32 & pc_out[31:0] $end
$var reg 32 ' instruction[31:0] $end
$var reg 32 ( readdata1[31:0] $end
$var reg 32 ) readdata2[31:0] $end
$var reg 32 * signimm[31:0] $end
$var reg 32 + aluresult[31:0] $end
$var reg 32 , memreaddata[31:0] $end
$var reg 32 - writedatareg[31:0] $end
$var reg 1 . zero $end
$var reg 4 / alucontrolsig[3:0] $end
$var reg 5 0 writeregaddr[4:0] $end
$var reg 32 1 alu_b[31:0] $end
$var reg 1 2 regdst $end
$var reg 1 3 memtoreg $end
$var reg 1 4 regwrite $end
$var reg 1 5 memread $end
$var reg 1 6 memwrite $end
$var reg 1 7 branch $end
$var reg 2 8 aluop[1:0] $end
$var reg 2 9 alusrc[1:0] $end
$var reg 5 : shamt_value[4:0] $end
$var reg 5 ; check[4:0] $end
$var reg 32 < shamt_ext_32[31:0] $end
$var reg 32 = alu_a_input[31:0] $end
$var reg 1 > alusrca_ctrl $end
$scope module pc_inst $end
$var reg 1 ? clk $end
$var reg 1 @ reset $end
$var reg 32 A pc_in[31:0] $end
$var reg 32 B pc_out[31:0] $end
$var reg 32 C pc_reg[31:0] $end
$upscope $end
$scope module im_inst $end
$var reg 32 D address[31:0] $end
$var reg 32 E instruction[31:0] $end
$upscope $end
$scope module cu_inst $end
$var reg 6 F opcode[5:0] $end
$var reg 6 G funct_in[5:0] $end
$var reg 1 H regdst $end
$var reg 2 I alusrc_ctrl[1:0] $end
$var reg 1 J memtoreg $end
$var reg 1 K regwrite $end
$var reg 1 L memread $end
$var reg 1 M memwrite $end
$var reg 1 N branch $end
$var reg 1 O jump $end
$var reg 1 P alusrca $end
$var reg 2 Q aluop[1:0] $end
$upscope $end
$scope module rf_inst $end
$var reg 1 R clk $end
$var reg 1 S regwrite $end
$var reg 5 T readreg1[4:0] $end
$var reg 5 U readreg2[4:0] $end
$var reg 5 V writereg[4:0] $end
$var reg 32 W writedata[31:0] $end
$var reg 32 X readdata1[31:0] $end
$var reg 32 Y readdata2[31:0] $end
$comment regs is not handled $end
$upscope $end
$scope module aluc_inst $end
$var reg 2 Z aluop[1:0] $end
$var reg 6 [ funct[5:0] $end
$var reg 4 \ alucontrol[3:0] $end
$upscope $end
$scope module alu_inst $end
$var reg 32 ] a[31:0] $end
$var reg 32 ^ b[31:0] $end
$var reg 4 _ alucontrol[3:0] $end
$var reg 32 ` result[31:0] $end
$var reg 1 a zero $end
$var reg 32 b b_invert[31:0] $end
$var reg 32 c adder_result[31:0] $end
$var reg 1 d cin_sig $end
$var reg 32 e result_i[31:0] $end
$var reg 32 f shiftout[31:0] $end
$scope module adder32 $end
$var reg 32 g a[31:0] $end
$var reg 32 h b[31:0] $end
$var reg 1 i cin $end
$var reg 32 j sum[31:0] $end
$var reg 1 k cout $end
$var reg 16 l sum_lo[15:0] $end
$var reg 16 m sum_hi[15:0] $end
$var reg 1 n cmid $end
$scope module bk_low $end
$var reg 16 o a[15:0] $end
$var reg 16 p b[15:0] $end
$var reg 1 q cin $end
$var reg 16 r sum[15:0] $end
$var reg 1 s cout $end
$var reg 16 t g[15:0] $end
$var reg 16 u p[15:0] $end
$var reg 17 v c[16:0] $end
$scope module gen_gp(0) $end
$upscope $end
$scope module gen_gp(1) $end
$upscope $end
$scope module gen_gp(2) $end
$upscope $end
$scope module gen_gp(3) $end
$upscope $end
$scope module gen_gp(4) $end
$upscope $end
$scope module gen_gp(5) $end
$upscope $end
$scope module gen_gp(6) $end
$upscope $end
$scope module gen_gp(7) $end
$upscope $end
$scope module gen_gp(8) $end
$upscope $end
$scope module gen_gp(9) $end
$upscope $end
$scope module gen_gp(10) $end
$upscope $end
$scope module gen_gp(11) $end
$upscope $end
$scope module gen_gp(12) $end
$upscope $end
$scope module gen_gp(13) $end
$upscope $end
$scope module gen_gp(14) $end
$upscope $end
$scope module gen_gp(15) $end
$upscope $end
$scope module gen_sum(0) $end
$upscope $end
$scope module gen_sum(1) $end
$upscope $end
$scope module gen_sum(2) $end
$upscope $end
$scope module gen_sum(3) $end
$upscope $end
$scope module gen_sum(4) $end
$upscope $end
$scope module gen_sum(5) $end
$upscope $end
$scope module gen_sum(6) $end
$upscope $end
$scope module gen_sum(7) $end
$upscope $end
$scope module gen_sum(8) $end
$upscope $end
$scope module gen_sum(9) $end
$upscope $end
$scope module gen_sum(10) $end
$upscope $end
$scope module gen_sum(11) $end
$upscope $end
$scope module gen_sum(12) $end
$upscope $end
$scope module gen_sum(13) $end
$upscope $end
$scope module gen_sum(14) $end
$upscope $end
$scope module gen_sum(15) $end
$upscope $end
$upscope $end
$scope module bk_high $end
$var reg 16 w a[15:0] $end
$var reg 16 x b[15:0] $end
$var reg 1 y cin $end
$var reg 16 z sum[15:0] $end
$var reg 1 { cout $end
$var reg 16 | g[15:0] $end
$var reg 16 } p[15:0] $end
$var reg 17 !" c[16:0] $end
$scope module gen_gp(0) $end
$upscope $end
$scope module gen_gp(1) $end
$upscope $end
$scope module gen_gp(2) $end
$upscope $end
$scope module gen_gp(3) $end
$upscope $end
$scope module gen_gp(4) $end
$upscope $end
$scope module gen_gp(5) $end
$upscope $end
$scope module gen_gp(6) $end
$upscope $end
$scope module gen_gp(7) $end
$upscope $end
$scope module gen_gp(8) $end
$upscope $end
$scope module gen_gp(9) $end
$upscope $end
$scope module gen_gp(10) $end
$upscope $end
$scope module gen_gp(11) $end
$upscope $end
$scope module gen_gp(12) $end
$upscope $end
$scope module gen_gp(13) $end
$upscope $end
$scope module gen_gp(14) $end
$upscope $end
$scope module gen_gp(15) $end
$upscope $end
$scope module gen_sum(0) $end
$upscope $end
$scope module gen_sum(1) $end
$upscope $end
$scope module gen_sum(2) $end
$upscope $end
$scope module gen_sum(3) $end
$upscope $end
$scope module gen_sum(4) $end
$upscope $end
$scope module gen_sum(5) $end
$upscope $end
$scope module gen_sum(6) $end
$upscope $end
$scope module gen_sum(7) $end
$upscope $end
$scope module gen_sum(8) $end
$upscope $end
$scope module gen_sum(9) $end
$upscope $end
$scope module gen_sum(10) $end
$upscope $end
$scope module gen_sum(11) $end
$upscope $end
$scope module gen_sum(12) $end
$upscope $end
$scope module gen_sum(13) $end
$upscope $end
$scope module gen_sum(14) $end
$upscope $end
$scope module gen_sum(15) $end
$upscope $end
$upscope $end
$upscope $end
$scope module u_shifter $end
$var reg 32 "" datain[31:0] $end
$var reg 5 #" shamt[4:0] $end
$var reg 2 $" mode[1:0] $end
$var reg 32 %" dataout[31:0] $end
$var reg 32 &" stage0[31:0] $end
$var reg 32 '" stage1[31:0] $end
$var reg 32 (" stage2[31:0] $end
$var reg 32 )" stage3[31:0] $end
$var reg 32 *" stage4[31:0] $end
$var reg 1 +" fillbit $end
$upscope $end
$upscope $end
$scope module dm_inst $end
$var reg 1 ," clk $end
$var reg 1 -" memread $end
$var reg 1 ." memwrite $end
$var reg 32 /" address[31:0] $end
$var reg 32 0" writedata[31:0] $end
$var reg 32 1" readdata[31:0] $end
$comment ram is not handled $end
$var integer 32 2" addr_index $end
$upscope $end
$scope module wb_mux $end
$var reg 32 3" aluresult[31:0] $end
$var reg 32 4" readdata[31:0] $end
$var reg 1 5" memtoreg $end
$var reg 32 6" writedata[31:0] $end
$upscope $end
$upscope $end
$upscope $end
$enddefinitions $end
#0
0!
1"
0#
1$
b00000000000000000000000000000100 %
b00000000000000000000000000000000 &
b00100000000010000000000000000101 '
b00000000000000000000000000000000 (
b00000000000000000000000000000000 )
b00000000000000000000000000000101 *
b00000000000000000000000000000101 +
b00000000000000000000000000000000 ,
b00000000000000000000000000000101 -
0.
b0010 /
b01000 0
b00000000000000000000000000000101 1
02
03
14
05
06
07
b00 8
b01 9
b00000 :
bUUUUU ;
b00000000000000000000000000000000 <
b00000000000000000000000000000000 =
0>
0?
1@
b00000000000000000000000000000100 A
b00000000000000000000000000000000 B
b00000000000000000000000000000000 C
b00000000000000000000000000000000 D
b00100000000010000000000000000101 E
b001000 F
b000101 G
0H
b01 I
0J
1K
0L
0M
0N
UO
0P
b00 Q
0R
1S
b00000 T
b01000 U
b01000 V
b00000000000000000000000000000101 W
b00000000000000000000000000000000 X
b00000000000000000000000000000000 Y
b00 Z
b000101 [
b0010 \
b00000000000000000000000000000000 ]
b00000000000000000000000000000101 ^
b0010 _
b00000000000000000000000000000101 `
0a
b00000000000000000000000000000101 b
b00000000000000000000000000000101 c
0d
b00000000000000000000000000000101 e
b00000000000000000000000000000000 f
b00000000000000000000000000000000 g
b00000000000000000000000000000101 h
0i
b00000000000000000000000000000101 j
0k
b0000000000000101 l
b0000000000000000 m
0n
b0000000000000000 o
b0000000000000101 p
0q
b0000000000000101 r
0s
b0000000000000000 t
b0000000000000101 u
b00000000000000000 v
b0000000000000000 w
b0000000000000000 x
0y
b0000000000000000 z
0{
b0000000000000000 |
b0000000000000000 }
b00000000000000000 !"
b00000000000000000000000000000000 ""
b00101 #"
b10 $"
b00000000000000000000000000000000 %"
b00000000000000000000000000000000 &"
b00000000000000000000000000000000 '"
b00000000000000000000000000000000 ("
b00000000000000000000000000000000 )"
b00000000000000000000000000000000 *"
0+"
0,"
0-"
0."
b00000000000000000000000000000101 /"
b00000000000000000000000000000000 0"
b00000000000000000000000000000000 1"
b1 2"
b00000000000000000000000000000101 3"
b00000000000000000000000000000000 4"
05"
b00000000000000000000000000000101 6"
#5000000
1!
1#
b00000000000000000000000000000101 )
1?
1R
b00000000000000000000000000000101 Y
1,"
b00000000000000000000000000000101 0"
#10000000
0!
0#
0?
0R
0,"
#15000000
1!
1#
1?
1R
1,"
#20000000
0!
0"
0#
0$
0?
0@
0R
0,"
#25000000
1!
1#
b00000000000000000000000000001000 %
b00000000000000000000000000000100 &
b00100000000010010000000000001000 '
b00000000000000000000000000000000 )
b00000000000000000000000000001000 *
b00000000000000000000000000001000 +
b00000000000000000000000000001000 -
b01001 0
b00000000000000000000000000001000 1
1?
b00000000000000000000000000001000 A
b00000000000000000000000000000100 B
b00000000000000000000000000000100 C
b00000000000000000000000000000100 D
b00100000000010010000000000001000 E
b001000 G
b01 I
1K
1R
b01001 U
b01001 V
b00000000000000000000000000001000 W
b00000000000000000000000000000000 Y
b001000 [
b00000000000000000000000000001000 ^
b00000000000000000000000000001000 `
b00000000000000000000000000001000 b
b00000000000000000000000000001000 c
b00000000000000000000000000001000 e
b00000000000000000000000000001000 h
b00000000000000000000000000001000 j
b0000000000001000 l
b0000000000001000 p
b0000000000001000 r
b0000000000001000 u
b01000 #"
1,"
b00000000000000000000000000001000 /"
b00000000000000000000000000000000 0"
b10 2"
b00000000000000000000000000001000 3"
b00000000000000000000000000001000 6"
#30000000
0!
0#
0?
0R
0,"
#35000000
1!
1#
b00000000000000000000000000001100 %
b00000000000000000000000000001000 &
b00100000000010100000000000001100 '
b00000000000000000000000000000000 )
b00000000000000000000000000001100 *
b00000000000000000000000000001100 +
b00000000000000000000000000001100 -
b01010 0
b00000000000000000000000000001100 1
1?
b00000000000000000000000000001100 A
b00000000000000000000000000001000 B
b00000000000000000000000000001000 C
b00000000000000000000000000001000 D
b00100000000010100000000000001100 E
b001100 G
b01 I
1K
1R
b01010 U
b01010 V
b00000000000000000000000000001100 W
b00000000000000000000000000000000 Y
b001100 [
b00000000000000000000000000001100 ^
b00000000000000000000000000001100 `
b00000000000000000000000000001100 b
b00000000000000000000000000001100 c
b00000000000000000000000000001100 e
b00000000000000000000000000001100 h
b00000000000000000000000000001100 j
b0000000000001100 l
b0000000000001100 p
b0000000000001100 r
b0000000000001100 u
b01100 #"
1,"
b00000000000000000000000000001100 /"
b00000000000000000000000000000000 0"
b11 2"
b00000000000000000000000000001100 3"
b00000000000000000000000000001100 6"
#40000000
0!
0#
0?
0R
0,"
#45000000
1!
1#
b00000000000000000000000000010000 %
b00000000000000000000000000001100 &
b00000001000010010101100000100000 '
b00000000000000000000000000000101 (
b00000000000000000000000000001000 )
b00000000000000000101100000100000 *
b00000000000000000000000000001101 +
b00000000000000000000000000001101 -
b01011 0
b00000000000000000000000000001000 1
12
b10 8
b00 9
b00000000000000000000000000000101 =
1?
b00000000000000000000000000010000 A
b00000000000000000000000000001100 B
b00000000000000000000000000001100 C
b00000000000000000000000000001100 D
b00000001000010010101100000100000 E
b000000 F
b100000 G
1H
b00 I
1K
b10 Q
1R
b01000 T
b01001 U
b01011 V
b00000000000000000000000000001101 W
b00000000000000000000000000000101 X
b00000000000000000000000000001000 Y
b10 Z
b100000 [
b00000000000000000000000000000101 ]
b00000000000000000000000000001000 ^
b00000000000000000000000000001101 `
b00000000000000000000000000001000 b
b00000000000000000000000000001101 c
b00000000000000000000000000001101 e
b00000000000000000000000000000101 g
b00000000000000000000000000001000 h
b00000000000000000000000000001101 j
b0000000000001101 l
b0000000000000101 o
b0000000000001000 p
b0000000000001101 r
b0000000000000000 t
b0000000000001101 u
b00000000000000000 v
b00000000000000000000000000000101 ""
b01000 #"
b00000000000000000000000000000101 &"
b00000000000000000000000000000101 '"
b00000000000000000000000000000101 ("
1,"
b00000000000000000000000000001101 /"
b00000000000000000000000000001000 0"
b11 2"
b00000000000000000000000000001101 3"
b00000000000000000000000000001101 6"
#50000000
0!
0#
0?
0R
0,"
#55000000
1!
1#
b00000000000000000000000000010100 %
b00000000000000000000000000010000 &
b00000001010010000110000000100010 '
b00000000000000000000000000001100 (
b00000000000000000000000000000101 )
b00000000000000000110000000100010 *
b00000000000000000000000000000111 +
b00000000000000000000000000000111 -
b0110 /
b01100 0
b00000000000000000000000000000101 1
b00000000000000000000000000001100 =
1?
b00000000000000000000000000010100 A
b00000000000000000000000000010000 B
b00000000000000000000000000010000 C
b00000000000000000000000000010000 D
b00000001010010000110000000100010 E
b100010 G
1H
1K
b10 Q
1R
b01010 T
b01000 U
b01100 V
b00000000000000000000000000000111 W
b00000000000000000000000000001100 X
b00000000000000000000000000000101 Y
b100010 [
b0110 \
b00000000000000000000000000001100 ]
b00000000000000000000000000000101 ^
b0110 _
b00000000000000000000000000000111 `
b11111111111111111111111111111010 b
b00000000000000000000000000000111 c
1d
b00000000000000000000000000000111 e
b00000000000000000000000000000000 f
b00000000000000000000000000001100 g
b11111111111111111111111111111010 h
1i
b00000000000000000000000000000111 j
1k
b0000000000000111 l
b0000000000000000 m
1n
b0000000000001100 o
b1111111111111010 p
1q
b0000000000000111 r
1s
b0000000000001000 t
b1111111111110110 u
b11111111111110001 v
b1111111111111111 x
1y
b0000000000000000 z
1{
b1111111111111111 }
b11111111111111111 !"
b00000000000000000000000000001100 ""
b00101 #"
b00000000000000000000000000000000 %"
b00000000000000000000000000000110 &"
b00000000000000000000000000000110 '"
b00000000000000000000000000000000 ("
b00000000000000000000000000000000 )"
b00000000000000000000000000000000 *"
1,"
b00000000000000000000000000000111 /"
b00000000000000000000000000000101 0"
b1 2"
b00000000000000000000000000000111 3"
b00000000000000000000000000000111 6"
#60000000
0!
0#
0?
0R
0,"
#65000000
1!
1#
b00000000000000000000000000011000 %
b00000000000000000000000000010100 &
b00000001000010010110100000100100 '
b00000000000000000000000000000101 (
b00000000000000000000000000001000 )
b00000000000000000110100000100100 *
b00000000000000000000000000000000 +
b00000000000000000000000000000000 -
1.
b0000 /
b01101 0
b00000000000000000000000000001000 1
b00000000000000000000000000000101 =
1?
b00000000000000000000000000011000 A
b00000000000000000000000000010100 B
b00000000000000000000000000010100 C
b00000000000000000000000000010100 D
b00000001000010010110100000100100 E
b100100 G
1H
1K
b10 Q
1R
b01000 T
b01001 U
b01101 V
b00000000000000000000000000000000 W
b00000000000000000000000000000101 X
b00000000000000000000000000001000 Y
b100100 [
b0000 \
b00000000000000000000000000000101 ]
b00000000000000000000000000001000 ^
b0000 _
b00000000000000000000000000000000 `
1a
b00000000000000000000000000001000 b
b00000000000000000000000000001101 c
0d
b00000000000000000000000000000000 e
b00000000000000000000010100000000 f
b00000000000000000000000000000101 g
b00000000000000000000000000001000 h
0i
b00000000000000000000000000001101 j
0k
b0000000000001101 l
b0000000000000000 m
0n
b0000000000000101 o
b0000000000001000 p
0q
b0000000000001101 r
0s
b0000000000000000 t
b0000000000001101 u
b00000000000000000 v
b0000000000000000 x
0y
b0000000000000000 z
0{
b0000000000000000 }
b00000000000000000 !"
b00000000000000000000000000000101 ""
b01000 #"
b00 $"
b00000000000000000000010100000000 %"
b00000000000000000000000000000101 &"
b00000000000000000000000000000101 '"
b00000000000000000000000000000101 ("
b00000000000000000000010100000000 )"
b00000000000000000000010100000000 *"
1,"
b00000000000000000000000000000000 /"
b00000000000000000000000000001000 0"
b0 2"
b00000000000000000000000000000000 3"
b00000000000000000000000000000000 6"
#70000000
0!
0#
0?
0R
0,"
#75000000
1!
1#
b00000000000000000000000000011100 %
b00000000000000000000000000011000 &
b00000001000010010111000000100101 '
b00000000000000000111000000100101 *
b00000000000000000000000000001101 +
b00000000000000000000000000001101 -
0.
b0001 /
b01110 0
1?
b00000000000000000000000000011100 A
b00000000000000000000000000011000 B
b00000000000000000000000000011000 C
b00000000000000000000000000011000 D
b00000001000010010111000000100101 E
b100101 G
1H
1K
b10 Q
1R
b01110 V
b00000000000000000000000000001101 W
b100101 [
b0001 \
b0001 _
b00000000000000000000000000001101 `
0a
b00000000000000000000000000001101 e
b00000000000000000000000000000000 f
b01 $"
b00000000000000000000000000000000 %"
b00000000000000000000000000000000 )"
b00000000000000000000000000000000 *"
1,"
b00000000000000000000000000001101 /"
b11 2"
b00000000000000000000000000001101 3"
b00000000000000000000000000001101 6"
#80000000
0!
0#
0?
0R
0,"
#85000000
1!
1#
b00000000000000000000000000100000 %
b00000000000000000000000000011100 &
b00000001000010010111100000100110 '
b00000000000000000111100000100110 *
b0100 /
b01111 0
1?
b00000000000000000000000000100000 A
b00000000000000000000000000011100 B
b00000000000000000000000000011100 C
b00000000000000000000000000011100 D
b00000001000010010111100000100110 E
b100110 G
1H
1K
b10 Q
1R
b01111 V
b100110 [
b0100 \
b0100 _
b00000000000000000000010100000000 f
b00 $"
b00000000000000000000010100000000 %"
b00000000000000000000010100000000 )"
b00000000000000000000010100000000 *"
1,"
#90000000
0!
0#
0?
0R
0,"
#95000000
1!
1#
b00000000000000000000000000100100 %
b00000000000000000000000000100000 &
b00000001000010011000000000100111 '
b11111111111111111000000000100111 *
b11111111111111111111111111110010 +
b11111111111111111111111111110010 -
b1100 /
b10000 0
1?
b00000000000000000000000000100100 A
b00000000000000000000000000100000 B
b00000000000000000000000000100000 C
b00000000000000000000000000100000 D
b00000001000010011000000000100111 E
b100111 G
1H
1K
b10 Q
1R
b10000 V
b11111111111111111111111111110010 W
b100111 [
b1100 \
b1100 _
b11111111111111111111111111110010 `
b11111111111111111111111111110010 e
1,"
b11111111111111111111111111110010 /"
b1111111100 2"
b11111111111111111111111111110010 3"
b11111111111111111111111111110010 6"
#100000000
0!
0#
0?
0R
0,"
#105000000
1!
1#
b00000000000000000000000000101000 %
b00000000000000000000000000100100 &
b00000001000010011000100000101010 '
b11111111111111111000100000101010 *
b00000000000000000000000000000001 +
b00000000000000000000000000000001 -
0.
b0111 /
b10001 0
1?
b00000000000000000000000000101000 A
b00000000000000000000000000100100 B
b00000000000000000000000000100100 C
b00000000000000000000000000100100 D
b00000001000010011000100000101010 E
b101010 G
1H
1K
b10 Q
1R
b10001 V
b00000000000000000000000000000001 W
b101010 [
b0111 \
b0111 _
b00000000000000000000000000000001 `
0a
b11111111111111111111111111110111 b
b11111111111111111111111111111101 c
1d
b00000000000000000000000000000001 e
b00000000000000000000000000000000 f
b11111111111111111111111111110111 h
1i
b11111111111111111111111111111101 j
b1111111111111101 l
b1111111111111111 m
b1111111111110111 p
1q
b1111111111111101 r
b0000000000000101 t
b1111111111110010 u
b00000000000001111 v
b1111111111111111 x
b1111111111111111 z
b1111111111111111 }
b11 $"
b00000000000000000000000000000000 %"
b00000000000000000000000000000000 )"
b00000000000000000000000000000000 *"
1,"
b00000000000000000000000000000001 /"
b0 2"
b00000000000000000000000000000001 3"
b00000000000000000000000000000001 6"
#110000000
0!
0#
0?
0R
0,"
#115000000
1!
1#
b00000000000000000000000000101100 %
b00000000000000000000000000101000 &
b00000000000010001000000010000000 '
b00000000000000000000000000000000 (
b00000000000000000000000000000101 )
b11111111111111111000000010000000 *
b00000000000000000000000000010100 +
b00000000000000000000000000010100 -
0.
b1000 /
b10000 0
b00000000000000000000000000000010 1
b10 9
b00010 :
b00000000000000000000000000000010 <
1>
1?
b00000000000000000000000000101100 A
b00000000000000000000000000101000 B
b00000000000000000000000000101000 C
b00000000000000000000000000101000 D
b00000000000010001000000010000000 E
b000000 G
1H
b10 I
1K
1P
b10 Q
1R
b00000 T
b01000 U
b10000 V
b00000000000000000000000000010100 W
b00000000000000000000000000000000 X
b00000000000000000000000000000101 Y
b000000 [
b1000 \
b00000000000000000000000000000010 ^
b1000 _
b00000000000000000000000000010100 `
0a
b00000000000000000000000000000010 b
b00000000000000000000000000000111 c
0d
b00000000000000000000000000010100 e
b00000000000000000000000000010100 f
b00000000000000000000000000000010 h
0i
b00000000000000000000000000000111 j
b0000000000000111 l
b0000000000000000 m
b0000000000000010 p
0q
b0000000000000111 r
b0000000000000000 t
b0000000000000111 u
b00000000000000000 v
b0000000000000000 x
b0000000000000000 z
b0000000000000000 }
b00010 #"
b00 $"
b00000000000000000000000000010100 %"
b00000000000000000000000000010100 '"
b00000000000000000000000000010100 ("
b00000000000000000000000000010100 )"
b00000000000000000000000000010100 *"
1,"
b00000000000000000000000000010100 /"
b00000000000000000000000000000101 0"
b101 2"
b00000000000000000000000000010100 3"
b00000000000000000000000000010100 6"
#120000000
0!
0#
0?
0R
0,"
#125000000
1!
1#
b00000000000000000000000000110000 %
b00000000000000000000000000101100 &
b00000000000010101000100001000010 '
b00000000000000000000000000001100 )
b11111111111111111000100001000010 *
b00000000000000000000000000000110 +
b00000000000000000000000000000110 -
b1001 /
b10001 0
b00000000000000000000000000000001 1
b00001 :
b00000000000000000000000000000001 <
b00000000000000000000000000001100 =
1?
b00000000000000000000000000110000 A
b00000000000000000000000000101100 B
b00000000000000000000000000101100 C
b00000000000000000000000000101100 D
b00000000000010101000100001000010 E
b000010 G
1H
b10 I
1K
1P
b10 Q
1R
b01010 U
b10001 V
b00000000000000000000000000000110 W
b00000000000000000000000000001100 Y
b000010 [
b1001 \
b00000000000000000000000000001100 ]
b00000000000000000000000000000001 ^
b1001 _
b00000000000000000000000000000110 `
b00000000000000000000000000000001 b
b00000000000000000000000000001101 c
b00000000000000000000000000000110 e
b00000000000000000000000000000110 f
b00000000000000000000000000001100 g
b00000000000000000000000000000001 h
b00000000000000000000000000001101 j
b0000000000001101 l
b0000000000001100 o
b0000000000000001 p
b0000000000001101 r
b0000000000001101 u
b00000000000000000000000000001100 ""
b00001 #"
b01 $"
b00000000000000000000000000000110 %"
b00000000000000000000000000000110 &"
b00000000000000000000000000000110 '"
b00000000000000000000000000000110 ("
b00000000000000000000000000000110 )"
b00000000000000000000000000000110 *"
1,"
b00000000000000000000000000000110 /"
b00000000000000000000000000001100 0"
b1 2"
b00000000000000000000000000000110 3"
b00000000000000000000000000000110 6"
#130000000
0!
0#
0?
0R
0,"
#135000000
1!
1#
b00000000000000000000000000110100 %
b00000000000000000000000000110000 &
b00000000000000000000000000000000 '
b00000000000000000000000000000000 )
b00000000000000000000000000000000 *
b00000000000000000000000000000000 +
b00000000000000000000000000000000 -
1.
b1000 /
b00000 0
b00000000000000000000000000000000 1
b00000 :
b00000000000000000000000000000000 <
b00000000000000000000000000000000 =
1?
b00000000000000000000000000110100 A
b00000000000000000000000000110000 B
b00000000000000000000000000110000 C
b00000000000000000000000000110000 D
b00000000000000000000000000000000 E
b000000 G
1H
b10 I
1K
1P
b10 Q
1R
b00000 U
b00000 V
b00000000000000000000000000000000 W
b00000000000000000000000000000000 Y
b000000 [
b1000 \
b00000000000000000000000000000000 ]
b00000000000000000000000000000000 ^
b1000 _
b00000000000000000000000000000000 `
1a
b00000000000000000000000000000000 b
b00000000000000000000000000000000 c
b00000000000000000000000000000000 e
b00000000000000000000000000000000 f
b00000000000000000000000000000000 g
b00000000000000000000000000000000 h
b00000000000000000000000000000000 j
b0000000000000000 l
b0000000000000000 o
b0000000000000000 p
b0000000000000000 r
b0000000000000000 u
b00000000000000000000000000000000 ""
b00000 #"
b00 $"
b00000000000000000000000000000000 %"
b00000000000000000000000000000000 &"
b00000000000000000000000000000000 '"
b00000000000000000000000000000000 ("
b00000000000000000000000000000000 )"
b00000000000000000000000000000000 *"
1,"
b00000000000000000000000000000000 /"
b00000000000000000000000000000000 0"
b0 2"
b00000000000000000000000000000000 3"
b00000000000000000000000000000000 6"
#140000000
0!
0#
0?
0R
0,"
#145000000
1!
1#
b00000000000000000000000000111000 %
b00000000000000000000000000110100 &
1?
b00000000000000000000000000111000 A
b00000000000000000000000000110100 B
b00000000000000000000000000110100 C
b00000000000000000000000000110100 D
1R
1,"
#150000000
0!
0#
0?
0R
0,"
#155000000
1!
1#
b00000000000000000000000000111100 %
b00000000000000000000000000111000 &
1?
b00000000000000000000000000111100 A
b00000000000000000000000000111000 B
b00000000000000000000000000111000 C
b00000000000000000000000000111000 D
1R
1,"
#160000000
0!
0#
0?
0R
0,"
#165000000
1!
1#
b00000000000000000000000001000000 %
b00000000000000000000000000111100 &
1?
b00000000000000000000000001000000 A
b00000000000000000000000000111100 B
b00000000000000000000000000111100 C
b00000000000000000000000000111100 D
1R
1,"
#170000000
0!
0#
0?
0R
0,"
#175000000
1!
1#
b00000000000000000000000001000100 %
b00000000000000000000000001000000 &
1?
b00000000000000000000000001000100 A
b00000000000000000000000001000000 B
b00000000000000000000000001000000 C
b00000000000000000000000001000000 D
1R
1,"
#180000000
0!
0#
0?
0R
0,"
#185000000
1!
1#
b00000000000000000000000001001000 %
b00000000000000000000000001000100 &
1?
b00000000000000000000000001001000 A
b00000000000000000000000001000100 B
b00000000000000000000000001000100 C
b00000000000000000000000001000100 D
1R
1,"
#190000000
0!
0#
0?
0R
0,"
#195000000
1!
1#
b00000000000000000000000001001100 %
b00000000000000000000000001001000 &
1?
b00000000000000000000000001001100 A
b00000000000000000000000001001000 B
b00000000000000000000000001001000 C
b00000000000000000000000001001000 D
1R
1,"
#200000000
0!
0#
0?
0R
0,"
#205000000
1!
1#
b00000000000000000000000001010000 %
b00000000000000000000000001001100 &
1?
b00000000000000000000000001010000 A
b00000000000000000000000001001100 B
b00000000000000000000000001001100 C
b00000000000000000000000001001100 D
1R
1,"
#210000000
0!
0#
0?
0R
0,"
#215000000
1!
1#
b00000000000000000000000001010100 %
b00000000000000000000000001010000 &
1?
b00000000000000000000000001010100 A
b00000000000000000000000001010000 B
b00000000000000000000000001010000 C
b00000000000000000000000001010000 D
1R
1,"
#220000000
0!
0#
0?
0R
0,"
#225000000
1!
1#
b00000000000000000000000001011000 %
b00000000000000000000000001010100 &
1?
b00000000000000000000000001011000 A
b00000000000000000000000001010100 B
b00000000000000000000000001010100 C
b00000000000000000000000001010100 D
1R
1,"
#230000000
0!
0#
0?
0R
0,"
#235000000
1!
1#
b00000000000000000000000001011100 %
b00000000000000000000000001011000 &
1?
b00000000000000000000000001011100 A
b00000000000000000000000001011000 B
b00000000000000000000000001011000 C
b00000000000000000000000001011000 D
1R
1,"
#240000000
0!
0#
0?
0R
0,"
#245000000
1!
1#
b00000000000000000000000001100000 %
b00000000000000000000000001011100 &
1?
b00000000000000000000000001100000 A
b00000000000000000000000001011100 B
b00000000000000000000000001011100 C
b00000000000000000000000001011100 D
1R
1,"
#250000000
0!
0#
0?
0R
0,"
#255000000
1!
1#
b00000000000000000000000001100100 %
b00000000000000000000000001100000 &
1?
b00000000000000000000000001100100 A
b00000000000000000000000001100000 B
b00000000000000000000000001100000 C
b00000000000000000000000001100000 D
1R
1,"
#260000000
0!
0#
0?
0R
0,"
#265000000
1!
1#
b00000000000000000000000001101000 %
b00000000000000000000000001100100 &
1?
b00000000000000000000000001101000 A
b00000000000000000000000001100100 B
b00000000000000000000000001100100 C
b00000000000000000000000001100100 D
1R
1,"
#270000000
0!
0#
0?
0R
0,"
#275000000
1!
1#
b00000000000000000000000001101100 %
b00000000000000000000000001101000 &
1?
b00000000000000000000000001101100 A
b00000000000000000000000001101000 B
b00000000000000000000000001101000 C
b00000000000000000000000001101000 D
1R
1,"
#280000000
0!
0#
0?
0R
0,"
#285000000
1!
1#
b00000000000000000000000001110000 %
b00000000000000000000000001101100 &
1?
b00000000000000000000000001110000 A
b00000000000000000000000001101100 B
b00000000000000000000000001101100 C
b00000000000000000000000001101100 D
1R
1,"
#290000000
0!
0#
0?
0R
0,"
#295000000
1!
1#
b00000000000000000000000001110100 %
b00000000000000000000000001110000 &
1?
b00000000000000000000000001110100 A
b00000000000000000000000001110000 B
b00000000000000000000000001110000 C
b00000000000000000000000001110000 D
1R
1,"
#300000000
0!
0#
0?
0R
0,"
#305000000
1!
1#
b00000000000000000000000001111000 %
b00000000000000000000000001110100 &
1?
b00000000000000000000000001111000 A
b00000000000000000000000001110100 B
b00000000000000000000000001110100 C
b00000000000000000000000001110100 D
1R
1,"
#310000000
0!
0#
0?
0R
0,"
