I-Type/singlecpu.vcd
$date
  Sat Nov 29 13:00:34 2025
$end
$version
  GHDL v0
$end
$timescale
  1 fs
$end
$scope module standard $end
$upscope $end
$scope module std_logic_1164 $end
$upscope $end
$scope module numeric_std $end
$upscope $end
$scope module singlecyclecpu_tb $end
$var reg 1 ! clk $end
$var reg 1 " reset $end
$var reg 32 # dbg_pc_out[31:0] $end
$var reg 32 $ dbg_pc_in[31:0] $end
$var reg 1 % dbg_zero $end
$var reg 1 & dbg_branch $end
$var reg 2 ' dbg_branchtype[1:0] $end
$var reg 1 ( dbg_pcsrc $end
$var reg 32 ) dbg_branchtarget[31:0] $end
$scope module cpu_inst $end
$var reg 1 * clk $end
$var reg 1 + reset $end
$var reg 32 , dbg_pc_out[31:0] $end
$var reg 32 - dbg_pc_in[31:0] $end
$var reg 1 . dbg_zero $end
$var reg 1 / dbg_branch $end
$var reg 2 0 dbg_branchtype[1:0] $end
$var reg 1 1 dbg_pcsrc $end
$var reg 32 2 dbg_branchtarget[31:0] $end
$var reg 32 3 pc_in[31:0] $end
$var reg 32 4 pc_out[31:0] $end
$var reg 32 5 instruction[31:0] $end
$var reg 32 6 readdata1[31:0] $end
$var reg 32 7 readdata2[31:0] $end
$var reg 32 8 signimm[31:0] $end
$var reg 32 9 aluresult[31:0] $end
$var reg 32 : memreaddata[31:0] $end
$var reg 32 ; writedatareg[31:0] $end
$var reg 1 < zero $end
$var reg 4 = alucontrolsig[3:0] $end
$var reg 5 > writeregaddr[4:0] $end
$var reg 32 ? alu_b[31:0] $end
$var reg 1 @ regdst $end
$var reg 1 A memtoreg $end
$var reg 1 B regwrite $end
$var reg 1 C memread $end
$var reg 1 D memwrite $end
$var reg 1 E branch $end
$var reg 1 F jump $end
$var reg 2 G aluop[1:0] $end
$var reg 2 H alusrc[1:0] $end
$var reg 2 I branchtype[1:0] $end
$var reg 32 J branchtarget[31:0] $end
$var reg 1 K pcsrc $end
$var reg 32 L pc_plus_4[31:0] $end
$var reg 5 M shamt_value[4:0] $end
$var reg 5 N check[4:0] $end
$var reg 32 O shamt_ext_32[31:0] $end
$var reg 32 P alu_a_input[31:0] $end
$var reg 1 Q alusrca_ctrl $end
$scope module pc_inst $end
$var reg 1 R clk $end
$var reg 1 S reset $end
$var reg 32 T pc_in[31:0] $end
$var reg 32 U pc_out[31:0] $end
$var reg 32 V pc_reg[31:0] $end
$upscope $end
$scope module im_inst $end
$var reg 32 W address[31:0] $end
$var reg 32 X instruction[31:0] $end
$upscope $end
$scope module cu_inst $end
$var reg 6 Y opcode[5:0] $end
$var reg 6 Z funct_in[5:0] $end
$var reg 1 [ regdst $end
$var reg 2 \ alusrc_ctrl[1:0] $end
$var reg 1 ] memtoreg $end
$var reg 1 ^ regwrite $end
$var reg 1 _ memread $end
$var reg 1 ` memwrite $end
$var reg 1 a branch $end
$var reg 2 b branchtype[1:0] $end
$var reg 1 c jump $end
$var reg 1 d alusrca $end
$var reg 2 e aluop[1:0] $end
$upscope $end
$scope module rf_inst $end
$var reg 1 f clk $end
$var reg 1 g regwrite $end
$var reg 5 h readreg1[4:0] $end
$var reg 5 i readreg2[4:0] $end
$var reg 5 j writereg[4:0] $end
$var reg 32 k writedata[31:0] $end
$var reg 32 l readdata1[31:0] $end
$var reg 32 m readdata2[31:0] $end
$comment regs is not handled $end
$upscope $end
$scope module aluc_inst $end
$var reg 2 n aluop[1:0] $end
$var reg 6 o funct[5:0] $end
$var reg 6 p opcode[5:0] $end
$var reg 4 q alucontrol[3:0] $end
$upscope $end
$scope module alu_inst $end
$var reg 32 r a[31:0] $end
$var reg 32 s b[31:0] $end
$var reg 4 t alucontrol[3:0] $end
$var reg 32 u result[31:0] $end
$var reg 1 v zero $end
$var reg 32 w b_invert[31:0] $end
$var reg 32 x adder_result[31:0] $end
$var reg 1 y cin_sig $end
$var reg 32 z result_i[31:0] $end
$var reg 32 { shiftout[31:0] $end
$scope module adder32 $end
$var reg 32 | a[31:0] $end
$var reg 32 } b[31:0] $end
$var reg 1 !" cin $end
$var reg 32 "" sum[31:0] $end
$var reg 1 #" cout $end
$var reg 16 $" sum_lo[15:0] $end
$var reg 16 %" sum_hi[15:0] $end
$var reg 1 &" cmid $end
$scope module bk_low $end
$var reg 16 '" a[15:0] $end
$var reg 16 (" b[15:0] $end
$var reg 1 )" cin $end
$var reg 16 *" sum[15:0] $end
$var reg 1 +" cout $end
$var reg 16 ," g[15:0] $end
$var reg 16 -" p[15:0] $end
$var reg 17 ." c[16:0] $end
$scope module gen_gp(0) $end
$upscope $end
$scope module gen_gp(1) $end
$upscope $end
$scope module gen_gp(2) $end
$upscope $end
$scope module gen_gp(3) $end
$upscope $end
$scope module gen_gp(4) $end
$upscope $end
$scope module gen_gp(5) $end
$upscope $end
$scope module gen_gp(6) $end
$upscope $end
$scope module gen_gp(7) $end
$upscope $end
$scope module gen_gp(8) $end
$upscope $end
$scope module gen_gp(9) $end
$upscope $end
$scope module gen_gp(10) $end
$upscope $end
$scope module gen_gp(11) $end
$upscope $end
$scope module gen_gp(12) $end
$upscope $end
$scope module gen_gp(13) $end
$upscope $end
$scope module gen_gp(14) $end
$upscope $end
$scope module gen_gp(15) $end
$upscope $end
$scope module gen_sum(0) $end
$upscope $end
$scope module gen_sum(1) $end
$upscope $end
$scope module gen_sum(2) $end
$upscope $end
$scope module gen_sum(3) $end
$upscope $end
$scope module gen_sum(4) $end
$upscope $end
$scope module gen_sum(5) $end
$upscope $end
$scope module gen_sum(6) $end
$upscope $end
$scope module gen_sum(7) $end
$upscope $end
$scope module gen_sum(8) $end
$upscope $end
$scope module gen_sum(9) $end
$upscope $end
$scope module gen_sum(10) $end
$upscope $end
$scope module gen_sum(11) $end
$upscope $end
$scope module gen_sum(12) $end
$upscope $end
$scope module gen_sum(13) $end
$upscope $end
$scope module gen_sum(14) $end
$upscope $end
$scope module gen_sum(15) $end
$upscope $end
$upscope $end
$scope module bk_high $end
$var reg 16 /" a[15:0] $end
$var reg 16 0" b[15:0] $end
$var reg 1 1" cin $end
$var reg 16 2" sum[15:0] $end
$var reg 1 3" cout $end
$var reg 16 4" g[15:0] $end
$var reg 16 5" p[15:0] $end
$var reg 17 6" c[16:0] $end
$scope module gen_gp(0) $end
$upscope $end
$scope module gen_gp(1) $end
$upscope $end
$scope module gen_gp(2) $end
$upscope $end
$scope module gen_gp(3) $end
$upscope $end
$scope module gen_gp(4) $end
$upscope $end
$scope module gen_gp(5) $end
$upscope $end
$scope module gen_gp(6) $end
$upscope $end
$scope module gen_gp(7) $end
$upscope $end
$scope module gen_gp(8) $end
$upscope $end
$scope module gen_gp(9) $end
$upscope $end
$scope module gen_gp(10) $end
$upscope $end
$scope module gen_gp(11) $end
$upscope $end
$scope module gen_gp(12) $end
$upscope $end
$scope module gen_gp(13) $end
$upscope $end
$scope module gen_gp(14) $end
$upscope $end
$scope module gen_gp(15) $end
$upscope $end
$scope module gen_sum(0) $end
$upscope $end
$scope module gen_sum(1) $end
$upscope $end
$scope module gen_sum(2) $end
$upscope $end
$scope module gen_sum(3) $end
$upscope $end
$scope module gen_sum(4) $end
$upscope $end
$scope module gen_sum(5) $end
$upscope $end
$scope module gen_sum(6) $end
$upscope $end
$scope module gen_sum(7) $end
$upscope $end
$scope module gen_sum(8) $end
$upscope $end
$scope module gen_sum(9) $end
$upscope $end
$scope module gen_sum(10) $end
$upscope $end
$scope module gen_sum(11) $end
$upscope $end
$scope module gen_sum(12) $end
$upscope $end
$scope module gen_sum(13) $end
$upscope $end
$scope module gen_sum(14) $end
$upscope $end
$scope module gen_sum(15) $end
$upscope $end
$upscope $end
$upscope $end
$scope module u_shifter $end
$var reg 32 7" datain[31:0] $end
$var reg 5 8" shamt[4:0] $end
$var reg 2 9" mode[1:0] $end
$var reg 32 :" dataout[31:0] $end
$var reg 32 ;" stage0[31:0] $end
$var reg 32 <" stage1[31:0] $end
$var reg 32 =" stage2[31:0] $end
$var reg 32 >" stage3[31:0] $end
$var reg 32 ?" stage4[31:0] $end
$var reg 1 @" fillbit $end
$upscope $end
$upscope $end
$scope module dm_inst $end
$var reg 1 A" clk $end
$var reg 1 B" memread $end
$var reg 1 C" memwrite $end
$var reg 32 D" address[31:0] $end
$var reg 32 E" writedata[31:0] $end
$var reg 32 F" readdata[31:0] $end
$comment ram is not handled $end
$var integer 32 G" addr_index $end
$upscope $end
$scope module wb_mux $end
$var reg 32 H" aluresult[31:0] $end
$var reg 32 I" readdata[31:0] $end
$var reg 1 J" memtoreg $end
$var reg 32 K" writedata[31:0] $end
$upscope $end
$upscope $end
$upscope $end
$enddefinitions $end
#0
0!
1"
b00000000000000000000000000000000 #
b00000000000000000000000000000100 $
0%
0&
b00 '
0(
b00000000000000000000000000011000 )
0*
1+
b00000000000000000000000000000000 ,
b00000000000000000000000000000100 -
0.
0/
b00 0
01
b00000000000000000000000000011000 2
b00000000000000000000000000000100 3
b00000000000000000000000000000000 4
b00100000000010000000000000000101 5
b00000000000000000000000000000000 6
b00000000000000000000000000000000 7
b00000000000000000000000000000101 8
b00000000000000000000000000000101 9
b00000000000000000000000000000000 :
b00000000000000000000000000000101 ;
0<
b0010 =
b01000 >
b00000000000000000000000000000101 ?
0@
0A
1B
0C
0D
0E
UF
b00 G
b01 H
b00 I
b00000000000000000000000000011000 J
0K
b00000000000000000000000000000100 L
b00000 M
bUUUUU N
b00000000000000000000000000000000 O
b00000000000000000000000000000000 P
0Q
0R
1S
b00000000000000000000000000000100 T
b00000000000000000000000000000000 U
b00000000000000000000000000000000 V
b00000000000000000000000000000000 W
b00100000000010000000000000000101 X
b001000 Y
b000101 Z
0[
b01 \
0]
1^
0_
0`
0a
b00 b
Uc
0d
b00 e
0f
1g
b00000 h
b01000 i
b01000 j
b00000000000000000000000000000101 k
b00000000000000000000000000000000 l
b00000000000000000000000000000000 m
b00 n
b000101 o
b001000 p
b0010 q
b00000000000000000000000000000000 r
b00000000000000000000000000000101 s
b0010 t
b00000000000000000000000000000101 u
0v
b00000000000000000000000000000101 w
b00000000000000000000000000000101 x
0y
b00000000000000000000000000000101 z
b00000000000000000000000000000000 {
b00000000000000000000000000000000 |
b00000000000000000000000000000101 }
0!"
b00000000000000000000000000000101 ""
0#"
b0000000000000101 $"
b0000000000000000 %"
0&"
b0000000000000000 '"
b0000000000000101 ("
0)"
b0000000000000101 *"
0+"
b0000000000000000 ,"
b0000000000000101 -"
b00000000000000000 ."
b0000000000000000 /"
b0000000000000000 0"
01"
b0000000000000000 2"
03"
b0000000000000000 4"
b0000000000000000 5"
b00000000000000000 6"
b00000000000000000000000000000000 7"
b00101 8"
b10 9"
b00000000000000000000000000000000 :"
b00000000000000000000000000000000 ;"
b00000000000000000000000000000000 <"
b00000000000000000000000000000000 ="
b00000000000000000000000000000000 >"
b00000000000000000000000000000000 ?"
0@"
0A"
0B"
0C"
b00000000000000000000000000000101 D"
b00000000000000000000000000000000 E"
b00000000000000000000000000000000 F"
b1 G"
b00000000000000000000000000000101 H"
b00000000000000000000000000000000 I"
0J"
b00000000000000000000000000000101 K"
#5000000
1!
1*
b00000000000000000000000000000101 7
1R
1f
b00000000000000000000000000000101 m
1A"
b00000000000000000000000000000101 E"
#10000000
0!
0*
0R
0f
0A"
#15000000
1!
1*
1R
1f
1A"
#20000000
0!
0"
0*
0+
0R
0S
0f
0A"
#25000000
1!
b00000000000000000000000000000100 #
b00000000000000000000000000001000 $
b00000000000000000000000000011100 )
1*
b00000000000000000000000000000100 ,
b00000000000000000000000000001000 -
b00000000000000000000000000011100 2
b00000000000000000000000000001000 3
b00000000000000000000000000000100 4
b00100000000010010000000000000101 5
b00000000000000000000000000000000 7
b01001 >
b00000000000000000000000000011100 J
b00000000000000000000000000001000 L
1R
b00000000000000000000000000001000 T
b00000000000000000000000000000100 U
b00000000000000000000000000000100 V
b00000000000000000000000000000100 W
b00100000000010010000000000000101 X
1f
b01001 i
b01001 j
b00000000000000000000000000000000 m
1A"
b00000000000000000000000000000000 E"
#30000000
0!
0*
0R
0f
0A"
#35000000
1!
b00000000000000000000000000001000 #
b00000000000000000000000000001100 $
b00000000000000000000000000011000 )
1*
b00000000000000000000000000001000 ,
b00000000000000000000000000001100 -
b00000000000000000000000000011000 2
b00000000000000000000000000001100 3
b00000000000000000000000000001000 4
b00100000000010100000000000000011 5
b00000000000000000000000000000000 7
b00000000000000000000000000000011 8
b00000000000000000000000000000011 9
b00000000000000000000000000000011 ;
b01010 >
b00000000000000000000000000000011 ?
b00000000000000000000000000011000 J
b00000000000000000000000000001100 L
1R
b00000000000000000000000000001100 T
b00000000000000000000000000001000 U
b00000000000000000000000000001000 V
b00000000000000000000000000001000 W
b00100000000010100000000000000011 X
b000011 Z
b01 \
1^
1f
b01010 i
b01010 j
b00000000000000000000000000000011 k
b00000000000000000000000000000000 m
b000011 o
b00000000000000000000000000000011 s
b00000000000000000000000000000011 u
b00000000000000000000000000000011 w
b00000000000000000000000000000011 x
b00000000000000000000000000000011 z
b00000000000000000000000000000011 }
b00000000000000000000000000000011 ""
b0000000000000011 $"
b0000000000000011 ("
b0000000000000011 *"
b0000000000000011 -"
b00011 8"
1A"
b00000000000000000000000000000011 D"
b00000000000000000000000000000000 E"
b0 G"
b00000000000000000000000000000011 H"
b00000000000000000000000000000011 K"
#40000000
0!
0*
0R
0f
0A"
#45000000
1!
b00000000000000000000000000001100 #
b00000000000000000000000000011000 $
1%
1&
1(
b00000000000000000000000000011000 )
1*
b00000000000000000000000000001100 ,
b00000000000000000000000000011000 -
1.
1/
11
b00000000000000000000000000011000 2
b00000000000000000000000000011000 3
b00000000000000000000000000001100 4
b00010001000010010000000000000010 5
b00000000000000000000000000000101 6
b00000000000000000000000000000101 7
b00000000000000000000000000000010 8
b00000000000000000000000000000000 9
b00000000000000000000000000000000 ;
1<
b0110 =
b01001 >
b00000000000000000000000000000101 ?
0B
1E
b01 G
b00 H
b00000000000000000000000000011000 J
1K
b00000000000000000000000000010000 L
b00000000000000000000000000000101 P
1R
b00000000000000000000000000011000 T
b00000000000000000000000000001100 U
b00000000000000000000000000001100 V
b00000000000000000000000000001100 W
b00010001000010010000000000000010 X
b000100 Y
b000010 Z
b00 \
0^
1a
b01 e
1f
0g
b01000 h
b01001 i
b01001 j
b00000000000000000000000000000000 k
b00000000000000000000000000000101 l
b00000000000000000000000000000101 m
b01 n
b000010 o
b000100 p
b0110 q
b00000000000000000000000000000101 r
b00000000000000000000000000000101 s
b0110 t
b00000000000000000000000000000000 u
1v
b11111111111111111111111111111010 w
b00000000000000000000000000000000 x
1y
b00000000000000000000000000000000 z
b00000000000000000000000000000101 |
b11111111111111111111111111111010 }
1!"
b00000000000000000000000000000000 ""
1#"
b0000000000000000 $"
b0000000000000000 %"
1&"
b0000000000000101 '"
b1111111111111010 ("
1)"
b0000000000000000 *"
1+"
b0000000000000000 ,"
b1111111111111111 -"
b11111111111111111 ."
b1111111111111111 0"
11"
b0000000000000000 2"
13"
b1111111111111111 5"
b11111111111111111 6"
b00000000000000000000000000000101 7"
b00101 8"
b00000000000000000000000000000010 ;"
b00000000000000000000000000000010 <"
1A"
b00000000000000000000000000000000 D"
b00000000000000000000000000000101 E"
b0 G"
b00000000000000000000000000000000 H"
b00000000000000000000000000000000 K"
#50000000
0!
0*
0R
0f
0A"
#55000000
1!
b00000000000000000000000000011000 #
b00000000000000000000000000011100 $
0%
0&
0(
b00000000000000000000010000011000 )
1*
b00000000000000000000000000011000 ,
b00000000000000000000000000011100 -
0.
0/
01
b00000000000000000000010000011000 2
b00000000000000000000000000011100 3
b00000000000000000000000000011000 4
b00100000000011000000000011111111 5
b00000000000000000000000000000000 6
b00000000000000000000000000000000 7
b00000000000000000000000011111111 8
b00000000000000000000000011111111 9
b00000000000000000000000011111111 ;
0<
b0010 =
b01100 >
b00000000000000000000000011111111 ?
1B
0E
b00 G
b01 H
b00000000000000000000010000011000 J
0K
b00000000000000000000000000011100 L
b00011 M
b00000000000000000000000000000011 O
b00000000000000000000000000000000 P
1R
b00000000000000000000000000011100 T
b00000000000000000000000000011000 U
b00000000000000000000000000011000 V
b00000000000000000000000000011000 W
b00100000000011000000000011111111 X
b001000 Y
b111111 Z
b01 \
1^
0a
b00 e
1f
1g
b00000 h
b01100 i
b01100 j
b00000000000000000000000011111111 k
b00000000000000000000000000000000 l
b00000000000000000000000000000000 m
b00 n
b111111 o
b001000 p
b0010 q
b00000000000000000000000000000000 r
b00000000000000000000000011111111 s
b0010 t
b00000000000000000000000011111111 u
0v
b00000000000000000000000011111111 w
b00000000000000000000000011111111 x
0y
b00000000000000000000000011111111 z
b00000000000000000000000000000000 |
b00000000000000000000000011111111 }
0!"
b00000000000000000000000011111111 ""
0#"
b0000000011111111 $"
b0000000000000000 %"
0&"
b0000000000000000 '"
b0000000011111111 ("
0)"
b0000000011111111 *"
0+"
b0000000011111111 -"
b00000000000000000 ."
b0000000000000000 0"
01"
b0000000000000000 2"
03"
b0000000000000000 5"
b00000000000000000 6"
b00000000000000000000000000000000 7"
b11111 8"
b00000000000000000000000000000000 ;"
b00000000000000000000000000000000 <"
1A"
b00000000000000000000000011111111 D"
b00000000000000000000000000000000 E"
b111111 G"
b00000000000000000000000011111111 H"
b00000000000000000000000011111111 K"
#60000000
0!
0*
0R
0f
0A"
#65000000
1!
b00000000000000000000000000011100 #
b00000000000000000000000000101000 $
1&
b01 '
1(
b00000000000000000000000000101000 )
1*
b00000000000000000000000000011100 ,
b00000000000000000000000000101000 -
1/
b01 0
11
b00000000000000000000000000101000 2
b00000000000000000000000000101000 3
b00000000000000000000000000011100 4
b00010101000010100000000000000010 5
b00000000000000000000000000000101 6
b00000000000000000000000000000011 7
b00000000000000000000000000000010 8
b00000000000000000000000000000010 9
b00000000000000000000000000000010 ;
b0110 =
b01010 >
b00000000000000000000000000000011 ?
0B
1E
b01 G
b00 H
b01 I
b00000000000000000000000000101000 J
1K
b00000000000000000000000000100000 L
b00000 M
b00000000000000000000000000000000 O
b00000000000000000000000000000101 P
1R
b00000000000000000000000000101000 T
b00000000000000000000000000011100 U
b00000000000000000000000000011100 V
b00000000000000000000000000011100 W
b00010101000010100000000000000010 X
b000101 Y
b000010 Z
b00 \
0^
1a
b01 b
b01 e
1f
0g
b01000 h
b01010 i
b01010 j
b00000000000000000000000000000010 k
b00000000000000000000000000000101 l
b00000000000000000000000000000011 m
b01 n
b000010 o
b000101 p
b0110 q
b00000000000000000000000000000101 r
b00000000000000000000000000000011 s
b0110 t
b00000000000000000000000000000010 u
b11111111111111111111111111111100 w
b00000000000000000000000000000010 x
1y
b00000000000000000000000000000010 z
b00000000000000000000000000000101 |
b11111111111111111111111111111100 }
1!"
b00000000000000000000000000000010 ""
1#"
b0000000000000010 $"
b0000000000000000 %"
1&"
b0000000000000101 '"
b1111111111111100 ("
1)"
b0000000000000010 *"
1+"
b0000000000000100 ,"
b1111111111111001 -"
b11111111111111011 ."
b1111111111111111 0"
11"
b0000000000000000 2"
13"
b1111111111111111 5"
b11111111111111111 6"
b00000000000000000000000000000101 7"
b00011 8"
b00000000000000000000000000000010 ;"
1A"
b00000000000000000000000000000010 D"
b00000000000000000000000000000011 E"
b0 G"
b00000000000000000000000000000010 H"
b00000000000000000000000000000010 K"
#70000000
0!
0*
0R
0f
0A"
#75000000
1!
b00000000000000000000000000101000 #
b00000000000000000000000000101100 $
0&
b00 '
0(
b00000000000000000000001011010100 )
1*
b00000000000000000000000000101000 ,
b00000000000000000000000000101100 -
0/
b00 0
01
b00000000000000000000001011010100 2
b00000000000000000000000000101100 3
b00000000000000000000000000101000 4
b00100000000011100000000010101010 5
b00000000000000000000000000000000 6
b00000000000000000000000000000000 7
b00000000000000000000000010101010 8
b00000000000000000000000010101010 9
b00000000000000000000000010101010 ;
b0010 =
b01110 >
b00000000000000000000000010101010 ?
1B
0E
b00 G
b01 H
b00 I
b00000000000000000000001011010100 J
0K
b00000000000000000000000000101100 L
b00010 M
b00000000000000000000000000000010 O
b00000000000000000000000000000000 P
1R
b00000000000000000000000000101100 T
b00000000000000000000000000101000 U
b00000000000000000000000000101000 V
b00000000000000000000000000101000 W
b00100000000011100000000010101010 X
b001000 Y
b101010 Z
b01 \
1^
0a
b00 b
b00 e
1f
1g
b00000 h
b01110 i
b01110 j
b00000000000000000000000010101010 k
b00000000000000000000000000000000 l
b00000000000000000000000000000000 m
b00 n
b101010 o
b001000 p
b0010 q
b00000000000000000000000000000000 r
b00000000000000000000000010101010 s
b0010 t
b00000000000000000000000010101010 u
b00000000000000000000000010101010 w
b00000000000000000000000010101010 x
0y
b00000000000000000000000010101010 z
b00000000000000000000000000000000 |
b00000000000000000000000010101010 }
0!"
b00000000000000000000000010101010 ""
0#"
b0000000010101010 $"
b0000000000000000 %"
0&"
b0000000000000000 '"
b0000000010101010 ("
0)"
b0000000010101010 *"
0+"
b0000000000000000 ,"
b0000000010101010 -"
b00000000000000000 ."
b0000000000000000 0"
01"
b0000000000000000 2"
03"
b0000000000000000 5"
b00000000000000000 6"
b00000000000000000000000000000000 7"
b01010 8"
b00000000000000000000000000000000 ;"
1A"
b00000000000000000000000010101010 D"
b00000000000000000000000000000000 E"
b101010 G"
b00000000000000000000000010101010 H"
b00000000000000000000000010101010 K"
#80000000
0!
0*
0R
0f
0A"
#85000000
1!
b00000000000000000000000000101100 #
b00000000000000000000000000110000 $
1%
b00000000000000000000000000110000 )
1*
b00000000000000000000000000101100 ,
b00000000000000000000000000110000 -
1.
b00000000000000000000000000110000 2
b00000000000000000000000000110000 3
b00000000000000000000000000101100 4
b00000000000000000000000000000000 5
b00000000000000000000000000000000 7
b00000000000000000000000000000000 8
b00000000000000000000000000000000 9
b00000000000000000000000000000000 ;
1<
b1000 =
b00000 >
b00000000000000000000000000000000 ?
1@
b10 G
b10 H
b00000000000000000000000000110000 J
b00000000000000000000000000110000 L
b00000 M
b00000000000000000000000000000000 O
1Q
1R
b00000000000000000000000000110000 T
b00000000000000000000000000101100 U
b00000000000000000000000000101100 V
b00000000000000000000000000101100 W
b00000000000000000000000000000000 X
b000000 Y
b000000 Z
1[
b10 \
1^
1d
b10 e
1f
b00000 i
b00000 j
b00000000000000000000000000000000 k
b00000000000000000000000000000000 m
b10 n
b000000 o
b000000 p
b1000 q
b00000000000000000000000000000000 s
b1000 t
b00000000000000000000000000000000 u
1v
b00000000000000000000000000000000 w
b00000000000000000000000000000000 x
b00000000000000000000000000000000 z
b00000000000000000000000000000000 }
b00000000000000000000000000000000 ""
b0000000000000000 $"
b0000000000000000 ("
b0000000000000000 *"
b0000000000000000 -"
b00000 8"
b00 9"
1A"
b00000000000000000000000000000000 D"
b00000000000000000000000000000000 E"
b0 G"
b00000000000000000000000000000000 H"
b00000000000000000000000000000000 K"
#90000000
0!
0*
0R
0f
0A"
#95000000
1!
b00000000000000000000000000110000 #
b00000000000000000000000000110100 $
b00000000000000000000000000110100 )
1*
b00000000000000000000000000110000 ,
b00000000000000000000000000110100 -
b00000000000000000000000000110100 2
b00000000000000000000000000110100 3
b00000000000000000000000000110000 4
b00000000000000000000000000110100 J
b00000000000000000000000000110100 L
1R
b00000000000000000000000000110100 T
b00000000000000000000000000110000 U
b00000000000000000000000000110000 V
b00000000000000000000000000110000 W
1f
1A"
#100000000
0!
0*
0R
0f
0A"
#105000000
1!
b00000000000000000000000000110100 #
b00000000000000000000000000111000 $
b00000000000000000000000000111000 )
1*
b00000000000000000000000000110100 ,
b00000000000000000000000000111000 -
b00000000000000000000000000111000 2
b00000000000000000000000000111000 3
b00000000000000000000000000110100 4
b00000000000000000000000000111000 J
b00000000000000000000000000111000 L
1R
b00000000000000000000000000111000 T
b00000000000000000000000000110100 U
b00000000000000000000000000110100 V
b00000000000000000000000000110100 W
1f
1A"
#110000000
0!
0*
0R
0f
0A"
#115000000
1!
b00000000000000000000000000111000 #
b00000000000000000000000000111100 $
b00000000000000000000000000111100 )
1*
b00000000000000000000000000111000 ,
b00000000000000000000000000111100 -
b00000000000000000000000000111100 2
b00000000000000000000000000111100 3
b00000000000000000000000000111000 4
b00000000000000000000000000111100 J
b00000000000000000000000000111100 L
1R
b00000000000000000000000000111100 T
b00000000000000000000000000111000 U
b00000000000000000000000000111000 V
b00000000000000000000000000111000 W
1f
1A"
#120000000
0!
0*
0R
0f
0A"
#125000000
1!
b00000000000000000000000000111100 #
b00000000000000000000000001000000 $
b00000000000000000000000001000000 )
1*
b00000000000000000000000000111100 ,
b00000000000000000000000001000000 -
b00000000000000000000000001000000 2
b00000000000000000000000001000000 3
b00000000000000000000000000111100 4
b00000000000000000000000001000000 J
b00000000000000000000000001000000 L
1R
b00000000000000000000000001000000 T
b00000000000000000000000000111100 U
b00000000000000000000000000111100 V
b00000000000000000000000000111100 W
1f
1A"
#130000000
0!
0*
0R
0f
0A"
#135000000
1!
b00000000000000000000000001000000 #
b00000000000000000000000001000100 $
b00000000000000000000000001000100 )
1*
b00000000000000000000000001000000 ,
b00000000000000000000000001000100 -
b00000000000000000000000001000100 2
b00000000000000000000000001000100 3
b00000000000000000000000001000000 4
b00000000000000000000000001000100 J
b00000000000000000000000001000100 L
1R
b00000000000000000000000001000100 T
b00000000000000000000000001000000 U
b00000000000000000000000001000000 V
b00000000000000000000000001000000 W
1f
1A"
#140000000
0!
0*
0R
0f
0A"
#145000000
1!
b00000000000000000000000001000100 #
b00000000000000000000000001001000 $
b00000000000000000000000001001000 )
1*
b00000000000000000000000001000100 ,
b00000000000000000000000001001000 -
b00000000000000000000000001001000 2
b00000000000000000000000001001000 3
b00000000000000000000000001000100 4
b00000000000000000000000001001000 J
b00000000000000000000000001001000 L
1R
b00000000000000000000000001001000 T
b00000000000000000000000001000100 U
b00000000000000000000000001000100 V
b00000000000000000000000001000100 W
1f
1A"
#150000000
0!
0*
0R
0f
0A"
#155000000
1!
b00000000000000000000000001001000 #
b00000000000000000000000001001100 $
b00000000000000000000000001001100 )
1*
b00000000000000000000000001001000 ,
b00000000000000000000000001001100 -
b00000000000000000000000001001100 2
b00000000000000000000000001001100 3
b00000000000000000000000001001000 4
b00000000000000000000000001001100 J
b00000000000000000000000001001100 L
1R
b00000000000000000000000001001100 T
b00000000000000000000000001001000 U
b00000000000000000000000001001000 V
b00000000000000000000000001001000 W
1f
1A"
#160000000
0!
0*
0R
0f
0A"
#165000000
1!
b00000000000000000000000001001100 #
b00000000000000000000000001010000 $
b00000000000000000000000001010000 )
1*
b00000000000000000000000001001100 ,
b00000000000000000000000001010000 -
b00000000000000000000000001010000 2
b00000000000000000000000001010000 3
b00000000000000000000000001001100 4
b00000000000000000000000001010000 J
b00000000000000000000000001010000 L
1R
b00000000000000000000000001010000 T
b00000000000000000000000001001100 U
b00000000000000000000000001001100 V
b00000000000000000000000001001100 W
1f
1A"
#170000000
0!
0*
0R
0f
0A"
#175000000
1!
b00000000000000000000000001010000 #
b00000000000000000000000001010100 $
b00000000000000000000000001010100 )
1*
b00000000000000000000000001010000 ,
b00000000000000000000000001010100 -
b00000000000000000000000001010100 2
b00000000000000000000000001010100 3
b00000000000000000000000001010000 4
b00000000000000000000000001010100 J
b00000000000000000000000001010100 L
1R
b00000000000000000000000001010100 T
b00000000000000000000000001010000 U
b00000000000000000000000001010000 V
b00000000000000000000000001010000 W
1f
1A"
#180000000
0!
0*
0R
0f
0A"
#185000000
1!
b00000000000000000000000001010100 #
b00000000000000000000000001011000 $
b00000000000000000000000001011000 )
1*
b00000000000000000000000001010100 ,
b00000000000000000000000001011000 -
b00000000000000000000000001011000 2
b00000000000000000000000001011000 3
b00000000000000000000000001010100 4
b00000000000000000000000001011000 J
b00000000000000000000000001011000 L
1R
b00000000000000000000000001011000 T
b00000000000000000000000001010100 U
b00000000000000000000000001010100 V
b00000000000000000000000001010100 W
1f
1A"
#190000000
0!
0*
0R
0f
0A"
#195000000
1!
b00000000000000000000000001011000 #
b00000000000000000000000001011100 $
b00000000000000000000000001011100 )
1*
b00000000000000000000000001011000 ,
b00000000000000000000000001011100 -
b00000000000000000000000001011100 2
b00000000000000000000000001011100 3
b00000000000000000000000001011000 4
b00000000000000000000000001011100 J
b00000000000000000000000001011100 L
1R
b00000000000000000000000001011100 T
b00000000000000000000000001011000 U
b00000000000000000000000001011000 V
b00000000000000000000000001011000 W
1f
1A"
#200000000
0!
0*
0R
0f
0A"
#205000000
1!
b00000000000000000000000001011100 #
b00000000000000000000000001100000 $
b00000000000000000000000001100000 )
1*
b00000000000000000000000001011100 ,
b00000000000000000000000001100000 -
b00000000000000000000000001100000 2
b00000000000000000000000001100000 3
b00000000000000000000000001011100 4
b00000000000000000000000001100000 J
b00000000000000000000000001100000 L
1R
b00000000000000000000000001100000 T
b00000000000000000000000001011100 U
b00000000000000000000000001011100 V
b00000000000000000000000001011100 W
1f
1A"
#210000000
0!
0*
0R
0f
0A"
#215000000
1!
b00000000000000000000000001100000 #
b00000000000000000000000001100100 $
b00000000000000000000000001100100 )
1*
b00000000000000000000000001100000 ,
b00000000000000000000000001100100 -
b00000000000000000000000001100100 2
b00000000000000000000000001100100 3
b00000000000000000000000001100000 4
b00000000000000000000000001100100 J
b00000000000000000000000001100100 L
1R
b00000000000000000000000001100100 T
b00000000000000000000000001100000 U
b00000000000000000000000001100000 V
b00000000000000000000000001100000 W
1f
1A"
#220000000
0!
0*
0R
0f
0A"
