I-Type/singlecpu.vcd
$date
  Sat Nov 29 13:27:37 2025
$end
$version
  GHDL v0
$end
$timescale
  1 fs
$end
$scope module standard $end
$upscope $end
$scope module std_logic_1164 $end
$upscope $end
$scope module numeric_std $end
$upscope $end
$scope module singlecyclecpu_tb $end
$var reg 1 ! clk $end
$var reg 1 " reset $end
$scope module cpu_inst $end
$var reg 1 # clk $end
$var reg 1 $ reset $end
$var reg 32 % pc_in[31:0] $end
$var reg 32 & pc_out[31:0] $end
$var reg 32 ' instruction[31:0] $end
$var reg 32 ( readdata1[31:0] $end
$var reg 32 ) readdata2[31:0] $end
$var reg 32 * signimm[31:0] $end
$var reg 32 + aluresult[31:0] $end
$var reg 32 , memreaddata[31:0] $end
$var reg 32 - writedatareg[31:0] $end
$var reg 1 . zero $end
$var reg 4 / alucontrolsig[3:0] $end
$var reg 5 0 writeregaddr[4:0] $end
$var reg 32 1 alu_b[31:0] $end
$var reg 1 2 regdst $end
$var reg 1 3 memtoreg $end
$var reg 1 4 regwrite $end
$var reg 1 5 memread $end
$var reg 1 6 memwrite $end
$var reg 1 7 branch $end
$var reg 1 8 jump $end
$var reg 2 9 aluop[1:0] $end
$var reg 2 : alusrc[1:0] $end
$var reg 2 ; branchtype[1:0] $end
$var reg 32 < branchtarget[31:0] $end
$var reg 1 = pcsrc $end
$var reg 32 > pc_plus_4[31:0] $end
$var reg 5 ? shamt_value[4:0] $end
$var reg 5 @ check[4:0] $end
$var reg 32 A shamt_ext_32[31:0] $end
$var reg 32 B alu_a_input[31:0] $end
$var reg 1 C alusrca_ctrl $end
$scope module pc_inst $end
$var reg 1 D clk $end
$var reg 1 E reset $end
$var reg 32 F pc_in[31:0] $end
$var reg 32 G pc_out[31:0] $end
$var reg 32 H pc_reg[31:0] $end
$upscope $end
$scope module im_inst $end
$var reg 32 I address[31:0] $end
$var reg 32 J instruction[31:0] $end
$upscope $end
$scope module cu_inst $end
$var reg 6 K opcode[5:0] $end
$var reg 6 L funct_in[5:0] $end
$var reg 1 M regdst $end
$var reg 2 N alusrc_ctrl[1:0] $end
$var reg 1 O memtoreg $end
$var reg 1 P regwrite $end
$var reg 1 Q memread $end
$var reg 1 R memwrite $end
$var reg 1 S branch $end
$var reg 2 T branchtype[1:0] $end
$var reg 1 U jump $end
$var reg 1 V alusrca $end
$var reg 2 W aluop[1:0] $end
$upscope $end
$scope module rf_inst $end
$var reg 1 X clk $end
$var reg 1 Y regwrite $end
$var reg 5 Z readreg1[4:0] $end
$var reg 5 [ readreg2[4:0] $end
$var reg 5 \ writereg[4:0] $end
$var reg 32 ] writedata[31:0] $end
$var reg 32 ^ readdata1[31:0] $end
$var reg 32 _ readdata2[31:0] $end
$comment regs is not handled $end
$upscope $end
$scope module aluc_inst $end
$var reg 2 ` aluop[1:0] $end
$var reg 6 a funct[5:0] $end
$var reg 6 b opcode[5:0] $end
$var reg 4 c alucontrol[3:0] $end
$upscope $end
$scope module alu_inst $end
$var reg 32 d a[31:0] $end
$var reg 32 e b[31:0] $end
$var reg 4 f alucontrol[3:0] $end
$var reg 32 g result[31:0] $end
$var reg 1 h zero $end
$var reg 32 i b_invert[31:0] $end
$var reg 32 j adder_result[31:0] $end
$var reg 1 k cin_sig $end
$var reg 32 l result_i[31:0] $end
$var reg 32 m shiftout[31:0] $end
$scope module adder32 $end
$var reg 32 n a[31:0] $end
$var reg 32 o b[31:0] $end
$var reg 1 p cin $end
$var reg 32 q sum[31:0] $end
$var reg 1 r cout $end
$var reg 16 s sum_lo[15:0] $end
$var reg 16 t sum_hi[15:0] $end
$var reg 1 u cmid $end
$scope module bk_low $end
$var reg 16 v a[15:0] $end
$var reg 16 w b[15:0] $end
$var reg 1 x cin $end
$var reg 16 y sum[15:0] $end
$var reg 1 z cout $end
$var reg 16 { g[15:0] $end
$var reg 16 | p[15:0] $end
$var reg 17 } c[16:0] $end
$scope module gen_gp(0) $end
$upscope $end
$scope module gen_gp(1) $end
$upscope $end
$scope module gen_gp(2) $end
$upscope $end
$scope module gen_gp(3) $end
$upscope $end
$scope module gen_gp(4) $end
$upscope $end
$scope module gen_gp(5) $end
$upscope $end
$scope module gen_gp(6) $end
$upscope $end
$scope module gen_gp(7) $end
$upscope $end
$scope module gen_gp(8) $end
$upscope $end
$scope module gen_gp(9) $end
$upscope $end
$scope module gen_gp(10) $end
$upscope $end
$scope module gen_gp(11) $end
$upscope $end
$scope module gen_gp(12) $end
$upscope $end
$scope module gen_gp(13) $end
$upscope $end
$scope module gen_gp(14) $end
$upscope $end
$scope module gen_gp(15) $end
$upscope $end
$scope module gen_sum(0) $end
$upscope $end
$scope module gen_sum(1) $end
$upscope $end
$scope module gen_sum(2) $end
$upscope $end
$scope module gen_sum(3) $end
$upscope $end
$scope module gen_sum(4) $end
$upscope $end
$scope module gen_sum(5) $end
$upscope $end
$scope module gen_sum(6) $end
$upscope $end
$scope module gen_sum(7) $end
$upscope $end
$scope module gen_sum(8) $end
$upscope $end
$scope module gen_sum(9) $end
$upscope $end
$scope module gen_sum(10) $end
$upscope $end
$scope module gen_sum(11) $end
$upscope $end
$scope module gen_sum(12) $end
$upscope $end
$scope module gen_sum(13) $end
$upscope $end
$scope module gen_sum(14) $end
$upscope $end
$scope module gen_sum(15) $end
$upscope $end
$upscope $end
$scope module bk_high $end
$var reg 16 !" a[15:0] $end
$var reg 16 "" b[15:0] $end
$var reg 1 #" cin $end
$var reg 16 $" sum[15:0] $end
$var reg 1 %" cout $end
$var reg 16 &" g[15:0] $end
$var reg 16 '" p[15:0] $end
$var reg 17 (" c[16:0] $end
$scope module gen_gp(0) $end
$upscope $end
$scope module gen_gp(1) $end
$upscope $end
$scope module gen_gp(2) $end
$upscope $end
$scope module gen_gp(3) $end
$upscope $end
$scope module gen_gp(4) $end
$upscope $end
$scope module gen_gp(5) $end
$upscope $end
$scope module gen_gp(6) $end
$upscope $end
$scope module gen_gp(7) $end
$upscope $end
$scope module gen_gp(8) $end
$upscope $end
$scope module gen_gp(9) $end
$upscope $end
$scope module gen_gp(10) $end
$upscope $end
$scope module gen_gp(11) $end
$upscope $end
$scope module gen_gp(12) $end
$upscope $end
$scope module gen_gp(13) $end
$upscope $end
$scope module gen_gp(14) $end
$upscope $end
$scope module gen_gp(15) $end
$upscope $end
$scope module gen_sum(0) $end
$upscope $end
$scope module gen_sum(1) $end
$upscope $end
$scope module gen_sum(2) $end
$upscope $end
$scope module gen_sum(3) $end
$upscope $end
$scope module gen_sum(4) $end
$upscope $end
$scope module gen_sum(5) $end
$upscope $end
$scope module gen_sum(6) $end
$upscope $end
$scope module gen_sum(7) $end
$upscope $end
$scope module gen_sum(8) $end
$upscope $end
$scope module gen_sum(9) $end
$upscope $end
$scope module gen_sum(10) $end
$upscope $end
$scope module gen_sum(11) $end
$upscope $end
$scope module gen_sum(12) $end
$upscope $end
$scope module gen_sum(13) $end
$upscope $end
$scope module gen_sum(14) $end
$upscope $end
$scope module gen_sum(15) $end
$upscope $end
$upscope $end
$upscope $end
$scope module u_shifter $end
$var reg 32 )" datain[31:0] $end
$var reg 5 *" shamt[4:0] $end
$var reg 2 +" mode[1:0] $end
$var reg 32 ," dataout[31:0] $end
$var reg 32 -" stage0[31:0] $end
$var reg 32 ." stage1[31:0] $end
$var reg 32 /" stage2[31:0] $end
$var reg 32 0" stage3[31:0] $end
$var reg 32 1" stage4[31:0] $end
$var reg 1 2" fillbit $end
$upscope $end
$upscope $end
$scope module dm_inst $end
$var reg 1 3" clk $end
$var reg 1 4" memread $end
$var reg 1 5" memwrite $end
$var reg 32 6" address[31:0] $end
$var reg 32 7" writedata[31:0] $end
$var reg 32 8" readdata[31:0] $end
$comment ram is not handled $end
$var integer 32 9" addr_index $end
$upscope $end
$scope module wb_mux $end
$var reg 32 :" aluresult[31:0] $end
$var reg 32 ;" readdata[31:0] $end
$var reg 1 <" memtoreg $end
$var reg 32 =" writedata[31:0] $end
$upscope $end
$upscope $end
$upscope $end
$enddefinitions $end
#0
0!
1"
0#
1$
b00000000000000000000000000000100 %
b00000000000000000000000000000000 &
b00100000000010000000000000000101 '
b00000000000000000000000000000000 (
b00000000000000000000000000000000 )
b00000000000000000000000000000101 *
b00000000000000000000000000000101 +
b00000000000000000000000000000000 ,
b00000000000000000000000000000101 -
0.
b0010 /
b01000 0
b00000000000000000000000000000101 1
02
03
14
05
06
07
U8
b00 9
b01 :
b00 ;
b00000000000000000000000000011000 <
0=
b00000000000000000000000000000100 >
b00000 ?
bUUUUU @
b00000000000000000000000000000000 A
b00000000000000000000000000000000 B
0C
0D
1E
b00000000000000000000000000000100 F
b00000000000000000000000000000000 G
b00000000000000000000000000000000 H
b00000000000000000000000000000000 I
b00100000000010000000000000000101 J
b001000 K
b000101 L
0M
b01 N
0O
1P
0Q
0R
0S
b00 T
UU
0V
b00 W
0X
1Y
b00000 Z
b01000 [
b01000 \
b00000000000000000000000000000101 ]
b00000000000000000000000000000000 ^
b00000000000000000000000000000000 _
b00 `
b000101 a
b001000 b
b0010 c
b00000000000000000000000000000000 d
b00000000000000000000000000000101 e
b0010 f
b00000000000000000000000000000101 g
0h
b00000000000000000000000000000101 i
b00000000000000000000000000000101 j
0k
b00000000000000000000000000000101 l
b00000000000000000000000000000000 m
b00000000000000000000000000000000 n
b00000000000000000000000000000101 o
0p
b00000000000000000000000000000101 q
0r
b0000000000000101 s
b0000000000000000 t
0u
b0000000000000000 v
b0000000000000101 w
0x
b0000000000000101 y
0z
b0000000000000000 {
b0000000000000101 |
b00000000000000000 }
b0000000000000000 !"
b0000000000000000 ""
0#"
b0000000000000000 $"
0%"
b0000000000000000 &"
b0000000000000000 '"
b00000000000000000 ("
b00000000000000000000000000000000 )"
b00101 *"
b10 +"
b00000000000000000000000000000000 ,"
b00000000000000000000000000000000 -"
b00000000000000000000000000000000 ."
b00000000000000000000000000000000 /"
b00000000000000000000000000000000 0"
b00000000000000000000000000000000 1"
02"
03"
04"
05"
b00000000000000000000000000000101 6"
b00000000000000000000000000000000 7"
b00000000000000000000000000000000 8"
b1 9"
b00000000000000000000000000000101 :"
b00000000000000000000000000000000 ;"
0<"
b00000000000000000000000000000101 ="
#5000000
1!
1#
b00000000000000000000000000000101 )
1D
1X
b00000000000000000000000000000101 _
13"
b00000000000000000000000000000101 7"
#10000000
0!
0#
0D
0X
03"
#15000000
1!
1#
1D
1X
13"
#20000000
0!
0"
0#
0$
0D
0E
0X
03"
#25000000
1!
1#
b00000000000000000000000000001000 %
b00000000000000000000000000000100 &
b00100000000010010000000000000101 '
b00000000000000000000000000000000 )
b01001 0
b00000000000000000000000000011100 <
b00000000000000000000000000001000 >
1D
b00000000000000000000000000001000 F
b00000000000000000000000000000100 G
b00000000000000000000000000000100 H
b00000000000000000000000000000100 I
b00100000000010010000000000000101 J
1X
b01001 [
b01001 \
b00000000000000000000000000000000 _
13"
b00000000000000000000000000000000 7"
#30000000
0!
0#
0D
0X
03"
#35000000
1!
1#
b00000000000000000000000000001100 %
b00000000000000000000000000001000 &
b00100000000010100000000000000011 '
b00000000000000000000000000000000 )
b00000000000000000000000000000011 *
b00000000000000000000000000000011 +
b00000000000000000000000000000011 -
b01010 0
b00000000000000000000000000000011 1
b00000000000000000000000000011000 <
b00000000000000000000000000001100 >
1D
b00000000000000000000000000001100 F
b00000000000000000000000000001000 G
b00000000000000000000000000001000 H
b00000000000000000000000000001000 I
b00100000000010100000000000000011 J
b000011 L
b01 N
1P
1X
b01010 [
b01010 \
b00000000000000000000000000000011 ]
b00000000000000000000000000000000 _
b000011 a
b00000000000000000000000000000011 e
b00000000000000000000000000000011 g
b00000000000000000000000000000011 i
b00000000000000000000000000000011 j
b00000000000000000000000000000011 l
b00000000000000000000000000000011 o
b00000000000000000000000000000011 q
b0000000000000011 s
b0000000000000011 w
b0000000000000011 y
b0000000000000011 |
b00011 *"
13"
b00000000000000000000000000000011 6"
b00000000000000000000000000000000 7"
b0 9"
b00000000000000000000000000000011 :"
b00000000000000000000000000000011 ="
#40000000
0!
0#
0D
0X
03"
#45000000
1!
1#
b00000000000000000000000000011000 %
b00000000000000000000000000001100 &
b00010001000010010000000000000010 '
b00000000000000000000000000000101 (
b00000000000000000000000000000101 )
b00000000000000000000000000000010 *
b00000000000000000000000000000000 +
b00000000000000000000000000000000 -
1.
b0110 /
b01001 0
b00000000000000000000000000000101 1
04
17
b01 9
b00 :
b00000000000000000000000000011000 <
1=
b00000000000000000000000000010000 >
b00000000000000000000000000000101 B
1D
b00000000000000000000000000011000 F
b00000000000000000000000000001100 G
b00000000000000000000000000001100 H
b00000000000000000000000000001100 I
b00010001000010010000000000000010 J
b000100 K
b000010 L
b00 N
0P
1S
b01 W
1X
0Y
b01000 Z
b01001 [
b01001 \
b00000000000000000000000000000000 ]
b00000000000000000000000000000101 ^
b00000000000000000000000000000101 _
b01 `
b000010 a
b000100 b
b0110 c
b00000000000000000000000000000101 d
b00000000000000000000000000000101 e
b0110 f
b00000000000000000000000000000000 g
1h
b11111111111111111111111111111010 i
b00000000000000000000000000000000 j
1k
b00000000000000000000000000000000 l
b00000000000000000000000000000101 n
b11111111111111111111111111111010 o
1p
b00000000000000000000000000000000 q
1r
b0000000000000000 s
b0000000000000000 t
1u
b0000000000000101 v
b1111111111111010 w
1x
b0000000000000000 y
1z
b0000000000000000 {
b1111111111111111 |
b11111111111111111 }
b1111111111111111 ""
1#"
b0000000000000000 $"
1%"
b1111111111111111 '"
b11111111111111111 ("
b00000000000000000000000000000101 )"
b00101 *"
b00000000000000000000000000000010 -"
b00000000000000000000000000000010 ."
13"
b00000000000000000000000000000000 6"
b00000000000000000000000000000101 7"
b0 9"
b00000000000000000000000000000000 :"
b00000000000000000000000000000000 ="
#50000000
0!
0#
0D
0X
03"
#55000000
1!
1#
b00000000000000000000000000011100 %
b00000000000000000000000000011000 &
b00100000000011000000000011111111 '
b00000000000000000000000000000000 (
b00000000000000000000000000000000 )
b00000000000000000000000011111111 *
b00000000000000000000000011111111 +
b00000000000000000000000011111111 -
0.
b0010 /
b01100 0
b00000000000000000000000011111111 1
14
07
b00 9
b01 :
b00000000000000000000010000011000 <
0=
b00000000000000000000000000011100 >
b00011 ?
b00000000000000000000000000000011 A
b00000000000000000000000000000000 B
1D
b00000000000000000000000000011100 F
b00000000000000000000000000011000 G
b00000000000000000000000000011000 H
b00000000000000000000000000011000 I
b00100000000011000000000011111111 J
b001000 K
b111111 L
b01 N
1P
0S
b00 W
1X
1Y
b00000 Z
b01100 [
b01100 \
b00000000000000000000000011111111 ]
b00000000000000000000000000000000 ^
b00000000000000000000000000000000 _
b00 `
b111111 a
b001000 b
b0010 c
b00000000000000000000000000000000 d
b00000000000000000000000011111111 e
b0010 f
b00000000000000000000000011111111 g
0h
b00000000000000000000000011111111 i
b00000000000000000000000011111111 j
0k
b00000000000000000000000011111111 l
b00000000000000000000000000000000 n
b00000000000000000000000011111111 o
0p
b00000000000000000000000011111111 q
0r
b0000000011111111 s
b0000000000000000 t
0u
b0000000000000000 v
b0000000011111111 w
0x
b0000000011111111 y
0z
b0000000011111111 |
b00000000000000000 }
b0000000000000000 ""
0#"
b0000000000000000 $"
0%"
b0000000000000000 '"
b00000000000000000 ("
b00000000000000000000000000000000 )"
b11111 *"
b00000000000000000000000000000000 -"
b00000000000000000000000000000000 ."
13"
b00000000000000000000000011111111 6"
b00000000000000000000000000000000 7"
b111111 9"
b00000000000000000000000011111111 :"
b00000000000000000000000011111111 ="
#60000000
0!
0#
0D
0X
03"
#65000000
1!
1#
b00000000000000000000000000101000 %
b00000000000000000000000000011100 &
b00010101000010100000000000000010 '
b00000000000000000000000000000101 (
b00000000000000000000000000000011 )
b00000000000000000000000000000010 *
b00000000000000000000000000000010 +
b00000000000000000000000000000010 -
b0110 /
b01010 0
b00000000000000000000000000000011 1
04
17
b01 9
b00 :
b01 ;
b00000000000000000000000000101000 <
1=
b00000000000000000000000000100000 >
b00000 ?
b00000000000000000000000000000000 A
b00000000000000000000000000000101 B
1D
b00000000000000000000000000101000 F
b00000000000000000000000000011100 G
b00000000000000000000000000011100 H
b00000000000000000000000000011100 I
b00010101000010100000000000000010 J
b000101 K
b000010 L
b00 N
0P
1S
b01 T
b01 W
1X
0Y
b01000 Z
b01010 [
b01010 \
b00000000000000000000000000000010 ]
b00000000000000000000000000000101 ^
b00000000000000000000000000000011 _
b01 `
b000010 a
b000101 b
b0110 c
b00000000000000000000000000000101 d
b00000000000000000000000000000011 e
b0110 f
b00000000000000000000000000000010 g
b11111111111111111111111111111100 i
b00000000000000000000000000000010 j
1k
b00000000000000000000000000000010 l
b00000000000000000000000000000101 n
b11111111111111111111111111111100 o
1p
b00000000000000000000000000000010 q
1r
b0000000000000010 s
b0000000000000000 t
1u
b0000000000000101 v
b1111111111111100 w
1x
b0000000000000010 y
1z
b0000000000000100 {
b1111111111111001 |
b11111111111111011 }
b1111111111111111 ""
1#"
b0000000000000000 $"
1%"
b1111111111111111 '"
b11111111111111111 ("
b00000000000000000000000000000101 )"
b00011 *"
b00000000000000000000000000000010 -"
13"
b00000000000000000000000000000010 6"
b00000000000000000000000000000011 7"
b0 9"
b00000000000000000000000000000010 :"
b00000000000000000000000000000010 ="
#70000000
0!
0#
0D
0X
03"
#75000000
1!
1#
b00000000000000000000000000101100 %
b00000000000000000000000000101000 &
b00100000000011100000000010101010 '
b00000000000000000000000000000000 (
b00000000000000000000000000000000 )
b00000000000000000000000010101010 *
b00000000000000000000000010101010 +
b00000000000000000000000010101010 -
b0010 /
b01110 0
b00000000000000000000000010101010 1
14
07
b00 9
b01 :
b00 ;
b00000000000000000000001011010100 <
0=
b00000000000000000000000000101100 >
b00010 ?
b00000000000000000000000000000010 A
b00000000000000000000000000000000 B
1D
b00000000000000000000000000101100 F
b00000000000000000000000000101000 G
b00000000000000000000000000101000 H
b00000000000000000000000000101000 I
b00100000000011100000000010101010 J
b001000 K
b101010 L
b01 N
1P
0S
b00 T
b00 W
1X
1Y
b00000 Z
b01110 [
b01110 \
b00000000000000000000000010101010 ]
b00000000000000000000000000000000 ^
b00000000000000000000000000000000 _
b00 `
b101010 a
b001000 b
b0010 c
b00000000000000000000000000000000 d
b00000000000000000000000010101010 e
b0010 f
b00000000000000000000000010101010 g
b00000000000000000000000010101010 i
b00000000000000000000000010101010 j
0k
b00000000000000000000000010101010 l
b00000000000000000000000000000000 n
b00000000000000000000000010101010 o
0p
b00000000000000000000000010101010 q
0r
b0000000010101010 s
b0000000000000000 t
0u
b0000000000000000 v
b0000000010101010 w
0x
b0000000010101010 y
0z
b0000000000000000 {
b0000000010101010 |
b00000000000000000 }
b0000000000000000 ""
0#"
b0000000000000000 $"
0%"
b0000000000000000 '"
b00000000000000000 ("
b00000000000000000000000000000000 )"
b01010 *"
b00000000000000000000000000000000 -"
13"
b00000000000000000000000010101010 6"
b00000000000000000000000000000000 7"
b101010 9"
b00000000000000000000000010101010 :"
b00000000000000000000000010101010 ="
#80000000
0!
0#
0D
0X
03"
#85000000
1!
1#
b00000000000000000000000000110000 %
b00000000000000000000000000101100 &
b00000000000000000000000000000000 '
b00000000000000000000000000000000 )
b00000000000000000000000000000000 *
b00000000000000000000000000000000 +
b00000000000000000000000000000000 -
1.
b1000 /
b00000 0
b00000000000000000000000000000000 1
12
b10 9
b10 :
b00000000000000000000000000110000 <
b00000000000000000000000000110000 >
b00000 ?
b00000000000000000000000000000000 A
1C
1D
b00000000000000000000000000110000 F
b00000000000000000000000000101100 G
b00000000000000000000000000101100 H
b00000000000000000000000000101100 I
b00000000000000000000000000000000 J
b000000 K
b000000 L
1M
b10 N
1P
1V
b10 W
1X
b00000 [
b00000 \
b00000000000000000000000000000000 ]
b00000000000000000000000000000000 _
b10 `
b000000 a
b000000 b
b1000 c
b00000000000000000000000000000000 e
b1000 f
b00000000000000000000000000000000 g
1h
b00000000000000000000000000000000 i
b00000000000000000000000000000000 j
b00000000000000000000000000000000 l
b00000000000000000000000000000000 o
b00000000000000000000000000000000 q
b0000000000000000 s
b0000000000000000 w
b0000000000000000 y
b0000000000000000 |
b00000 *"
b00 +"
13"
b00000000000000000000000000000000 6"
b00000000000000000000000000000000 7"
b0 9"
b00000000000000000000000000000000 :"
b00000000000000000000000000000000 ="
#90000000
0!
0#
0D
0X
03"
#95000000
1!
1#
b00000000000000000000000000110100 %
b00000000000000000000000000110000 &
b00000000000000000000000000110100 <
b00000000000000000000000000110100 >
1D
b00000000000000000000000000110100 F
b00000000000000000000000000110000 G
b00000000000000000000000000110000 H
b00000000000000000000000000110000 I
1X
13"
#100000000
0!
0#
0D
0X
03"
#105000000
1!
1#
b00000000000000000000000000111000 %
b00000000000000000000000000110100 &
b00000000000000000000000000111000 <
b00000000000000000000000000111000 >
1D
b00000000000000000000000000111000 F
b00000000000000000000000000110100 G
b00000000000000000000000000110100 H
b00000000000000000000000000110100 I
1X
13"
#110000000
0!
0#
0D
0X
03"
#115000000
1!
1#
b00000000000000000000000000111100 %
b00000000000000000000000000111000 &
b00000000000000000000000000111100 <
b00000000000000000000000000111100 >
1D
b00000000000000000000000000111100 F
b00000000000000000000000000111000 G
b00000000000000000000000000111000 H
b00000000000000000000000000111000 I
1X
13"
#120000000
0!
0#
0D
0X
03"
#125000000
1!
1#
b00000000000000000000000001000000 %
b00000000000000000000000000111100 &
b00000000000000000000000001000000 <
b00000000000000000000000001000000 >
1D
b00000000000000000000000001000000 F
b00000000000000000000000000111100 G
b00000000000000000000000000111100 H
b00000000000000000000000000111100 I
1X
13"
#130000000
0!
0#
0D
0X
03"
#135000000
1!
1#
b00000000000000000000000001000100 %
b00000000000000000000000001000000 &
b00000000000000000000000001000100 <
b00000000000000000000000001000100 >
1D
b00000000000000000000000001000100 F
b00000000000000000000000001000000 G
b00000000000000000000000001000000 H
b00000000000000000000000001000000 I
1X
13"
#140000000
0!
0#
0D
0X
03"
#145000000
1!
1#
b00000000000000000000000001001000 %
b00000000000000000000000001000100 &
b00000000000000000000000001001000 <
b00000000000000000000000001001000 >
1D
b00000000000000000000000001001000 F
b00000000000000000000000001000100 G
b00000000000000000000000001000100 H
b00000000000000000000000001000100 I
1X
13"
#150000000
0!
0#
0D
0X
03"
#155000000
1!
1#
b00000000000000000000000001001100 %
b00000000000000000000000001001000 &
b00000000000000000000000001001100 <
b00000000000000000000000001001100 >
1D
b00000000000000000000000001001100 F
b00000000000000000000000001001000 G
b00000000000000000000000001001000 H
b00000000000000000000000001001000 I
1X
13"
#160000000
0!
0#
0D
0X
03"
#165000000
1!
1#
b00000000000000000000000001010000 %
b00000000000000000000000001001100 &
b00000000000000000000000001010000 <
b00000000000000000000000001010000 >
1D
b00000000000000000000000001010000 F
b00000000000000000000000001001100 G
b00000000000000000000000001001100 H
b00000000000000000000000001001100 I
1X
13"
#170000000
0!
0#
0D
0X
03"
#175000000
1!
1#
b00000000000000000000000001010100 %
b00000000000000000000000001010000 &
b00000000000000000000000001010100 <
b00000000000000000000000001010100 >
1D
b00000000000000000000000001010100 F
b00000000000000000000000001010000 G
b00000000000000000000000001010000 H
b00000000000000000000000001010000 I
1X
13"
#180000000
0!
0#
0D
0X
03"
#185000000
1!
1#
b00000000000000000000000001011000 %
b00000000000000000000000001010100 &
b00000000000000000000000001011000 <
b00000000000000000000000001011000 >
1D
b00000000000000000000000001011000 F
b00000000000000000000000001010100 G
b00000000000000000000000001010100 H
b00000000000000000000000001010100 I
1X
13"
#190000000
0!
0#
0D
0X
03"
#195000000
1!
1#
b00000000000000000000000001011100 %
b00000000000000000000000001011000 &
b00000000000000000000000001011100 <
b00000000000000000000000001011100 >
1D
b00000000000000000000000001011100 F
b00000000000000000000000001011000 G
b00000000000000000000000001011000 H
b00000000000000000000000001011000 I
1X
13"
#200000000
0!
0#
0D
0X
03"
#205000000
1!
1#
b00000000000000000000000001100000 %
b00000000000000000000000001011100 &
b00000000000000000000000001100000 <
b00000000000000000000000001100000 >
1D
b00000000000000000000000001100000 F
b00000000000000000000000001011100 G
b00000000000000000000000001011100 H
b00000000000000000000000001011100 I
1X
13"
#210000000
0!
0#
0D
0X
03"
#215000000
1!
1#
b00000000000000000000000001100100 %
b00000000000000000000000001100000 &
b00000000000000000000000001100100 <
b00000000000000000000000001100100 >
1D
b00000000000000000000000001100100 F
b00000000000000000000000001100000 G
b00000000000000000000000001100000 H
b00000000000000000000000001100000 I
1X
13"
#220000000
0!
0#
0D
0X
03"
#225000000
1!
1#
b00000000000000000000000001101000 %
b00000000000000000000000001100100 &
b00000000000000000000000001101000 <
b00000000000000000000000001101000 >
1D
b00000000000000000000000001101000 F
b00000000000000000000000001100100 G
b00000000000000000000000001100100 H
b00000000000000000000000001100100 I
1X
13"
#230000000
0!
0#
0D
0X
03"
#235000000
1!
1#
b00000000000000000000000001101100 %
b00000000000000000000000001101000 &
b00000000000000000000000001101100 <
b00000000000000000000000001101100 >
1D
b00000000000000000000000001101100 F
b00000000000000000000000001101000 G
b00000000000000000000000001101000 H
b00000000000000000000000001101000 I
1X
13"
#240000000
0!
0#
0D
0X
03"
#245000000
1!
1#
b00000000000000000000000001110000 %
b00000000000000000000000001101100 &
b00000000000000000000000001110000 <
b00000000000000000000000001110000 >
1D
b00000000000000000000000001110000 F
b00000000000000000000000001101100 G
b00000000000000000000000001101100 H
b00000000000000000000000001101100 I
1X
13"
#250000000
0!
0#
0D
0X
03"
#255000000
1!
1#
b00000000000000000000000001110100 %
b00000000000000000000000001110000 &
b00000000000000000000000001110100 <
b00000000000000000000000001110100 >
1D
b00000000000000000000000001110100 F
b00000000000000000000000001110000 G
b00000000000000000000000001110000 H
b00000000000000000000000001110000 I
1X
13"
#260000000
0!
0#
0D
0X
03"
#265000000
1!
1#
b00000000000000000000000001111000 %
b00000000000000000000000001110100 &
b00000000000000000000000001111000 <
b00000000000000000000000001111000 >
1D
b00000000000000000000000001111000 F
b00000000000000000000000001110100 G
b00000000000000000000000001110100 H
b00000000000000000000000001110100 I
1X
13"
#270000000
0!
0#
0D
0X
03"
#275000000
1!
1#
b00000000000000000000000001111100 %
b00000000000000000000000001111000 &
b00000000000000000000000001111100 <
b00000000000000000000000001111100 >
1D
b00000000000000000000000001111100 F
b00000000000000000000000001111000 G
b00000000000000000000000001111000 H
b00000000000000000000000001111000 I
1X
13"
#280000000
0!
0#
0D
0X
03"
#285000000
1!
1#
b00000000000000000000000010000000 %
b00000000000000000000000001111100 &
b00000000000000000000000010000000 <
b00000000000000000000000010000000 >
1D
b00000000000000000000000010000000 F
b00000000000000000000000001111100 G
b00000000000000000000000001111100 H
b00000000000000000000000001111100 I
1X
13"
#290000000
0!
0#
0D
0X
03"
#295000000
1!
1#
b00000000000000000000000010000100 %
b00000000000000000000000010000000 &
b00000000000000000000000010000100 <
b00000000000000000000000010000100 >
1D
b00000000000000000000000010000100 F
b00000000000000000000000010000000 G
b00000000000000000000000010000000 H
b00000000000000000000000010000000 I
1X
13"
#300000000
0!
0#
0D
0X
03"
#305000000
1!
1#
b00000000000000000000000010001000 %
b00000000000000000000000010000100 &
b00000000000000000000000010001000 <
b00000000000000000000000010001000 >
1D
b00000000000000000000000010001000 F
b00000000000000000000000010000100 G
b00000000000000000000000010000100 H
b00000000000000000000000010000100 I
1X
13"
#310000000
0!
0#
0D
0X
03"
#315000000
1!
1#
b00000000000000000000000010001100 %
b00000000000000000000000010001000 &
b00000000000000000000000010001100 <
b00000000000000000000000010001100 >
1D
b00000000000000000000000010001100 F
b00000000000000000000000010001000 G
b00000000000000000000000010001000 H
b00000000000000000000000010001000 I
1X
13"
#320000000
0!
0#
0D
0X
03"
#325000000
1!
1#
b00000000000000000000000010010000 %
b00000000000000000000000010001100 &
b00000000000000000000000010010000 <
b00000000000000000000000010010000 >
1D
b00000000000000000000000010010000 F
b00000000000000000000000010001100 G
b00000000000000000000000010001100 H
b00000000000000000000000010001100 I
1X
13"
#330000000
0!
0#
0D
0X
03"
#335000000
1!
1#
b00000000000000000000000010010100 %
b00000000000000000000000010010000 &
b00000000000000000000000010010100 <
b00000000000000000000000010010100 >
1D
b00000000000000000000000010010100 F
b00000000000000000000000010010000 G
b00000000000000000000000010010000 H
b00000000000000000000000010010000 I
1X
13"
#340000000
0!
0#
0D
0X
03"
#345000000
1!
1#
b00000000000000000000000010011000 %
b00000000000000000000000010010100 &
b00000000000000000000000010011000 <
b00000000000000000000000010011000 >
1D
b00000000000000000000000010011000 F
b00000000000000000000000010010100 G
b00000000000000000000000010010100 H
b00000000000000000000000010010100 I
1X
13"
#350000000
0!
0#
0D
0X
03"
#355000000
1!
1#
b00000000000000000000000010011100 %
b00000000000000000000000010011000 &
b00000000000000000000000010011100 <
b00000000000000000000000010011100 >
1D
b00000000000000000000000010011100 F
b00000000000000000000000010011000 G
b00000000000000000000000010011000 H
b00000000000000000000000010011000 I
1X
13"
#360000000
0!
0#
0D
0X
03"
#365000000
1!
1#
b00000000000000000000000010100000 %
b00000000000000000000000010011100 &
b00000000000000000000000010100000 <
b00000000000000000000000010100000 >
1D
b00000000000000000000000010100000 F
b00000000000000000000000010011100 G
b00000000000000000000000010011100 H
b00000000000000000000000010011100 I
1X
13"
#370000000
0!
0#
0D
0X
03"
#375000000
1!
1#
b00000000000000000000000010100100 %
b00000000000000000000000010100000 &
b00000000000000000000000010100100 <
b00000000000000000000000010100100 >
1D
b00000000000000000000000010100100 F
b00000000000000000000000010100000 G
b00000000000000000000000010100000 H
b00000000000000000000000010100000 I
1X
13"
#380000000
0!
0#
0D
0X
03"
