I-Type/singlecpu.vcd
$date
  Sun Nov 23 09:57:37 2025
$end
$version
  GHDL v0
$end
$timescale
  1 fs
$end
$scope module standard $end
$upscope $end
$scope module std_logic_1164 $end
$upscope $end
$scope module numeric_std $end
$upscope $end
$scope module singlecyclecpu_tb $end
$var reg 1 ! clk $end
$var reg 1 " reset $end
$scope module uut $end
$var reg 1 # clk $end
$var reg 1 $ reset $end
$var reg 32 % pc_in[31:0] $end
$var reg 32 & pc_out[31:0] $end
$var reg 32 ' instruction[31:0] $end
$var reg 32 ( readdata1[31:0] $end
$var reg 32 ) readdata2[31:0] $end
$var reg 32 * signimm[31:0] $end
$var reg 32 + aluresult[31:0] $end
$var reg 32 , memreaddata[31:0] $end
$var reg 32 - writedatareg[31:0] $end
$var reg 1 . zero $end
$var reg 4 / alucontrolsig[3:0] $end
$var reg 5 0 writeregaddr[4:0] $end
$var reg 32 1 alu_b[31:0] $end
$var reg 1 2 regdst $end
$var reg 1 3 alusrc $end
$var reg 1 4 memtoreg $end
$var reg 1 5 regwrite $end
$var reg 1 6 memread $end
$var reg 1 7 memwrite $end
$var reg 1 8 branch $end
$var reg 2 9 aluop[1:0] $end
$scope module pc_inst $end
$var reg 1 : clk $end
$var reg 1 ; reset $end
$var reg 32 < pc_in[31:0] $end
$var reg 32 = pc_out[31:0] $end
$var reg 32 > pc_reg[31:0] $end
$upscope $end
$scope module im_inst $end
$var reg 32 ? address[31:0] $end
$var reg 32 @ instruction[31:0] $end
$upscope $end
$scope module cu_inst $end
$var reg 6 A opcode[5:0] $end
$var reg 1 B regdst $end
$var reg 1 C alusrc $end
$var reg 1 D memtoreg $end
$var reg 1 E regwrite $end
$var reg 1 F memread $end
$var reg 1 G memwrite $end
$var reg 1 H branch $end
$var reg 1 I jump $end
$var reg 2 J aluop[1:0] $end
$upscope $end
$scope module rf_inst $end
$var reg 1 K clk $end
$var reg 1 L regwrite $end
$var reg 5 M readreg1[4:0] $end
$var reg 5 N readreg2[4:0] $end
$var reg 5 O writereg[4:0] $end
$var reg 32 P writedata[31:0] $end
$var reg 32 Q readdata1[31:0] $end
$var reg 32 R readdata2[31:0] $end
$comment regs is not handled $end
$upscope $end
$scope module aluc_inst $end
$var reg 2 S aluop[1:0] $end
$var reg 6 T funct[5:0] $end
$var reg 4 U alucontrol[3:0] $end
$upscope $end
$scope module alu_inst $end
$var reg 32 V a[31:0] $end
$var reg 32 W b[31:0] $end
$var reg 4 X alucontrol[3:0] $end
$var reg 32 Y result[31:0] $end
$var reg 1 Z zero $end
$var reg 32 [ b_invert[31:0] $end
$var reg 32 \ adder_result[31:0] $end
$var reg 1 ] cin_sig $end
$var reg 32 ^ result_i[31:0] $end
$scope module adder32 $end
$var reg 32 _ a[31:0] $end
$var reg 32 ` b[31:0] $end
$var reg 1 a cin $end
$var reg 32 b sum[31:0] $end
$var reg 1 c cout $end
$var reg 16 d sum_lo[15:0] $end
$var reg 16 e sum_hi[15:0] $end
$var reg 1 f cmid $end
$scope module bk_low $end
$var reg 16 g a[15:0] $end
$var reg 16 h b[15:0] $end
$var reg 1 i cin $end
$var reg 16 j sum[15:0] $end
$var reg 1 k cout $end
$var reg 16 l g[15:0] $end
$var reg 16 m p[15:0] $end
$var reg 17 n c[16:0] $end
$scope module gen_gp(0) $end
$upscope $end
$scope module gen_gp(1) $end
$upscope $end
$scope module gen_gp(2) $end
$upscope $end
$scope module gen_gp(3) $end
$upscope $end
$scope module gen_gp(4) $end
$upscope $end
$scope module gen_gp(5) $end
$upscope $end
$scope module gen_gp(6) $end
$upscope $end
$scope module gen_gp(7) $end
$upscope $end
$scope module gen_gp(8) $end
$upscope $end
$scope module gen_gp(9) $end
$upscope $end
$scope module gen_gp(10) $end
$upscope $end
$scope module gen_gp(11) $end
$upscope $end
$scope module gen_gp(12) $end
$upscope $end
$scope module gen_gp(13) $end
$upscope $end
$scope module gen_gp(14) $end
$upscope $end
$scope module gen_gp(15) $end
$upscope $end
$scope module gen_sum(0) $end
$upscope $end
$scope module gen_sum(1) $end
$upscope $end
$scope module gen_sum(2) $end
$upscope $end
$scope module gen_sum(3) $end
$upscope $end
$scope module gen_sum(4) $end
$upscope $end
$scope module gen_sum(5) $end
$upscope $end
$scope module gen_sum(6) $end
$upscope $end
$scope module gen_sum(7) $end
$upscope $end
$scope module gen_sum(8) $end
$upscope $end
$scope module gen_sum(9) $end
$upscope $end
$scope module gen_sum(10) $end
$upscope $end
$scope module gen_sum(11) $end
$upscope $end
$scope module gen_sum(12) $end
$upscope $end
$scope module gen_sum(13) $end
$upscope $end
$scope module gen_sum(14) $end
$upscope $end
$scope module gen_sum(15) $end
$upscope $end
$upscope $end
$scope module bk_high $end
$var reg 16 o a[15:0] $end
$var reg 16 p b[15:0] $end
$var reg 1 q cin $end
$var reg 16 r sum[15:0] $end
$var reg 1 s cout $end
$var reg 16 t g[15:0] $end
$var reg 16 u p[15:0] $end
$var reg 17 v c[16:0] $end
$scope module gen_gp(0) $end
$upscope $end
$scope module gen_gp(1) $end
$upscope $end
$scope module gen_gp(2) $end
$upscope $end
$scope module gen_gp(3) $end
$upscope $end
$scope module gen_gp(4) $end
$upscope $end
$scope module gen_gp(5) $end
$upscope $end
$scope module gen_gp(6) $end
$upscope $end
$scope module gen_gp(7) $end
$upscope $end
$scope module gen_gp(8) $end
$upscope $end
$scope module gen_gp(9) $end
$upscope $end
$scope module gen_gp(10) $end
$upscope $end
$scope module gen_gp(11) $end
$upscope $end
$scope module gen_gp(12) $end
$upscope $end
$scope module gen_gp(13) $end
$upscope $end
$scope module gen_gp(14) $end
$upscope $end
$scope module gen_gp(15) $end
$upscope $end
$scope module gen_sum(0) $end
$upscope $end
$scope module gen_sum(1) $end
$upscope $end
$scope module gen_sum(2) $end
$upscope $end
$scope module gen_sum(3) $end
$upscope $end
$scope module gen_sum(4) $end
$upscope $end
$scope module gen_sum(5) $end
$upscope $end
$scope module gen_sum(6) $end
$upscope $end
$scope module gen_sum(7) $end
$upscope $end
$scope module gen_sum(8) $end
$upscope $end
$scope module gen_sum(9) $end
$upscope $end
$scope module gen_sum(10) $end
$upscope $end
$scope module gen_sum(11) $end
$upscope $end
$scope module gen_sum(12) $end
$upscope $end
$scope module gen_sum(13) $end
$upscope $end
$scope module gen_sum(14) $end
$upscope $end
$scope module gen_sum(15) $end
$upscope $end
$upscope $end
$upscope $end
$upscope $end
$scope module dm_inst $end
$var reg 1 w clk $end
$var reg 1 x memread $end
$var reg 1 y memwrite $end
$var reg 32 z address[31:0] $end
$var reg 32 { writedata[31:0] $end
$var reg 32 | readdata[31:0] $end
$comment ram is not handled $end
$var integer 32 } addr_index $end
$upscope $end
$scope module wb_mux $end
$var reg 32 !" aluresult[31:0] $end
$var reg 32 "" readdata[31:0] $end
$var reg 1 #" memtoreg $end
$var reg 32 $" writedata[31:0] $end
$upscope $end
$upscope $end
$upscope $end
$enddefinitions $end
#0
0!
1"
0#
1$
b00000000000000000000000000000100 %
b00000000000000000000000000000000 &
b00100000000010000000000000000101 '
b00000000000000000000000000000000 (
b00000000000000000000000000000000 )
b00000000000000000000000000000101 *
b00000000000000000000000000000101 +
b00000000000000000000000000000000 ,
b00000000000000000000000000000101 -
0.
b0010 /
b01000 0
b00000000000000000000000000000101 1
02
13
04
15
06
07
08
b00 9
0:
1;
b00000000000000000000000000000100 <
b00000000000000000000000000000000 =
b00000000000000000000000000000000 >
b00000000000000000000000000000000 ?
b00100000000010000000000000000101 @
b001000 A
0B
1C
0D
1E
0F
0G
0H
UI
b00 J
0K
1L
b00000 M
b01000 N
b01000 O
b00000000000000000000000000000101 P
b00000000000000000000000000000000 Q
b00000000000000000000000000000000 R
b00 S
b000101 T
b0010 U
b00000000000000000000000000000000 V
b00000000000000000000000000000101 W
b0010 X
b00000000000000000000000000000101 Y
0Z
b00000000000000000000000000000101 [
b00000000000000000000000000000101 \
0]
b00000000000000000000000000000101 ^
b00000000000000000000000000000000 _
b00000000000000000000000000000101 `
0a
b00000000000000000000000000000101 b
0c
b0000000000000101 d
b0000000000000000 e
0f
b0000000000000000 g
b0000000000000101 h
0i
b0000000000000101 j
0k
b0000000000000000 l
b0000000000000101 m
b00000000000000000 n
b0000000000000000 o
b0000000000000000 p
0q
b0000000000000000 r
0s
b0000000000000000 t
b0000000000000000 u
b00000000000000000 v
0w
0x
0y
b00000000000000000000000000000101 z
b00000000000000000000000000000000 {
b00000000000000000000000000000000 |
b1 }
b00000000000000000000000000000101 !"
b00000000000000000000000000000000 ""
0#"
b00000000000000000000000000000101 $"
#5000000
1!
1#
b00000000000000000000000000000101 )
1:
1K
b00000000000000000000000000000101 R
1w
b00000000000000000000000000000101 {
#10000000
0!
0#
0:
0K
0w
#15000000
1!
1#
1:
1K
1w
#20000000
0!
0"
0#
0$
0:
0;
0K
0w
#25000000
1!
1#
b00000000000000000000000000001000 %
b00000000000000000000000000000100 &
b00100001000010010000000000000011 '
b00000000000000000000000000000101 (
b00000000000000000000000000000000 )
b00000000000000000000000000000011 *
b00000000000000000000000000001000 +
b00000000000000000000000000001000 -
0.
b01001 0
b00000000000000000000000000000011 1
1:
b00000000000000000000000000001000 <
b00000000000000000000000000000100 =
b00000000000000000000000000000100 >
b00000000000000000000000000000100 ?
b00100001000010010000000000000011 @
1K
b01000 M
b01001 N
b01001 O
b00000000000000000000000000001000 P
b00000000000000000000000000000101 Q
b00000000000000000000000000000000 R
b000011 T
b00000000000000000000000000000101 V
b00000000000000000000000000000011 W
b00000000000000000000000000001000 Y
0Z
b00000000000000000000000000000011 [
b00000000000000000000000000001000 \
b00000000000000000000000000001000 ^
b00000000000000000000000000000101 _
b00000000000000000000000000000011 `
b00000000000000000000000000001000 b
b0000000000001000 d
b0000000000000101 g
b0000000000000011 h
b0000000000001000 j
b0000000000000001 l
b0000000000000110 m
b00000000000001110 n
1w
b00000000000000000000000000001000 z
b00000000000000000000000000000000 {
b10 }
b00000000000000000000000000001000 !"
b00000000000000000000000000001000 $"
#30000000
0!
0#
0:
0K
0w
#35000000
1!
1#
b00000000000000000000000000001100 %
b00000000000000000000000000001000 &
b00000001000010010101000000100000 '
b00000000000000000000000000001000 )
b00000000000000000101000000100000 *
b00000000000000000000000000001101 +
b00000000000000000000000000001101 -
b01010 0
b00000000000000000000000000001000 1
12
03
b10 9
1:
b00000000000000000000000000001100 <
b00000000000000000000000000001000 =
b00000000000000000000000000001000 >
b00000000000000000000000000001000 ?
b00000001000010010101000000100000 @
b000000 A
1B
0C
1E
b10 J
1K
b01010 O
b00000000000000000000000000001101 P
b00000000000000000000000000001000 R
b10 S
b100000 T
b00000000000000000000000000001000 W
b00000000000000000000000000001101 Y
b00000000000000000000000000001000 [
b00000000000000000000000000001101 \
b00000000000000000000000000001101 ^
b00000000000000000000000000001000 `
b00000000000000000000000000001101 b
b0000000000001101 d
b0000000000001000 h
b0000000000001101 j
b0000000000000000 l
b0000000000001101 m
b00000000000000000 n
1w
b00000000000000000000000000001101 z
b00000000000000000000000000001000 {
b11 }
b00000000000000000000000000001101 !"
b00000000000000000000000000001101 $"
#40000000
0!
0#
0:
0K
0w
#45000000
1!
1#
b00000000000000000000000000010000 %
b00000000000000000000000000001100 &
b00000001001000000101100000100010 '
b00000000000000000000000000001000 (
b00000000000000000000000000000000 )
b00000000000000000101100000100010 *
b00000000000000000000000000001000 +
b00000000000000000000000000001000 -
0.
b0110 /
b01011 0
b00000000000000000000000000000000 1
1:
b00000000000000000000000000010000 <
b00000000000000000000000000001100 =
b00000000000000000000000000001100 >
b00000000000000000000000000001100 ?
b00000001001000000101100000100010 @
1K
b01001 M
b00000 N
b01011 O
b00000000000000000000000000001000 P
b00000000000000000000000000001000 Q
b00000000000000000000000000000000 R
b100010 T
b0110 U
b00000000000000000000000000001000 V
b00000000000000000000000000000000 W
b0110 X
b00000000000000000000000000001000 Y
0Z
b11111111111111111111111111111111 [
b00000000000000000000000000001000 \
1]
b00000000000000000000000000001000 ^
b00000000000000000000000000001000 _
b11111111111111111111111111111111 `
1a
b00000000000000000000000000001000 b
1c
b0000000000001000 d
b0000000000000000 e
1f
b0000000000001000 g
b1111111111111111 h
1i
b0000000000001000 j
1k
b0000000000001000 l
b1111111111110111 m
b11111111111111111 n
b1111111111111111 p
1q
b0000000000000000 r
1s
b1111111111111111 u
b11111111111111111 v
1w
b00000000000000000000000000001000 z
b00000000000000000000000000000000 {
b10 }
b00000000000000000000000000001000 !"
b00000000000000000000000000001000 $"
#50000000
0!
0#
0:
0K
0w
#55000000
1!
1#
b00000000000000000000000000010100 %
b00000000000000000000000000010000 &
b00000001000010010110000000100100 '
b00000000000000000000000000000101 (
b00000000000000000000000000001000 )
b00000000000000000110000000100100 *
b00000000000000000000000000000000 +
b00000000000000000000000000000000 -
1.
b0000 /
b01100 0
b00000000000000000000000000001000 1
1:
b00000000000000000000000000010100 <
b00000000000000000000000000010000 =
b00000000000000000000000000010000 >
b00000000000000000000000000010000 ?
b00000001000010010110000000100100 @
1K
b01000 M
b01001 N
b01100 O
b00000000000000000000000000000000 P
b00000000000000000000000000000101 Q
b00000000000000000000000000001000 R
b100100 T
b0000 U
b00000000000000000000000000000101 V
b00000000000000000000000000001000 W
b0000 X
b00000000000000000000000000000000 Y
1Z
b00000000000000000000000000001000 [
b00000000000000000000000000001101 \
0]
b00000000000000000000000000000000 ^
b00000000000000000000000000000101 _
b00000000000000000000000000001000 `
0a
b00000000000000000000000000001101 b
0c
b0000000000001101 d
b0000000000000000 e
0f
b0000000000000101 g
b0000000000001000 h
0i
b0000000000001101 j
0k
b0000000000000000 l
b0000000000001101 m
b00000000000000000 n
b0000000000000000 p
0q
b0000000000000000 r
0s
b0000000000000000 u
b00000000000000000 v
1w
b00000000000000000000000000000000 z
b00000000000000000000000000001000 {
b0 }
b00000000000000000000000000000000 !"
b00000000000000000000000000000000 $"
#60000000
0!
0#
0:
0K
0w
#65000000
1!
1#
b00000000000000000000000000011000 %
b00000000000000000000000000010100 &
b00000001000010010110100000100101 '
b00000000000000000110100000100101 *
b00000000000000000000000000001101 +
b00000000000000000000000000001101 -
0.
b0001 /
b01101 0
1:
b00000000000000000000000000011000 <
b00000000000000000000000000010100 =
b00000000000000000000000000010100 >
b00000000000000000000000000010100 ?
b00000001000010010110100000100101 @
1K
b01101 O
b00000000000000000000000000001101 P
b100101 T
b0001 U
b0001 X
b00000000000000000000000000001101 Y
0Z
b00000000000000000000000000001101 ^
1w
b00000000000000000000000000001101 z
b11 }
b00000000000000000000000000001101 !"
b00000000000000000000000000001101 $"
#70000000
0!
0#
0:
0K
0w
#75000000
1!
1#
b00000000000000000000000000011100 %
b00000000000000000000000000011000 &
b00000000000000000000000000000000 '
b00000000000000000000000000000000 (
b00000000000000000000000000000000 )
b00000000000000000000000000000000 *
b00000000000000000000000000000000 +
b00000000000000000000000000000000 -
1.
b1111 /
b00000 0
b00000000000000000000000000000000 1
1:
b00000000000000000000000000011100 <
b00000000000000000000000000011000 =
b00000000000000000000000000011000 >
b00000000000000000000000000011000 ?
b00000000000000000000000000000000 @
1K
b00000 M
b00000 N
b00000 O
b00000000000000000000000000000000 P
b00000000000000000000000000000000 Q
b00000000000000000000000000000000 R
b000000 T
b1111 U
b00000000000000000000000000000000 V
b00000000000000000000000000000000 W
b1111 X
b00000000000000000000000000000000 Y
1Z
b00000000000000000000000000000000 [
b00000000000000000000000000000000 \
b00000000000000000000000000000000 ^
b00000000000000000000000000000000 _
b00000000000000000000000000000000 `
b00000000000000000000000000000000 b
b0000000000000000 d
b0000000000000000 g
b0000000000000000 h
b0000000000000000 j
b0000000000000000 m
1w
b00000000000000000000000000000000 z
b00000000000000000000000000000000 {
b0 }
b00000000000000000000000000000000 !"
b00000000000000000000000000000000 $"
#80000000
0!
0#
0:
0K
0w
#85000000
1!
1#
b00000000000000000000000000100000 %
b00000000000000000000000000011100 &
1:
b00000000000000000000000000100000 <
b00000000000000000000000000011100 =
b00000000000000000000000000011100 >
b00000000000000000000000000011100 ?
1K
1w
#90000000
0!
0#
0:
0K
0w
#95000000
1!
1#
b00000000000000000000000000100100 %
b00000000000000000000000000100000 &
1:
b00000000000000000000000000100100 <
b00000000000000000000000000100000 =
b00000000000000000000000000100000 >
b00000000000000000000000000100000 ?
1K
1w
#100000000
0!
0#
0:
0K
0w
#105000000
1!
1#
b00000000000000000000000000101000 %
b00000000000000000000000000100100 &
1:
b00000000000000000000000000101000 <
b00000000000000000000000000100100 =
b00000000000000000000000000100100 >
b00000000000000000000000000100100 ?
1K
1w
#110000000
0!
0#
0:
0K
0w
#115000000
1!
1#
b00000000000000000000000000101100 %
b00000000000000000000000000101000 &
1:
b00000000000000000000000000101100 <
b00000000000000000000000000101000 =
b00000000000000000000000000101000 >
b00000000000000000000000000101000 ?
1K
1w
#120000000
0!
0#
0:
0K
0w
#125000000
1!
1#
b00000000000000000000000000110000 %
b00000000000000000000000000101100 &
1:
b00000000000000000000000000110000 <
b00000000000000000000000000101100 =
b00000000000000000000000000101100 >
b00000000000000000000000000101100 ?
1K
1w
#130000000
0!
0#
0:
0K
0w
#135000000
1!
1#
b00000000000000000000000000110100 %
b00000000000000000000000000110000 &
1:
b00000000000000000000000000110100 <
b00000000000000000000000000110000 =
b00000000000000000000000000110000 >
b00000000000000000000000000110000 ?
1K
1w
#140000000
0!
0#
0:
0K
0w
#145000000
1!
1#
b00000000000000000000000000111000 %
b00000000000000000000000000110100 &
1:
b00000000000000000000000000111000 <
b00000000000000000000000000110100 =
b00000000000000000000000000110100 >
b00000000000000000000000000110100 ?
1K
1w
#150000000
0!
0#
0:
0K
0w
#155000000
1!
1#
b00000000000000000000000000111100 %
b00000000000000000000000000111000 &
1:
b00000000000000000000000000111100 <
b00000000000000000000000000111000 =
b00000000000000000000000000111000 >
b00000000000000000000000000111000 ?
1K
1w
#160000000
0!
0#
0:
0K
0w
#165000000
1!
1#
b00000000000000000000000001000000 %
b00000000000000000000000000111100 &
1:
b00000000000000000000000001000000 <
b00000000000000000000000000111100 =
b00000000000000000000000000111100 >
b00000000000000000000000000111100 ?
1K
1w
#170000000
0!
0#
0:
0K
0w
#175000000
1!
1#
b00000000000000000000000001000100 %
b00000000000000000000000001000000 &
1:
b00000000000000000000000001000100 <
b00000000000000000000000001000000 =
b00000000000000000000000001000000 >
b00000000000000000000000001000000 ?
1K
1w
#180000000
0!
0#
0:
0K
0w
#185000000
1!
1#
b00000000000000000000000001001000 %
b00000000000000000000000001000100 &
1:
b00000000000000000000000001001000 <
b00000000000000000000000001000100 =
b00000000000000000000000001000100 >
b00000000000000000000000001000100 ?
1K
1w
#190000000
0!
0#
0:
0K
0w
#195000000
1!
1#
b00000000000000000000000001001100 %
b00000000000000000000000001001000 &
1:
b00000000000000000000000001001100 <
b00000000000000000000000001001000 =
b00000000000000000000000001001000 >
b00000000000000000000000001001000 ?
1K
1w
#200000000
0!
0#
0:
0K
0w
#205000000
1!
1#
b00000000000000000000000001010000 %
b00000000000000000000000001001100 &
1:
b00000000000000000000000001010000 <
b00000000000000000000000001001100 =
b00000000000000000000000001001100 >
b00000000000000000000000001001100 ?
1K
1w
#210000000
0!
0#
0:
0K
0w
#215000000
1!
1#
b00000000000000000000000001010100 %
b00000000000000000000000001010000 &
1:
b00000000000000000000000001010100 <
b00000000000000000000000001010000 =
b00000000000000000000000001010000 >
b00000000000000000000000001010000 ?
1K
1w
#220000000
0!
0#
0:
0K
0w
#225000000
1!
1#
b00000000000000000000000001011000 %
b00000000000000000000000001010100 &
1:
b00000000000000000000000001011000 <
b00000000000000000000000001010100 =
b00000000000000000000000001010100 >
b00000000000000000000000001010100 ?
1K
1w
#230000000
0!
0#
0:
0K
0w
#235000000
1!
1#
b00000000000000000000000001011100 %
b00000000000000000000000001011000 &
1:
b00000000000000000000000001011100 <
b00000000000000000000000001011000 =
b00000000000000000000000001011000 >
b00000000000000000000000001011000 ?
1K
1w
#240000000
0!
0#
0:
0K
0w
#245000000
1!
1#
b00000000000000000000000001100000 %
b00000000000000000000000001011100 &
1:
b00000000000000000000000001100000 <
b00000000000000000000000001011100 =
b00000000000000000000000001011100 >
b00000000000000000000000001011100 ?
1K
1w
#250000000
0!
0#
0:
0K
0w
#255000000
1!
1#
b00000000000000000000000001100100 %
b00000000000000000000000001100000 &
1:
b00000000000000000000000001100100 <
b00000000000000000000000001100000 =
b00000000000000000000000001100000 >
b00000000000000000000000001100000 ?
1K
1w
#260000000
0!
0#
0:
0K
0w
#265000000
1!
1#
b00000000000000000000000001101000 %
b00000000000000000000000001100100 &
1:
b00000000000000000000000001101000 <
b00000000000000000000000001100100 =
b00000000000000000000000001100100 >
b00000000000000000000000001100100 ?
1K
1w
#270000000
0!
0#
0:
0K
0w
#275000000
1!
1#
b00000000000000000000000001101100 %
b00000000000000000000000001101000 &
1:
b00000000000000000000000001101100 <
b00000000000000000000000001101000 =
b00000000000000000000000001101000 >
b00000000000000000000000001101000 ?
1K
1w
#280000000
0!
0#
0:
0K
0w
#285000000
1!
1#
b00000000000000000000000001110000 %
b00000000000000000000000001101100 &
1:
b00000000000000000000000001110000 <
b00000000000000000000000001101100 =
b00000000000000000000000001101100 >
b00000000000000000000000001101100 ?
1K
1w
#290000000
0!
0#
0:
0K
0w
#295000000
1!
1#
b00000000000000000000000001110100 %
b00000000000000000000000001110000 &
1:
b00000000000000000000000001110100 <
b00000000000000000000000001110000 =
b00000000000000000000000001110000 >
b00000000000000000000000001110000 ?
1K
1w
#300000000
0!
0#
0:
0K
0w
#305000000
1!
1#
b00000000000000000000000001111000 %
b00000000000000000000000001110100 &
1:
b00000000000000000000000001111000 <
b00000000000000000000000001110100 =
b00000000000000000000000001110100 >
b00000000000000000000000001110100 ?
1K
1w
#310000000
0!
0#
0:
0K
0w
#315000000
1!
1#
b00000000000000000000000001111100 %
b00000000000000000000000001111000 &
1:
b00000000000000000000000001111100 <
b00000000000000000000000001111000 =
b00000000000000000000000001111000 >
b00000000000000000000000001111000 ?
1K
1w
#320000000
0!
0#
0:
0K
0w
#325000000
1!
1#
b00000000000000000000000010000000 %
b00000000000000000000000001111100 &
1:
b00000000000000000000000010000000 <
b00000000000000000000000001111100 =
b00000000000000000000000001111100 >
b00000000000000000000000001111100 ?
1K
1w
#330000000
0!
0#
0:
0K
0w
#335000000
1!
1#
b00000000000000000000000010000100 %
b00000000000000000000000010000000 &
1:
b00000000000000000000000010000100 <
b00000000000000000000000010000000 =
b00000000000000000000000010000000 >
b00000000000000000000000010000000 ?
1K
1w
#340000000
0!
0#
0:
0K
0w
#345000000
1!
1#
b00000000000000000000000010001000 %
b00000000000000000000000010000100 &
1:
b00000000000000000000000010001000 <
b00000000000000000000000010000100 =
b00000000000000000000000010000100 >
b00000000000000000000000010000100 ?
1K
1w
#350000000
0!
0#
0:
0K
0w
#355000000
1!
1#
b00000000000000000000000010001100 %
b00000000000000000000000010001000 &
1:
b00000000000000000000000010001100 <
b00000000000000000000000010001000 =
b00000000000000000000000010001000 >
b00000000000000000000000010001000 ?
1K
1w
#360000000
0!
0#
0:
0K
0w
#365000000
1!
1#
b00000000000000000000000010010000 %
b00000000000000000000000010001100 &
1:
b00000000000000000000000010010000 <
b00000000000000000000000010001100 =
b00000000000000000000000010001100 >
b00000000000000000000000010001100 ?
1K
1w
#370000000
0!
0#
0:
0K
0w
#375000000
1!
1#
b00000000000000000000000010010100 %
b00000000000000000000000010010000 &
1:
b00000000000000000000000010010100 <
b00000000000000000000000010010000 =
b00000000000000000000000010010000 >
b00000000000000000000000010010000 ?
1K
1w
#380000000
0!
0#
0:
0K
0w
#385000000
1!
1#
b00000000000000000000000010011000 %
b00000000000000000000000010010100 &
1:
b00000000000000000000000010011000 <
b00000000000000000000000010010100 =
b00000000000000000000000010010100 >
b00000000000000000000000010010100 ?
1K
1w
#390000000
0!
0#
0:
0K
0w
#395000000
1!
1#
b00000000000000000000000010011100 %
b00000000000000000000000010011000 &
1:
b00000000000000000000000010011100 <
b00000000000000000000000010011000 =
b00000000000000000000000010011000 >
b00000000000000000000000010011000 ?
1K
1w
#400000000
0!
0#
0:
0K
0w
#405000000
1!
1#
b00000000000000000000000010100000 %
b00000000000000000000000010011100 &
1:
b00000000000000000000000010100000 <
b00000000000000000000000010011100 =
b00000000000000000000000010011100 >
b00000000000000000000000010011100 ?
1K
1w
#410000000
0!
0#
0:
0K
0w
#415000000
1!
1#
b00000000000000000000000010100100 %
b00000000000000000000000010100000 &
1:
b00000000000000000000000010100100 <
b00000000000000000000000010100000 =
b00000000000000000000000010100000 >
b00000000000000000000000010100000 ?
1K
1w
#420000000
0!
0#
0:
0K
0w
#425000000
1!
1#
b00000000000000000000000010101000 %
b00000000000000000000000010100100 &
1:
b00000000000000000000000010101000 <
b00000000000000000000000010100100 =
b00000000000000000000000010100100 >
b00000000000000000000000010100100 ?
1K
1w
#430000000
0!
0#
0:
0K
0w
#435000000
1!
1#
b00000000000000000000000010101100 %
b00000000000000000000000010101000 &
1:
b00000000000000000000000010101100 <
b00000000000000000000000010101000 =
b00000000000000000000000010101000 >
b00000000000000000000000010101000 ?
1K
1w
#440000000
0!
0#
0:
0K
0w
#445000000
1!
1#
b00000000000000000000000010110000 %
b00000000000000000000000010101100 &
1:
b00000000000000000000000010110000 <
b00000000000000000000000010101100 =
b00000000000000000000000010101100 >
b00000000000000000000000010101100 ?
1K
1w
#450000000
0!
0#
0:
0K
0w
#455000000
1!
1#
b00000000000000000000000010110100 %
b00000000000000000000000010110000 &
1:
b00000000000000000000000010110100 <
b00000000000000000000000010110000 =
b00000000000000000000000010110000 >
b00000000000000000000000010110000 ?
1K
1w
#460000000
0!
0#
0:
0K
0w
#465000000
1!
1#
b00000000000000000000000010111000 %
b00000000000000000000000010110100 &
1:
b00000000000000000000000010111000 <
b00000000000000000000000010110100 =
b00000000000000000000000010110100 >
b00000000000000000000000010110100 ?
1K
1w
#470000000
0!
0#
0:
0K
0w
#475000000
1!
1#
b00000000000000000000000010111100 %
b00000000000000000000000010111000 &
1:
b00000000000000000000000010111100 <
b00000000000000000000000010111000 =
b00000000000000000000000010111000 >
b00000000000000000000000010111000 ?
1K
1w
#480000000
0!
0#
0:
0K
0w
#485000000
1!
1#
b00000000000000000000000011000000 %
b00000000000000000000000010111100 &
1:
b00000000000000000000000011000000 <
b00000000000000000000000010111100 =
b00000000000000000000000010111100 >
b00000000000000000000000010111100 ?
1K
1w
#490000000
0!
0#
0:
0K
0w
#495000000
1!
1#
b00000000000000000000000011000100 %
b00000000000000000000000011000000 &
1:
b00000000000000000000000011000100 <
b00000000000000000000000011000000 =
b00000000000000000000000011000000 >
b00000000000000000000000011000000 ?
1K
1w
