I-Type/singlecpu.vcd
$date
  Tue Nov 25 11:06:13 2025
$end
$version
  GHDL v0
$end
$timescale
  1 fs
$end
$scope module standard $end
$upscope $end
$scope module std_logic_1164 $end
$upscope $end
$scope module numeric_std $end
$upscope $end
$scope module singlecyclecpu_tb $end
$var reg 1 ! clk $end
$var reg 1 " reset $end
$scope module cpu_inst $end
$var reg 1 # clk $end
$var reg 1 $ reset $end
$var reg 32 % pc_in[31:0] $end
$var reg 32 & pc_out[31:0] $end
$var reg 32 ' instruction[31:0] $end
$var reg 32 ( readdata1[31:0] $end
$var reg 32 ) readdata2[31:0] $end
$var reg 32 * signimm[31:0] $end
$var reg 32 + aluresult[31:0] $end
$var reg 32 , memreaddata[31:0] $end
$var reg 32 - writedatareg[31:0] $end
$var reg 1 . zero $end
$var reg 4 / alucontrolsig[3:0] $end
$var reg 5 0 writeregaddr[4:0] $end
$var reg 32 1 alu_b[31:0] $end
$var reg 1 2 regdst $end
$var reg 1 3 memtoreg $end
$var reg 1 4 regwrite $end
$var reg 1 5 memread $end
$var reg 1 6 memwrite $end
$var reg 1 7 branch $end
$var reg 2 8 aluop[1:0] $end
$var reg 2 9 alusrc[1:0] $end
$var reg 5 : shamt_value[4:0] $end
$var reg 5 ; check[4:0] $end
$var reg 32 < shamt_ext_32[31:0] $end
$var reg 32 = alu_a_input[31:0] $end
$var reg 1 > alusrca_ctrl $end
$scope module pc_inst $end
$var reg 1 ? clk $end
$var reg 1 @ reset $end
$var reg 32 A pc_in[31:0] $end
$var reg 32 B pc_out[31:0] $end
$var reg 32 C pc_reg[31:0] $end
$upscope $end
$scope module im_inst $end
$var reg 32 D address[31:0] $end
$var reg 32 E instruction[31:0] $end
$upscope $end
$scope module cu_inst $end
$var reg 6 F opcode[5:0] $end
$var reg 6 G funct_in[5:0] $end
$var reg 1 H regdst $end
$var reg 2 I alusrc_ctrl[1:0] $end
$var reg 1 J memtoreg $end
$var reg 1 K regwrite $end
$var reg 1 L memread $end
$var reg 1 M memwrite $end
$var reg 1 N branch $end
$var reg 1 O jump $end
$var reg 1 P alusrca $end
$var reg 2 Q aluop[1:0] $end
$upscope $end
$scope module rf_inst $end
$var reg 1 R clk $end
$var reg 1 S regwrite $end
$var reg 5 T readreg1[4:0] $end
$var reg 5 U readreg2[4:0] $end
$var reg 5 V writereg[4:0] $end
$var reg 32 W writedata[31:0] $end
$var reg 32 X readdata1[31:0] $end
$var reg 32 Y readdata2[31:0] $end
$comment regs is not handled $end
$upscope $end
$scope module aluc_inst $end
$var reg 2 Z aluop[1:0] $end
$var reg 6 [ funct[5:0] $end
$var reg 6 \ opcode[5:0] $end
$var reg 4 ] alucontrol[3:0] $end
$upscope $end
$scope module alu_inst $end
$var reg 32 ^ a[31:0] $end
$var reg 32 _ b[31:0] $end
$var reg 4 ` alucontrol[3:0] $end
$var reg 32 a result[31:0] $end
$var reg 1 b zero $end
$var reg 32 c b_invert[31:0] $end
$var reg 32 d adder_result[31:0] $end
$var reg 1 e cin_sig $end
$var reg 32 f result_i[31:0] $end
$var reg 32 g shiftout[31:0] $end
$scope module adder32 $end
$var reg 32 h a[31:0] $end
$var reg 32 i b[31:0] $end
$var reg 1 j cin $end
$var reg 32 k sum[31:0] $end
$var reg 1 l cout $end
$var reg 16 m sum_lo[15:0] $end
$var reg 16 n sum_hi[15:0] $end
$var reg 1 o cmid $end
$scope module bk_low $end
$var reg 16 p a[15:0] $end
$var reg 16 q b[15:0] $end
$var reg 1 r cin $end
$var reg 16 s sum[15:0] $end
$var reg 1 t cout $end
$var reg 16 u g[15:0] $end
$var reg 16 v p[15:0] $end
$var reg 17 w c[16:0] $end
$scope module gen_gp(0) $end
$upscope $end
$scope module gen_gp(1) $end
$upscope $end
$scope module gen_gp(2) $end
$upscope $end
$scope module gen_gp(3) $end
$upscope $end
$scope module gen_gp(4) $end
$upscope $end
$scope module gen_gp(5) $end
$upscope $end
$scope module gen_gp(6) $end
$upscope $end
$scope module gen_gp(7) $end
$upscope $end
$scope module gen_gp(8) $end
$upscope $end
$scope module gen_gp(9) $end
$upscope $end
$scope module gen_gp(10) $end
$upscope $end
$scope module gen_gp(11) $end
$upscope $end
$scope module gen_gp(12) $end
$upscope $end
$scope module gen_gp(13) $end
$upscope $end
$scope module gen_gp(14) $end
$upscope $end
$scope module gen_gp(15) $end
$upscope $end
$scope module gen_sum(0) $end
$upscope $end
$scope module gen_sum(1) $end
$upscope $end
$scope module gen_sum(2) $end
$upscope $end
$scope module gen_sum(3) $end
$upscope $end
$scope module gen_sum(4) $end
$upscope $end
$scope module gen_sum(5) $end
$upscope $end
$scope module gen_sum(6) $end
$upscope $end
$scope module gen_sum(7) $end
$upscope $end
$scope module gen_sum(8) $end
$upscope $end
$scope module gen_sum(9) $end
$upscope $end
$scope module gen_sum(10) $end
$upscope $end
$scope module gen_sum(11) $end
$upscope $end
$scope module gen_sum(12) $end
$upscope $end
$scope module gen_sum(13) $end
$upscope $end
$scope module gen_sum(14) $end
$upscope $end
$scope module gen_sum(15) $end
$upscope $end
$upscope $end
$scope module bk_high $end
$var reg 16 x a[15:0] $end
$var reg 16 y b[15:0] $end
$var reg 1 z cin $end
$var reg 16 { sum[15:0] $end
$var reg 1 | cout $end
$var reg 16 } g[15:0] $end
$var reg 16 !" p[15:0] $end
$var reg 17 "" c[16:0] $end
$scope module gen_gp(0) $end
$upscope $end
$scope module gen_gp(1) $end
$upscope $end
$scope module gen_gp(2) $end
$upscope $end
$scope module gen_gp(3) $end
$upscope $end
$scope module gen_gp(4) $end
$upscope $end
$scope module gen_gp(5) $end
$upscope $end
$scope module gen_gp(6) $end
$upscope $end
$scope module gen_gp(7) $end
$upscope $end
$scope module gen_gp(8) $end
$upscope $end
$scope module gen_gp(9) $end
$upscope $end
$scope module gen_gp(10) $end
$upscope $end
$scope module gen_gp(11) $end
$upscope $end
$scope module gen_gp(12) $end
$upscope $end
$scope module gen_gp(13) $end
$upscope $end
$scope module gen_gp(14) $end
$upscope $end
$scope module gen_gp(15) $end
$upscope $end
$scope module gen_sum(0) $end
$upscope $end
$scope module gen_sum(1) $end
$upscope $end
$scope module gen_sum(2) $end
$upscope $end
$scope module gen_sum(3) $end
$upscope $end
$scope module gen_sum(4) $end
$upscope $end
$scope module gen_sum(5) $end
$upscope $end
$scope module gen_sum(6) $end
$upscope $end
$scope module gen_sum(7) $end
$upscope $end
$scope module gen_sum(8) $end
$upscope $end
$scope module gen_sum(9) $end
$upscope $end
$scope module gen_sum(10) $end
$upscope $end
$scope module gen_sum(11) $end
$upscope $end
$scope module gen_sum(12) $end
$upscope $end
$scope module gen_sum(13) $end
$upscope $end
$scope module gen_sum(14) $end
$upscope $end
$scope module gen_sum(15) $end
$upscope $end
$upscope $end
$upscope $end
$scope module u_shifter $end
$var reg 32 #" datain[31:0] $end
$var reg 5 $" shamt[4:0] $end
$var reg 2 %" mode[1:0] $end
$var reg 32 &" dataout[31:0] $end
$var reg 32 '" stage0[31:0] $end
$var reg 32 (" stage1[31:0] $end
$var reg 32 )" stage2[31:0] $end
$var reg 32 *" stage3[31:0] $end
$var reg 32 +" stage4[31:0] $end
$var reg 1 ," fillbit $end
$upscope $end
$upscope $end
$scope module dm_inst $end
$var reg 1 -" clk $end
$var reg 1 ." memread $end
$var reg 1 /" memwrite $end
$var reg 32 0" address[31:0] $end
$var reg 32 1" writedata[31:0] $end
$var reg 32 2" readdata[31:0] $end
$comment ram is not handled $end
$var integer 32 3" addr_index $end
$upscope $end
$scope module wb_mux $end
$var reg 32 4" aluresult[31:0] $end
$var reg 32 5" readdata[31:0] $end
$var reg 1 6" memtoreg $end
$var reg 32 7" writedata[31:0] $end
$upscope $end
$upscope $end
$upscope $end
$enddefinitions $end
#0
0!
1"
0#
1$
b00000000000000000000000000000100 %
b00000000000000000000000000000000 &
b00100000000010000000000000000101 '
b00000000000000000000000000000000 (
b00000000000000000000000000000000 )
b00000000000000000000000000000101 *
b00000000000000000000000000000101 +
b00000000000000000000000000000000 ,
b00000000000000000000000000000101 -
0.
b0010 /
b01000 0
b00000000000000000000000000000101 1
02
03
14
05
06
07
b00 8
b01 9
b00000 :
bUUUUU ;
b00000000000000000000000000000000 <
b00000000000000000000000000000000 =
0>
0?
1@
b00000000000000000000000000000100 A
b00000000000000000000000000000000 B
b00000000000000000000000000000000 C
b00000000000000000000000000000000 D
b00100000000010000000000000000101 E
b001000 F
b000101 G
0H
b01 I
0J
1K
0L
0M
0N
UO
0P
b00 Q
0R
1S
b00000 T
b01000 U
b01000 V
b00000000000000000000000000000101 W
b00000000000000000000000000000000 X
b00000000000000000000000000000000 Y
b00 Z
b000101 [
b001000 \
b0010 ]
b00000000000000000000000000000000 ^
b00000000000000000000000000000101 _
b0010 `
b00000000000000000000000000000101 a
0b
b00000000000000000000000000000101 c
b00000000000000000000000000000101 d
0e
b00000000000000000000000000000101 f
b00000000000000000000000000000000 g
b00000000000000000000000000000000 h
b00000000000000000000000000000101 i
0j
b00000000000000000000000000000101 k
0l
b0000000000000101 m
b0000000000000000 n
0o
b0000000000000000 p
b0000000000000101 q
0r
b0000000000000101 s
0t
b0000000000000000 u
b0000000000000101 v
b00000000000000000 w
b0000000000000000 x
b0000000000000000 y
0z
b0000000000000000 {
0|
b0000000000000000 }
b0000000000000000 !"
b00000000000000000 ""
b00000000000000000000000000000000 #"
b00101 $"
b10 %"
b00000000000000000000000000000000 &"
b00000000000000000000000000000000 '"
b00000000000000000000000000000000 ("
b00000000000000000000000000000000 )"
b00000000000000000000000000000000 *"
b00000000000000000000000000000000 +"
0,"
0-"
0."
0/"
b00000000000000000000000000000101 0"
b00000000000000000000000000000000 1"
b00000000000000000000000000000000 2"
b1 3"
b00000000000000000000000000000101 4"
b00000000000000000000000000000000 5"
06"
b00000000000000000000000000000101 7"
#5000000
1!
1#
b00000000000000000000000000000101 )
1?
1R
b00000000000000000000000000000101 Y
1-"
b00000000000000000000000000000101 1"
#10000000
0!
0#
0?
0R
0-"
#15000000
1!
1#
1?
1R
1-"
#20000000
0!
0"
0#
0$
0?
0@
0R
0-"
#25000000
1!
1#
b00000000000000000000000000001000 %
b00000000000000000000000000000100 &
b00100000000010010000000000001100 '
b00000000000000000000000000000000 )
b00000000000000000000000000001100 *
b00000000000000000000000000001100 +
b00000000000000000000000000001100 -
b01001 0
b00000000000000000000000000001100 1
1?
b00000000000000000000000000001000 A
b00000000000000000000000000000100 B
b00000000000000000000000000000100 C
b00000000000000000000000000000100 D
b00100000000010010000000000001100 E
b001100 G
b01 I
1K
1R
b01001 U
b01001 V
b00000000000000000000000000001100 W
b00000000000000000000000000000000 Y
b001100 [
b00000000000000000000000000001100 _
b00000000000000000000000000001100 a
b00000000000000000000000000001100 c
b00000000000000000000000000001100 d
b00000000000000000000000000001100 f
b00000000000000000000000000001100 i
b00000000000000000000000000001100 k
b0000000000001100 m
b0000000000001100 q
b0000000000001100 s
b0000000000001100 v
b01100 $"
1-"
b00000000000000000000000000001100 0"
b00000000000000000000000000000000 1"
b11 3"
b00000000000000000000000000001100 4"
b00000000000000000000000000001100 7"
#30000000
0!
0#
0?
0R
0-"
#35000000
1!
1#
b00000000000000000000000000001100 %
b00000000000000000000000000001000 &
b00100000000010100000000000010100 '
b00000000000000000000000000000000 )
b00000000000000000000000000010100 *
b00000000000000000000000000010100 +
b00000000000000000000000000010100 -
b01010 0
b00000000000000000000000000010100 1
1?
b00000000000000000000000000001100 A
b00000000000000000000000000001000 B
b00000000000000000000000000001000 C
b00000000000000000000000000001000 D
b00100000000010100000000000010100 E
b010100 G
b01 I
1K
1R
b01010 U
b01010 V
b00000000000000000000000000010100 W
b00000000000000000000000000000000 Y
b010100 [
b00000000000000000000000000010100 _
b00000000000000000000000000010100 a
b00000000000000000000000000010100 c
b00000000000000000000000000010100 d
b00000000000000000000000000010100 f
b00000000000000000000000000010100 i
b00000000000000000000000000010100 k
b0000000000010100 m
b0000000000010100 q
b0000000000010100 s
b0000000000010100 v
b10100 $"
1-"
b00000000000000000000000000010100 0"
b00000000000000000000000000000000 1"
b101 3"
b00000000000000000000000000010100 4"
b00000000000000000000000000010100 7"
#40000000
0!
0#
0?
0R
0-"
#45000000
1!
1#
b00000000000000000000000000010000 %
b00000000000000000000000000001100 &
b00110001001010110000000000001111 '
b00000000000000000000000000001100 (
b00000000000000000000000000000000 )
b00000000000000000000000000001111 *
b00000000000000000000000000001100 +
b00000000000000000000000000001100 -
b0000 /
b01011 0
b00000000000000000000000000001111 1
b11 8
b00000000000000000000000000001100 =
1?
b00000000000000000000000000010000 A
b00000000000000000000000000001100 B
b00000000000000000000000000001100 C
b00000000000000000000000000001100 D
b00110001001010110000000000001111 E
b001100 F
b001111 G
b01 I
1K
b11 Q
1R
b01001 T
b01011 U
b01011 V
b00000000000000000000000000001100 W
b00000000000000000000000000001100 X
b00000000000000000000000000000000 Y
b11 Z
b001111 [
b001100 \
b0000 ]
b00000000000000000000000000001100 ^
b00000000000000000000000000001111 _
b0000 `
b00000000000000000000000000001100 a
b00000000000000000000000000001111 c
b00000000000000000000000000011011 d
b00000000000000000000000000001100 f
b00000000000001100000000000000000 g
b00000000000000000000000000001100 h
b00000000000000000000000000001111 i
b00000000000000000000000000011011 k
b0000000000011011 m
b0000000000001100 p
b0000000000001111 q
b0000000000011011 s
b0000000000001100 u
b0000000000000011 v
b00000000000011000 w
b00000000000000000000000000001100 #"
b01111 $"
b00 %"
b00000000000001100000000000000000 &"
b00000000000000000000000000011000 '"
b00000000000000000000000001100000 ("
b00000000000000000000011000000000 )"
b00000000000001100000000000000000 *"
b00000000000001100000000000000000 +"
1-"
b00000000000000000000000000001100 0"
b00000000000000000000000000000000 1"
b11 3"
b00000000000000000000000000001100 4"
b00000000000000000000000000001100 7"
#50000000
0!
0#
0?
0R
0-"
#55000000
1!
1#
b00000000000000000000000000010100 %
b00000000000000000000000000010000 &
b00110101011011000000000001010101 '
b00000000000000000000000000000000 )
b00000000000000000000000001010101 *
b00000000000000000000000001011101 +
b00000000000000000000000001011101 -
b0001 /
b01100 0
b00000000000000000000000001010101 1
b00001 :
b00000000000000000000000000000001 <
1?
b00000000000000000000000000010100 A
b00000000000000000000000000010000 B
b00000000000000000000000000010000 C
b00000000000000000000000000010000 D
b00110101011011000000000001010101 E
b001101 F
b010101 G
b01 I
1K
b11 Q
1R
b01011 T
b01100 U
b01100 V
b00000000000000000000000001011101 W
b00000000000000000000000000000000 Y
b010101 [
b001101 \
b0001 ]
b00000000000000000000000001010101 _
b0001 `
b00000000000000000000000001011101 a
b00000000000000000000000001010101 c
b00000000000000000000000001100001 d
b00000000000000000000000001011101 f
b00000000000000000000000000000000 g
b00000000000000000000000001010101 i
b00000000000000000000000001100001 k
b0000000001100001 m
b0000000001010101 q
b0000000001100001 s
b0000000000000100 u
b0000000001011001 v
b00000000000111000 w
b10101 $"
b01 %"
b00000000000000000000000000000000 &"
b00000000000000000000000000000110 '"
b00000000000000000000000000000110 ("
b00000000000000000000000000000000 )"
b00000000000000000000000000000000 *"
b00000000000000000000000000000000 +"
1-"
b00000000000000000000000001011101 0"
b00000000000000000000000000000000 1"
b10111 3"
b00000000000000000000000001011101 4"
b00000000000000000000000001011101 7"
#60000000
0!
0#
0?
0R
0-"
#65000000
1!
1#
b00000000000000000000000000011000 %
b00000000000000000000000000010100 &
b10001101000011010000000000000100 '
b00000000000000000000000000000101 (
b00000000000000000000000000000000 )
b00000000000000000000000000000100 *
b00000000000000000000000000001001 +
b00000000000000000000000000000000 -
0.
b0010 /
b01101 0
b00000000000000000000000000000100 1
13
15
b00 8
b00000 :
b00000000000000000000000000000000 <
b00000000000000000000000000000101 =
1?
b00000000000000000000000000011000 A
b00000000000000000000000000010100 B
b00000000000000000000000000010100 C
b00000000000000000000000000010100 D
b10001101000011010000000000000100 E
b100011 F
b000100 G
b01 I
1J
1K
1L
b00 Q
1R
b01000 T
b01101 U
b01101 V
b00000000000000000000000000000000 W
b00000000000000000000000000000101 X
b00000000000000000000000000000000 Y
b00 Z
b000100 [
b100011 \
b0010 ]
b00000000000000000000000000000101 ^
b00000000000000000000000000000100 _
b0010 `
b00000000000000000000000000001001 a
0b
b00000000000000000000000000000100 c
b00000000000000000000000000001001 d
b00000000000000000000000000001001 f
b00000000000000000000000000000101 h
b00000000000000000000000000000100 i
b00000000000000000000000000001001 k
b0000000000001001 m
b0000000000000101 p
b0000000000000100 q
b0000000000001001 s
b0000000000000100 u
b0000000000000001 v
b00000000000001000 w
b00000000000000000000000000000101 #"
b00100 $"
b10 %"
b00000000000000000000000000000101 '"
b00000000000000000000000000000101 ("
1-"
1."
b00000000000000000000000000001001 0"
b00000000000000000000000000000000 1"
b10 3"
b00000000000000000000000000001001 4"
16"
b00000000000000000000000000000000 7"
#70000000
0!
0#
0?
0R
0-"
#75000000
1!
1#
b00000000000000000000000000011100 %
b00000000000000000000000000011000 &
b10101101001011010000000000001000 '
b00000000000000000000000000001100 (
b00000000000000000000000000001000 *
b00000000000000000000000000010100 +
b00000000000000000000000000010100 -
0.
b00000000000000000000000000001000 1
03
04
05
16
b00000000000000000000000000001100 =
1?
b00000000000000000000000000011100 A
b00000000000000000000000000011000 B
b00000000000000000000000000011000 C
b00000000000000000000000000011000 D
b10101101001011010000000000001000 E
b101011 F
b001000 G
b01 I
0J
0K
0L
1M
1R
0S
b01001 T
b00000000000000000000000000010100 W
b00000000000000000000000000001100 X
b001000 [
b101011 \
b00000000000000000000000000001100 ^
b00000000000000000000000000001000 _
b00000000000000000000000000010100 a
0b
b00000000000000000000000000001000 c
b00000000000000000000000000010100 d
b00000000000000000000000000010100 f
b00000000000000000000000000001100 h
b00000000000000000000000000001000 i
b00000000000000000000000000010100 k
b0000000000010100 m
b0000000000001100 p
b0000000000001000 q
b0000000000010100 s
b0000000000001000 u
b0000000000000100 v
b00000000000010000 w
b00000000000000000000000000001100 #"
b01000 $"
b00000000000000000000000000001100 '"
b00000000000000000000000000001100 ("
b00000000000000000000000000001100 )"
1-"
0."
1/"
b00000000000000000000000000010100 0"
b101 3"
b00000000000000000000000000010100 4"
06"
b00000000000000000000000000010100 7"
#80000000
0!
0#
0?
0R
0-"
#85000000
1!
1#
b00000000000000000000000000100000 %
b00000000000000000000000000011100 &
b00000000000000000000000000000000 '
b00000000000000000000000000000000 (
b00000000000000000000000000000000 *
b00000000000000000000000000000000 +
b00000000000000000000000000000000 -
1.
b1000 /
b00000 0
b00000000000000000000000000000000 1
12
14
06
b10 8
b10 9
b00000000000000000000000000000000 =
1>
1?
b00000000000000000000000000100000 A
b00000000000000000000000000011100 B
b00000000000000000000000000011100 C
b00000000000000000000000000011100 D
b00000000000000000000000000000000 E
b000000 F
b000000 G
1H
b10 I
1K
0M
1P
b10 Q
1R
1S
b00000 T
b00000 U
b00000 V
b00000000000000000000000000000000 W
b00000000000000000000000000000000 X
b10 Z
b000000 [
b000000 \
b1000 ]
b00000000000000000000000000000000 ^
b00000000000000000000000000000000 _
b1000 `
b00000000000000000000000000000000 a
1b
b00000000000000000000000000000000 c
b00000000000000000000000000000000 d
b00000000000000000000000000000000 f
b00000000000000000000000000000000 g
b00000000000000000000000000000000 h
b00000000000000000000000000000000 i
b00000000000000000000000000000000 k
b0000000000000000 m
b0000000000000000 p
b0000000000000000 q
b0000000000000000 s
b0000000000000000 u
b0000000000000000 v
b00000000000000000 w
b00000000000000000000000000000000 #"
b00000 $"
b00 %"
b00000000000000000000000000000000 &"
b00000000000000000000000000000000 '"
b00000000000000000000000000000000 ("
b00000000000000000000000000000000 )"
b00000000000000000000000000000000 *"
b00000000000000000000000000000000 +"
1-"
0/"
b00000000000000000000000000000000 0"
b0 3"
b00000000000000000000000000000000 4"
b00000000000000000000000000000000 7"
#90000000
0!
0#
0?
0R
0-"
#95000000
1!
1#
b00000000000000000000000000100100 %
b00000000000000000000000000100000 &
1?
b00000000000000000000000000100100 A
b00000000000000000000000000100000 B
b00000000000000000000000000100000 C
b00000000000000000000000000100000 D
1R
1-"
#100000000
0!
0#
0?
0R
0-"
#105000000
1!
1#
b00000000000000000000000000101000 %
b00000000000000000000000000100100 &
1?
b00000000000000000000000000101000 A
b00000000000000000000000000100100 B
b00000000000000000000000000100100 C
b00000000000000000000000000100100 D
1R
1-"
#110000000
0!
0#
0?
0R
0-"
#115000000
1!
1#
b00000000000000000000000000101100 %
b00000000000000000000000000101000 &
1?
b00000000000000000000000000101100 A
b00000000000000000000000000101000 B
b00000000000000000000000000101000 C
b00000000000000000000000000101000 D
1R
1-"
#120000000
0!
0#
0?
0R
0-"
#125000000
1!
1#
b00000000000000000000000000110000 %
b00000000000000000000000000101100 &
1?
b00000000000000000000000000110000 A
b00000000000000000000000000101100 B
b00000000000000000000000000101100 C
b00000000000000000000000000101100 D
1R
1-"
#130000000
0!
0#
0?
0R
0-"
#135000000
1!
1#
b00000000000000000000000000110100 %
b00000000000000000000000000110000 &
1?
b00000000000000000000000000110100 A
b00000000000000000000000000110000 B
b00000000000000000000000000110000 C
b00000000000000000000000000110000 D
1R
1-"
#140000000
0!
0#
0?
0R
0-"
#145000000
1!
1#
b00000000000000000000000000111000 %
b00000000000000000000000000110100 &
1?
b00000000000000000000000000111000 A
b00000000000000000000000000110100 B
b00000000000000000000000000110100 C
b00000000000000000000000000110100 D
1R
1-"
#150000000
0!
0#
0?
0R
0-"
#155000000
1!
1#
b00000000000000000000000000111100 %
b00000000000000000000000000111000 &
1?
b00000000000000000000000000111100 A
b00000000000000000000000000111000 B
b00000000000000000000000000111000 C
b00000000000000000000000000111000 D
1R
1-"
#160000000
0!
0#
0?
0R
0-"
#165000000
1!
1#
b00000000000000000000000001000000 %
b00000000000000000000000000111100 &
1?
b00000000000000000000000001000000 A
b00000000000000000000000000111100 B
b00000000000000000000000000111100 C
b00000000000000000000000000111100 D
1R
1-"
#170000000
0!
0#
0?
0R
0-"
#175000000
1!
1#
b00000000000000000000000001000100 %
b00000000000000000000000001000000 &
1?
b00000000000000000000000001000100 A
b00000000000000000000000001000000 B
b00000000000000000000000001000000 C
b00000000000000000000000001000000 D
1R
1-"
#180000000
0!
0#
0?
0R
0-"
#185000000
1!
1#
b00000000000000000000000001001000 %
b00000000000000000000000001000100 &
1?
b00000000000000000000000001001000 A
b00000000000000000000000001000100 B
b00000000000000000000000001000100 C
b00000000000000000000000001000100 D
1R
1-"
#190000000
0!
0#
0?
0R
0-"
#195000000
1!
1#
b00000000000000000000000001001100 %
b00000000000000000000000001001000 &
1?
b00000000000000000000000001001100 A
b00000000000000000000000001001000 B
b00000000000000000000000001001000 C
b00000000000000000000000001001000 D
1R
1-"
#200000000
0!
0#
0?
0R
0-"
#205000000
1!
1#
b00000000000000000000000001010000 %
b00000000000000000000000001001100 &
1?
b00000000000000000000000001010000 A
b00000000000000000000000001001100 B
b00000000000000000000000001001100 C
b00000000000000000000000001001100 D
1R
1-"
#210000000
0!
0#
0?
0R
0-"
#215000000
1!
1#
b00000000000000000000000001010100 %
b00000000000000000000000001010000 &
1?
b00000000000000000000000001010100 A
b00000000000000000000000001010000 B
b00000000000000000000000001010000 C
b00000000000000000000000001010000 D
1R
1-"
#220000000
0!
0#
0?
0R
0-"
#225000000
1!
1#
b00000000000000000000000001011000 %
b00000000000000000000000001010100 &
1?
b00000000000000000000000001011000 A
b00000000000000000000000001010100 B
b00000000000000000000000001010100 C
b00000000000000000000000001010100 D
1R
1-"
#230000000
0!
0#
0?
0R
0-"
#235000000
1!
1#
b00000000000000000000000001011100 %
b00000000000000000000000001011000 &
1?
b00000000000000000000000001011100 A
b00000000000000000000000001011000 B
b00000000000000000000000001011000 C
b00000000000000000000000001011000 D
1R
1-"
#240000000
0!
0#
0?
0R
0-"
#245000000
1!
1#
b00000000000000000000000001100000 %
b00000000000000000000000001011100 &
1?
b00000000000000000000000001100000 A
b00000000000000000000000001011100 B
b00000000000000000000000001011100 C
b00000000000000000000000001011100 D
1R
1-"
#250000000
0!
0#
0?
0R
0-"
#255000000
1!
1#
b00000000000000000000000001100100 %
b00000000000000000000000001100000 &
1?
b00000000000000000000000001100100 A
b00000000000000000000000001100000 B
b00000000000000000000000001100000 C
b00000000000000000000000001100000 D
1R
1-"
#260000000
0!
0#
0?
0R
0-"
#265000000
1!
1#
b00000000000000000000000001101000 %
b00000000000000000000000001100100 &
1?
b00000000000000000000000001101000 A
b00000000000000000000000001100100 B
b00000000000000000000000001100100 C
b00000000000000000000000001100100 D
1R
1-"
#270000000
0!
0#
0?
0R
0-"
#275000000
1!
1#
b00000000000000000000000001101100 %
b00000000000000000000000001101000 &
1?
b00000000000000000000000001101100 A
b00000000000000000000000001101000 B
b00000000000000000000000001101000 C
b00000000000000000000000001101000 D
1R
1-"
#280000000
0!
0#
0?
0R
0-"
#285000000
1!
1#
b00000000000000000000000001110000 %
b00000000000000000000000001101100 &
1?
b00000000000000000000000001110000 A
b00000000000000000000000001101100 B
b00000000000000000000000001101100 C
b00000000000000000000000001101100 D
1R
1-"
#290000000
0!
0#
0?
0R
0-"
#295000000
1!
1#
b00000000000000000000000001110100 %
b00000000000000000000000001110000 &
1?
b00000000000000000000000001110100 A
b00000000000000000000000001110000 B
b00000000000000000000000001110000 C
b00000000000000000000000001110000 D
1R
1-"
#300000000
0!
0#
0?
0R
0-"
#305000000
1!
1#
b00000000000000000000000001111000 %
b00000000000000000000000001110100 &
1?
b00000000000000000000000001111000 A
b00000000000000000000000001110100 B
b00000000000000000000000001110100 C
b00000000000000000000000001110100 D
1R
1-"
#310000000
0!
0#
0?
0R
0-"
#315000000
1!
1#
b00000000000000000000000001111100 %
b00000000000000000000000001111000 &
1?
b00000000000000000000000001111100 A
b00000000000000000000000001111000 B
b00000000000000000000000001111000 C
b00000000000000000000000001111000 D
1R
1-"
#320000000
0!
0#
0?
0R
0-"
#325000000
1!
1#
b00000000000000000000000010000000 %
b00000000000000000000000001111100 &
1?
b00000000000000000000000010000000 A
b00000000000000000000000001111100 B
b00000000000000000000000001111100 C
b00000000000000000000000001111100 D
1R
1-"
#330000000
0!
0#
0?
0R
0-"
#335000000
1!
1#
b00000000000000000000000010000100 %
b00000000000000000000000010000000 &
1?
b00000000000000000000000010000100 A
b00000000000000000000000010000000 B
b00000000000000000000000010000000 C
b00000000000000000000000010000000 D
1R
1-"
#340000000
0!
0#
0?
0R
0-"
#345000000
1!
1#
b00000000000000000000000010001000 %
b00000000000000000000000010000100 &
1?
b00000000000000000000000010001000 A
b00000000000000000000000010000100 B
b00000000000000000000000010000100 C
b00000000000000000000000010000100 D
1R
1-"
#350000000
0!
0#
0?
0R
0-"
#355000000
1!
1#
b00000000000000000000000010001100 %
b00000000000000000000000010001000 &
1?
b00000000000000000000000010001100 A
b00000000000000000000000010001000 B
b00000000000000000000000010001000 C
b00000000000000000000000010001000 D
1R
1-"
#360000000
0!
0#
0?
0R
0-"
#365000000
1!
1#
b00000000000000000000000010010000 %
b00000000000000000000000010001100 &
1?
b00000000000000000000000010010000 A
b00000000000000000000000010001100 B
b00000000000000000000000010001100 C
b00000000000000000000000010001100 D
1R
1-"
#370000000
0!
0#
0?
0R
0-"
#375000000
1!
1#
b00000000000000000000000010010100 %
b00000000000000000000000010010000 &
1?
b00000000000000000000000010010100 A
b00000000000000000000000010010000 B
b00000000000000000000000010010000 C
b00000000000000000000000010010000 D
1R
1-"
#380000000
0!
0#
0?
0R
0-"
#385000000
1!
1#
b00000000000000000000000010011000 %
b00000000000000000000000010010100 &
1?
b00000000000000000000000010011000 A
b00000000000000000000000010010100 B
b00000000000000000000000010010100 C
b00000000000000000000000010010100 D
1R
1-"
#390000000
0!
0#
0?
0R
0-"
#395000000
1!
1#
b00000000000000000000000010011100 %
b00000000000000000000000010011000 &
1?
b00000000000000000000000010011100 A
b00000000000000000000000010011000 B
b00000000000000000000000010011000 C
b00000000000000000000000010011000 D
1R
1-"
#400000000
0!
0#
0?
0R
0-"
#405000000
1!
1#
b00000000000000000000000010100000 %
b00000000000000000000000010011100 &
1?
b00000000000000000000000010100000 A
b00000000000000000000000010011100 B
b00000000000000000000000010011100 C
b00000000000000000000000010011100 D
1R
1-"
#410000000
0!
0#
0?
0R
0-"
#415000000
1!
1#
b00000000000000000000000010100100 %
b00000000000000000000000010100000 &
1?
b00000000000000000000000010100100 A
b00000000000000000000000010100000 B
b00000000000000000000000010100000 C
b00000000000000000000000010100000 D
1R
1-"
#420000000
0!
0#
0?
0R
0-"
#425000000
1!
1#
b00000000000000000000000010101000 %
b00000000000000000000000010100100 &
1?
b00000000000000000000000010101000 A
b00000000000000000000000010100100 B
b00000000000000000000000010100100 C
b00000000000000000000000010100100 D
1R
1-"
#430000000
0!
0#
0?
0R
0-"
#435000000
1!
1#
b00000000000000000000000010101100 %
b00000000000000000000000010101000 &
1?
b00000000000000000000000010101100 A
b00000000000000000000000010101000 B
b00000000000000000000000010101000 C
b00000000000000000000000010101000 D
1R
1-"
#440000000
0!
0#
0?
0R
0-"
#445000000
1!
1#
b00000000000000000000000010110000 %
b00000000000000000000000010101100 &
1?
b00000000000000000000000010110000 A
b00000000000000000000000010101100 B
b00000000000000000000000010101100 C
b00000000000000000000000010101100 D
1R
1-"
#450000000
0!
0#
0?
0R
0-"
#455000000
1!
1#
b00000000000000000000000010110100 %
b00000000000000000000000010110000 &
1?
b00000000000000000000000010110100 A
b00000000000000000000000010110000 B
b00000000000000000000000010110000 C
b00000000000000000000000010110000 D
1R
1-"
#460000000
0!
0#
0?
0R
0-"
#465000000
1!
1#
b00000000000000000000000010111000 %
b00000000000000000000000010110100 &
1?
b00000000000000000000000010111000 A
b00000000000000000000000010110100 B
b00000000000000000000000010110100 C
b00000000000000000000000010110100 D
1R
1-"
