Run/singlecpu.vcd
$date
  Sun Jan 11 08:09:51 2026
$end
$version
  GHDL v0
$end
$timescale
  1 fs
$end
$scope module standard $end
$upscope $end
$scope module std_logic_1164 $end
$upscope $end
$scope module numeric_std $end
$upscope $end
$scope module singlecyclecpu_tb $end
$var reg 1 ! clk $end
$var reg 1 " reset $end
$scope module cpu_inst $end
$var reg 1 # clk $end
$var reg 1 $ reset $end
$var reg 32 % pc_in[31:0] $end
$var reg 32 & pc_out[31:0] $end
$var reg 32 ' instruction[31:0] $end
$var reg 32 ( readdata1[31:0] $end
$var reg 32 ) readdata2[31:0] $end
$var reg 32 * signimm[31:0] $end
$var reg 32 + aluresult[31:0] $end
$var reg 32 , memreaddata[31:0] $end
$var reg 32 - writedatareg[31:0] $end
$var reg 1 . zero $end
$var reg 4 / alucontrolsig[3:0] $end
$var reg 5 0 writeregaddr[4:0] $end
$var reg 32 1 alu_b[31:0] $end
$var reg 1 2 regwrite $end
$var reg 1 3 memread $end
$var reg 1 4 memwrite $end
$var reg 1 5 branch $end
$var reg 1 6 jump $end
$var reg 2 7 aluop[1:0] $end
$var reg 2 8 alusrc[1:0] $end
$var reg 2 9 regdst[1:0] $end
$var reg 2 : memtoreg[1:0] $end
$var reg 2 ; branchtype[1:0] $end
$var reg 32 < branchtarget[31:0] $end
$var reg 1 = pcsrc $end
$var reg 32 > pc_plus_4[31:0] $end
$var reg 32 ? jumpaddress[31:0] $end
$var reg 32 @ pc_branch_decision[31:0] $end
$var reg 5 A shamt_value[4:0] $end
$var reg 5 B check[4:0] $end
$var reg 32 C shamt_ext_32[31:0] $end
$var reg 32 D alu_a_input[31:0] $end
$var reg 1 E alusrca_ctrl $end
$scope module pc_inst $end
$var reg 1 F clk $end
$var reg 1 G reset $end
$var reg 32 H pc_in[31:0] $end
$var reg 32 I pc_out[31:0] $end
$var reg 32 J pc_reg[31:0] $end
$upscope $end
$scope module im_inst $end
$var reg 32 K address[31:0] $end
$var reg 32 L instruction[31:0] $end
$upscope $end
$scope module cu_inst $end
$var reg 6 M opcode[5:0] $end
$var reg 6 N funct_in[5:0] $end
$var reg 2 O regdst[1:0] $end
$var reg 2 P memtoreg[1:0] $end
$var reg 2 Q alusrc_ctrl[1:0] $end
$var reg 1 R regwrite $end
$var reg 1 S memread $end
$var reg 1 T memwrite $end
$var reg 1 U branch $end
$var reg 2 V branchtype[1:0] $end
$var reg 1 W jump $end
$var reg 1 X alusrca $end
$var reg 2 Y aluop[1:0] $end
$upscope $end
$scope module rf_inst $end
$var reg 1 Z clk $end
$var reg 1 [ regwrite $end
$var reg 5 \ readreg1[4:0] $end
$var reg 5 ] readreg2[4:0] $end
$var reg 5 ^ writereg[4:0] $end
$var reg 32 _ writedata[31:0] $end
$var reg 32 ` readdata1[31:0] $end
$var reg 32 a readdata2[31:0] $end
$comment regs is not handled $end
$upscope $end
$scope module aluc_inst $end
$var reg 2 b aluop[1:0] $end
$var reg 6 c funct[5:0] $end
$var reg 6 d opcode[5:0] $end
$var reg 4 e alucontrol[3:0] $end
$upscope $end
$scope module alu_inst $end
$var reg 32 f a[31:0] $end
$var reg 32 g b[31:0] $end
$var reg 4 h alucontrol[3:0] $end
$var reg 32 i result[31:0] $end
$var reg 1 j zero $end
$var reg 32 k b_invert[31:0] $end
$var reg 32 l adder_result[31:0] $end
$var reg 1 m cin_sig $end
$var reg 32 n result_i[31:0] $end
$var reg 32 o shiftout[31:0] $end
$scope module adder32 $end
$var reg 32 p a[31:0] $end
$var reg 32 q b[31:0] $end
$var reg 1 r cin $end
$var reg 32 s sum[31:0] $end
$var reg 1 t cout $end
$var reg 16 u sum_lo[15:0] $end
$var reg 16 v sum_hi[15:0] $end
$var reg 1 w cmid $end
$scope module bk_low $end
$var reg 16 x a[15:0] $end
$var reg 16 y b[15:0] $end
$var reg 1 z cin $end
$var reg 16 { sum[15:0] $end
$var reg 1 | cout $end
$var reg 16 } g[15:0] $end
$var reg 16 !" p[15:0] $end
$var reg 17 "" c[16:0] $end
$scope module gen_gp(0) $end
$upscope $end
$scope module gen_gp(1) $end
$upscope $end
$scope module gen_gp(2) $end
$upscope $end
$scope module gen_gp(3) $end
$upscope $end
$scope module gen_gp(4) $end
$upscope $end
$scope module gen_gp(5) $end
$upscope $end
$scope module gen_gp(6) $end
$upscope $end
$scope module gen_gp(7) $end
$upscope $end
$scope module gen_gp(8) $end
$upscope $end
$scope module gen_gp(9) $end
$upscope $end
$scope module gen_gp(10) $end
$upscope $end
$scope module gen_gp(11) $end
$upscope $end
$scope module gen_gp(12) $end
$upscope $end
$scope module gen_gp(13) $end
$upscope $end
$scope module gen_gp(14) $end
$upscope $end
$scope module gen_gp(15) $end
$upscope $end
$scope module gen_sum(0) $end
$upscope $end
$scope module gen_sum(1) $end
$upscope $end
$scope module gen_sum(2) $end
$upscope $end
$scope module gen_sum(3) $end
$upscope $end
$scope module gen_sum(4) $end
$upscope $end
$scope module gen_sum(5) $end
$upscope $end
$scope module gen_sum(6) $end
$upscope $end
$scope module gen_sum(7) $end
$upscope $end
$scope module gen_sum(8) $end
$upscope $end
$scope module gen_sum(9) $end
$upscope $end
$scope module gen_sum(10) $end
$upscope $end
$scope module gen_sum(11) $end
$upscope $end
$scope module gen_sum(12) $end
$upscope $end
$scope module gen_sum(13) $end
$upscope $end
$scope module gen_sum(14) $end
$upscope $end
$scope module gen_sum(15) $end
$upscope $end
$upscope $end
$scope module bk_high $end
$var reg 16 #" a[15:0] $end
$var reg 16 $" b[15:0] $end
$var reg 1 %" cin $end
$var reg 16 &" sum[15:0] $end
$var reg 1 '" cout $end
$var reg 16 (" g[15:0] $end
$var reg 16 )" p[15:0] $end
$var reg 17 *" c[16:0] $end
$scope module gen_gp(0) $end
$upscope $end
$scope module gen_gp(1) $end
$upscope $end
$scope module gen_gp(2) $end
$upscope $end
$scope module gen_gp(3) $end
$upscope $end
$scope module gen_gp(4) $end
$upscope $end
$scope module gen_gp(5) $end
$upscope $end
$scope module gen_gp(6) $end
$upscope $end
$scope module gen_gp(7) $end
$upscope $end
$scope module gen_gp(8) $end
$upscope $end
$scope module gen_gp(9) $end
$upscope $end
$scope module gen_gp(10) $end
$upscope $end
$scope module gen_gp(11) $end
$upscope $end
$scope module gen_gp(12) $end
$upscope $end
$scope module gen_gp(13) $end
$upscope $end
$scope module gen_gp(14) $end
$upscope $end
$scope module gen_gp(15) $end
$upscope $end
$scope module gen_sum(0) $end
$upscope $end
$scope module gen_sum(1) $end
$upscope $end
$scope module gen_sum(2) $end
$upscope $end
$scope module gen_sum(3) $end
$upscope $end
$scope module gen_sum(4) $end
$upscope $end
$scope module gen_sum(5) $end
$upscope $end
$scope module gen_sum(6) $end
$upscope $end
$scope module gen_sum(7) $end
$upscope $end
$scope module gen_sum(8) $end
$upscope $end
$scope module gen_sum(9) $end
$upscope $end
$scope module gen_sum(10) $end
$upscope $end
$scope module gen_sum(11) $end
$upscope $end
$scope module gen_sum(12) $end
$upscope $end
$scope module gen_sum(13) $end
$upscope $end
$scope module gen_sum(14) $end
$upscope $end
$scope module gen_sum(15) $end
$upscope $end
$upscope $end
$upscope $end
$scope module u_shifter $end
$var reg 32 +" datain[31:0] $end
$var reg 5 ," shamt[4:0] $end
$var reg 2 -" mode[1:0] $end
$var reg 32 ." dataout[31:0] $end
$var reg 32 /" stage0[31:0] $end
$var reg 32 0" stage1[31:0] $end
$var reg 32 1" stage2[31:0] $end
$var reg 32 2" stage3[31:0] $end
$var reg 32 3" stage4[31:0] $end
$var reg 1 4" fillbit $end
$upscope $end
$upscope $end
$scope module dm_inst $end
$var reg 1 5" clk $end
$var reg 1 6" memread $end
$var reg 1 7" memwrite $end
$var reg 32 8" address[31:0] $end
$var reg 32 9" writedata[31:0] $end
$var reg 32 :" readdata[31:0] $end
$comment ram is not handled $end
$var integer 32 ;" addr_index $end
$upscope $end
$scope module wb_mux $end
$var reg 32 <" aluresult[31:0] $end
$var reg 32 =" readdata[31:0] $end
$var reg 32 >" pc_plus_4[31:0] $end
$var reg 2 ?" memtoreg[1:0] $end
$var reg 32 @" writedata[31:0] $end
$upscope $end
$upscope $end
$upscope $end
$enddefinitions $end
#0
0!
1"
0#
1$
b00000000000000000000000000000100 %
b00000000000000000000000000000000 &
b00100000000010000000000000001010 '
b00000000000000000000000000000000 (
b00000000000000000000000000000000 )
b00000000000000000000000000001010 *
b00000000000000000000000000001010 +
b00000000000000000000000000000000 ,
b00000000000000000000000000001010 -
0.
b0010 /
b01000 0
b00000000000000000000000000001010 1
12
03
04
05
06
b00 7
b01 8
b00 9
b00 :
b00 ;
b00000000000000000000000000101100 <
0=
b00000000000000000000000000000100 >
b00000000001000000000000000101000 ?
b00000000000000000000000000000100 @
b00000 A
bUUUUU B
b00000000000000000000000000000000 C
b00000000000000000000000000000000 D
0E
0F
1G
b00000000000000000000000000000100 H
b00000000000000000000000000000000 I
b00000000000000000000000000000000 J
b00000000000000000000000000000000 K
b00100000000010000000000000001010 L
b001000 M
b001010 N
b00 O
b00 P
b01 Q
1R
0S
0T
0U
b00 V
0W
0X
b00 Y
0Z
1[
b00000 \
b01000 ]
b01000 ^
b00000000000000000000000000001010 _
b00000000000000000000000000000000 `
b00000000000000000000000000000000 a
b00 b
b001010 c
b001000 d
b0010 e
b00000000000000000000000000000000 f
b00000000000000000000000000001010 g
b0010 h
b00000000000000000000000000001010 i
0j
b00000000000000000000000000001010 k
b00000000000000000000000000001010 l
0m
b00000000000000000000000000001010 n
b00000000000000000000000000000000 o
b00000000000000000000000000000000 p
b00000000000000000000000000001010 q
0r
b00000000000000000000000000001010 s
0t
b0000000000001010 u
b0000000000000000 v
0w
b0000000000000000 x
b0000000000001010 y
0z
b0000000000001010 {
0|
b0000000000000000 }
b0000000000001010 !"
b00000000000000000 ""
b0000000000000000 #"
b0000000000000000 $"
0%"
b0000000000000000 &"
0'"
b0000000000000000 ("
b0000000000000000 )"
b00000000000000000 *"
b00000000000000000000000000000000 +"
b01010 ,"
b10 -"
b00000000000000000000000000000000 ."
b00000000000000000000000000000000 /"
b00000000000000000000000000000000 0"
b00000000000000000000000000000000 1"
b00000000000000000000000000000000 2"
b00000000000000000000000000000000 3"
04"
05"
06"
07"
b00000000000000000000000000001010 8"
b00000000000000000000000000000000 9"
b00000000000000000000000000000000 :"
b10 ;"
b00000000000000000000000000001010 <"
b00000000000000000000000000000000 ="
b00000000000000000000000000000100 >"
b00 ?"
b00000000000000000000000000001010 @"
#5000000
1!
1#
b00000000000000000000000000001010 )
1F
1Z
b00000000000000000000000000001010 a
15"
b00000000000000000000000000001010 9"
#10000000
0!
0#
0F
0Z
05"
#15000000
1!
1#
1F
1Z
15"
#20000000
0!
0"
0#
0$
0F
0G
0Z
05"
#25000000
1!
1#
b00000000000000000000000000010000 %
b00000000000000000000000000000100 &
b00001000000000000000000000000100 '
b00000000000000000000000000000000 )
b00000000000000000000000000000100 *
b00000000000000000000000000000000 +
b00000000000000000000000000000000 -
1.
b00000 0
b00000000000000000000000000000000 1
02
16
b00 8
b00000000000000000000000000011000 <
b00000000000000000000000000001000 >
b00000000000000000000000000010000 ?
b00000000000000000000000000001000 @
1F
b00000000000000000000000000010000 H
b00000000000000000000000000000100 I
b00000000000000000000000000000100 J
b00000000000000000000000000000100 K
b00001000000000000000000000000100 L
b000010 M
b000100 N
b00 Q
0R
1W
1Z
0[
b00000 ]
b00000 ^
b00000000000000000000000000000000 _
b00000000000000000000000000000000 a
b000100 c
b000010 d
b00000000000000000000000000000000 g
b00000000000000000000000000000000 i
1j
b00000000000000000000000000000000 k
b00000000000000000000000000000000 l
b00000000000000000000000000000000 n
b00000000000000000000000000000000 q
b00000000000000000000000000000000 s
b0000000000000000 u
b0000000000000000 y
b0000000000000000 {
b0000000000000000 !"
b00000 ,"
15"
b00000000000000000000000000000000 8"
b00000000000000000000000000000000 9"
b0 ;"
b00000000000000000000000000000000 <"
b00000000000000000000000000001000 >"
b00000000000000000000000000000000 @"
#30000000
0!
0#
0F
0Z
05"
#35000000
1!
1#
b00000000000000000000000000010100 %
b00000000000000000000000000010000 &
b00100000000010010000000000010100 '
b00000000000000000000000000010100 *
b00000000000000000000000000010100 +
b00000000000000000000000000010100 -
0.
b01001 0
b00000000000000000000000000010100 1
12
06
b01 8
b00000000000000000000000001100100 <
b00000000000000000000000000010100 >
b00000000001001000000000001010000 ?
b00000000000000000000000000010100 @
1F
b00000000000000000000000000010100 H
b00000000000000000000000000010000 I
b00000000000000000000000000010000 J
b00000000000000000000000000010000 K
b00100000000010010000000000010100 L
b001000 M
b010100 N
b01 Q
1R
0W
1Z
1[
b01001 ]
b01001 ^
b00000000000000000000000000010100 _
b010100 c
b001000 d
b00000000000000000000000000010100 g
b00000000000000000000000000010100 i
0j
b00000000000000000000000000010100 k
b00000000000000000000000000010100 l
b00000000000000000000000000010100 n
b00000000000000000000000000010100 q
b00000000000000000000000000010100 s
b0000000000010100 u
b0000000000010100 y
b0000000000010100 {
b0000000000010100 !"
b10100 ,"
15"
b00000000000000000000000000010100 8"
b101 ;"
b00000000000000000000000000010100 <"
b00000000000000000000000000010100 >"
b00000000000000000000000000010100 @"
#40000000
0!
0#
0F
0Z
05"
#45000000
1!
1#
b00000000000000000000000000100000 %
b00000000000000000000000000010100 &
b00001100000000000000000000001000 '
b00000000000000000000000000000000 )
b00000000000000000000000000001000 *
b00000000000000000000000000000000 +
b00000000000000000000000000011000 -
1.
b11111 0
b00000000000000000000000000000000 1
16
b00 8
b10 9
b10 :
b00000000000000000000000000111000 <
b00000000000000000000000000011000 >
b00000000000000000000000000100000 ?
b00000000000000000000000000011000 @
1F
b00000000000000000000000000100000 H
b00000000000000000000000000010100 I
b00000000000000000000000000010100 J
b00000000000000000000000000010100 K
b00001100000000000000000000001000 L
b000011 M
b001000 N
b10 O
b10 P
b00 Q
1R
1W
1Z
b00000 ]
b11111 ^
b00000000000000000000000000011000 _
b00000000000000000000000000000000 a
b001000 c
b000011 d
b00000000000000000000000000000000 g
b00000000000000000000000000000000 i
1j
b00000000000000000000000000000000 k
b00000000000000000000000000000000 l
b00000000000000000000000000000000 n
b00000000000000000000000000000000 q
b00000000000000000000000000000000 s
b0000000000000000 u
b0000000000000000 y
b0000000000000000 {
b0000000000000000 !"
b00000 ,"
15"
b00000000000000000000000000000000 8"
b00000000000000000000000000000000 9"
b0 ;"
b00000000000000000000000000000000 <"
b00000000000000000000000000011000 >"
b10 ?"
b00000000000000000000000000011000 @"
#50000000
0!
0#
0F
0Z
05"
#55000000
1!
1#
b00000000000000000000000000100100 %
b00000000000000000000000000100000 &
b00100011111010110000000000000000 '
b00000000000000000000000000011000 (
b00000000000000000000000000000000 *
b00000000000000000000000000011000 +
b00000000000000000000000000011000 -
0.
b01011 0
06
b01 8
b00 9
b00 :
b00000000000000000000000000100100 <
b00000000000000000000000000100100 >
b00001111101011000000000000000000 ?
b00000000000000000000000000100100 @
b00000000000000000000000000011000 D
1F
b00000000000000000000000000100100 H
b00000000000000000000000000100000 I
b00000000000000000000000000100000 J
b00000000000000000000000000100000 K
b00100011111010110000000000000000 L
b001000 M
b000000 N
b00 O
b00 P
b01 Q
1R
0W
1Z
b11111 \
b01011 ]
b01011 ^
b00000000000000000000000000011000 _
b00000000000000000000000000011000 `
b000000 c
b001000 d
b00000000000000000000000000011000 f
b00000000000000000000000000011000 i
0j
b00000000000000000000000000011000 l
b00000000000000000000000000011000 n
b00000000000000000000000000011000 o
b00000000000000000000000000011000 p
b00000000000000000000000000011000 s
b0000000000011000 u
b0000000000011000 x
b0000000000011000 {
b0000000000011000 !"
b00000000000000000000000000011000 +"
b00000000000000000000000000011000 ."
b00000000000000000000000000011000 /"
b00000000000000000000000000011000 0"
b00000000000000000000000000011000 1"
b00000000000000000000000000011000 2"
b00000000000000000000000000011000 3"
15"
b00000000000000000000000000011000 8"
b110 ;"
b00000000000000000000000000011000 <"
b00000000000000000000000000100100 >"
b00 ?"
b00000000000000000000000000011000 @"
#60000000
0!
0#
0F
0Z
05"
#65000000
1!
1#
b00000000000000000000000000100100 &
b00001000000000000000000000001001 '
b00000000000000000000000000000000 (
b00000000000000000000000000000000 )
b00000000000000000000000000001001 *
b00000000000000000000000000000000 +
b00000000000000000000000000000000 -
1.
b00000 0
02
16
b00 8
b00000000000000000000000001001100 <
b00000000000000000000000000101000 >
b00000000000000000000000000100100 ?
b00000000000000000000000000101000 @
b00000000000000000000000000000000 D
1F
b00000000000000000000000000100100 I
b00000000000000000000000000100100 J
b00000000000000000000000000100100 K
b00001000000000000000000000001001 L
b000010 M
b001001 N
b00 Q
0R
1W
1Z
0[
b00000 \
b00000 ]
b00000 ^
b00000000000000000000000000000000 _
b00000000000000000000000000000000 `
b00000000000000000000000000000000 a
b001001 c
b000010 d
b00000000000000000000000000000000 f
b00000000000000000000000000000000 i
1j
b00000000000000000000000000000000 l
b00000000000000000000000000000000 n
b00000000000000000000000000000000 o
b00000000000000000000000000000000 p
b00000000000000000000000000000000 s
b0000000000000000 u
b0000000000000000 x
b0000000000000000 {
b0000000000000000 !"
b00000000000000000000000000000000 +"
b00000000000000000000000000000000 ."
b00000000000000000000000000000000 /"
b00000000000000000000000000000000 0"
b00000000000000000000000000000000 1"
b00000000000000000000000000000000 2"
b00000000000000000000000000000000 3"
15"
b00000000000000000000000000000000 8"
b00000000000000000000000000000000 9"
b0 ;"
b00000000000000000000000000000000 <"
b00000000000000000000000000101000 >"
b00000000000000000000000000000000 @"
