Run/singlecpu.vcd
$date
  Tue Nov 18 17:15:03 2025
$end
$version
  GHDL v0
$end
$timescale
  1 fs
$end
$scope module standard $end
$upscope $end
$scope module std_logic_1164 $end
$upscope $end
$scope module numeric_std $end
$upscope $end
$scope module singlecyclecpu_tb $end
$var reg 1 ! clk $end
$var reg 1 " reset $end
$var reg 1 # dbg_we $end
$var reg 5 $ dbg_wreg[4:0] $end
$var reg 32 % dbg_wdat[31:0] $end
$var reg 5 & dbg_rreg[4:0] $end
$var reg 32 ' dbg_rdat[31:0] $end
$scope module dut $end
$var reg 1 ( clk $end
$var reg 1 ) reset $end
$var reg 1 * dbg_write_enable $end
$var reg 5 + dbg_write_reg[4:0] $end
$var reg 32 , dbg_write_data[31:0] $end
$var reg 5 - dbg_read_reg[4:0] $end
$var reg 32 . dbg_read_data[31:0] $end
$var reg 32 / pc_in[31:0] $end
$var reg 32 0 pc_out[31:0] $end
$var reg 32 1 instruction[31:0] $end
$var reg 32 2 readdata1[31:0] $end
$var reg 32 3 readdata2[31:0] $end
$var reg 32 4 signimm[31:0] $end
$var reg 32 5 aluresult[31:0] $end
$var reg 32 6 memreaddata[31:0] $end
$var reg 32 7 writedatareg[31:0] $end
$var reg 1 8 zero $end
$var reg 4 9 alucontrolsig[3:0] $end
$var reg 5 : writeregaddr[4:0] $end
$var reg 32 ; alu_b[31:0] $end
$var reg 1 < regdst $end
$var reg 1 = alusrc $end
$var reg 1 > memtoreg $end
$var reg 1 ? regwrite $end
$var reg 1 @ memread $end
$var reg 1 A memwrite $end
$var reg 1 B branch $end
$var reg 2 C aluop[1:0] $end
$var reg 5 D rf_writereg[4:0] $end
$var reg 32 E rf_writedata[31:0] $end
$var reg 1 F rf_regwrite $end
$scope module pc_inst $end
$var reg 1 G clk $end
$var reg 1 H reset $end
$var reg 32 I pc_in[31:0] $end
$var reg 32 J pc_out[31:0] $end
$var reg 32 K pc_reg[31:0] $end
$upscope $end
$scope module im_inst $end
$var reg 32 L address[31:0] $end
$var reg 32 M instruction[31:0] $end
$upscope $end
$scope module cu_inst $end
$var reg 6 N opcode[5:0] $end
$var reg 1 O regdst $end
$var reg 1 P alusrc $end
$var reg 1 Q memtoreg $end
$var reg 1 R regwrite $end
$var reg 1 S memread $end
$var reg 1 T memwrite $end
$var reg 1 U branch $end
$var reg 2 V aluop[1:0] $end
$upscope $end
$scope module rf_inst $end
$var reg 1 W clk $end
$var reg 1 X regwrite $end
$var reg 5 Y readreg1[4:0] $end
$var reg 5 Z readreg2[4:0] $end
$var reg 5 [ writereg[4:0] $end
$var reg 32 \ writedata[31:0] $end
$var reg 32 ] readdata1[31:0] $end
$var reg 32 ^ readdata2[31:0] $end
$comment regs is not handled $end
$upscope $end
$scope module aluc_inst $end
$var reg 2 _ aluop[1:0] $end
$var reg 6 ` funct[5:0] $end
$var reg 4 a alucontrol[3:0] $end
$upscope $end
$scope module alu_inst $end
$var reg 32 b a[31:0] $end
$var reg 32 c b[31:0] $end
$var reg 4 d alucontrol[3:0] $end
$var reg 32 e result[31:0] $end
$var reg 1 f zero $end
$var reg 32 g b_invert[31:0] $end
$var reg 32 h adder_result[31:0] $end
$var reg 1 i cin_sig $end
$var reg 32 j result_i[31:0] $end
$scope module adder32 $end
$var reg 32 k a[31:0] $end
$var reg 32 l b[31:0] $end
$var reg 1 m cin $end
$var reg 32 n sum[31:0] $end
$var reg 1 o cout $end
$var reg 16 p sum_lo[15:0] $end
$var reg 16 q sum_hi[15:0] $end
$var reg 1 r cmid $end
$scope module bk_low $end
$var reg 16 s a[15:0] $end
$var reg 16 t b[15:0] $end
$var reg 1 u cin $end
$var reg 16 v sum[15:0] $end
$var reg 1 w cout $end
$var reg 16 x g[15:0] $end
$var reg 16 y p[15:0] $end
$var reg 17 z c[16:0] $end
$scope module gen_gp(0) $end
$upscope $end
$scope module gen_gp(1) $end
$upscope $end
$scope module gen_gp(2) $end
$upscope $end
$scope module gen_gp(3) $end
$upscope $end
$scope module gen_gp(4) $end
$upscope $end
$scope module gen_gp(5) $end
$upscope $end
$scope module gen_gp(6) $end
$upscope $end
$scope module gen_gp(7) $end
$upscope $end
$scope module gen_gp(8) $end
$upscope $end
$scope module gen_gp(9) $end
$upscope $end
$scope module gen_gp(10) $end
$upscope $end
$scope module gen_gp(11) $end
$upscope $end
$scope module gen_gp(12) $end
$upscope $end
$scope module gen_gp(13) $end
$upscope $end
$scope module gen_gp(14) $end
$upscope $end
$scope module gen_gp(15) $end
$upscope $end
$scope module gen_sum(0) $end
$upscope $end
$scope module gen_sum(1) $end
$upscope $end
$scope module gen_sum(2) $end
$upscope $end
$scope module gen_sum(3) $end
$upscope $end
$scope module gen_sum(4) $end
$upscope $end
$scope module gen_sum(5) $end
$upscope $end
$scope module gen_sum(6) $end
$upscope $end
$scope module gen_sum(7) $end
$upscope $end
$scope module gen_sum(8) $end
$upscope $end
$scope module gen_sum(9) $end
$upscope $end
$scope module gen_sum(10) $end
$upscope $end
$scope module gen_sum(11) $end
$upscope $end
$scope module gen_sum(12) $end
$upscope $end
$scope module gen_sum(13) $end
$upscope $end
$scope module gen_sum(14) $end
$upscope $end
$scope module gen_sum(15) $end
$upscope $end
$upscope $end
$scope module bk_high $end
$var reg 16 { a[15:0] $end
$var reg 16 | b[15:0] $end
$var reg 1 } cin $end
$var reg 16 !" sum[15:0] $end
$var reg 1 "" cout $end
$var reg 16 #" g[15:0] $end
$var reg 16 $" p[15:0] $end
$var reg 17 %" c[16:0] $end
$scope module gen_gp(0) $end
$upscope $end
$scope module gen_gp(1) $end
$upscope $end
$scope module gen_gp(2) $end
$upscope $end
$scope module gen_gp(3) $end
$upscope $end
$scope module gen_gp(4) $end
$upscope $end
$scope module gen_gp(5) $end
$upscope $end
$scope module gen_gp(6) $end
$upscope $end
$scope module gen_gp(7) $end
$upscope $end
$scope module gen_gp(8) $end
$upscope $end
$scope module gen_gp(9) $end
$upscope $end
$scope module gen_gp(10) $end
$upscope $end
$scope module gen_gp(11) $end
$upscope $end
$scope module gen_gp(12) $end
$upscope $end
$scope module gen_gp(13) $end
$upscope $end
$scope module gen_gp(14) $end
$upscope $end
$scope module gen_gp(15) $end
$upscope $end
$scope module gen_sum(0) $end
$upscope $end
$scope module gen_sum(1) $end
$upscope $end
$scope module gen_sum(2) $end
$upscope $end
$scope module gen_sum(3) $end
$upscope $end
$scope module gen_sum(4) $end
$upscope $end
$scope module gen_sum(5) $end
$upscope $end
$scope module gen_sum(6) $end
$upscope $end
$scope module gen_sum(7) $end
$upscope $end
$scope module gen_sum(8) $end
$upscope $end
$scope module gen_sum(9) $end
$upscope $end
$scope module gen_sum(10) $end
$upscope $end
$scope module gen_sum(11) $end
$upscope $end
$scope module gen_sum(12) $end
$upscope $end
$scope module gen_sum(13) $end
$upscope $end
$scope module gen_sum(14) $end
$upscope $end
$scope module gen_sum(15) $end
$upscope $end
$upscope $end
$upscope $end
$upscope $end
$scope module dm_inst $end
$var reg 1 &" clk $end
$var reg 1 '" memread $end
$var reg 1 (" memwrite $end
$var reg 32 )" address[31:0] $end
$var reg 32 *" writedata[31:0] $end
$var reg 32 +" readdata[31:0] $end
$comment ram is not handled $end
$var integer 32 ," addr_index $end
$upscope $end
$scope module wb_mux $end
$var reg 32 -" aluresult[31:0] $end
$var reg 32 ." readdata[31:0] $end
$var reg 1 /" memtoreg $end
$var reg 32 0" writedata[31:0] $end
$upscope $end
$upscope $end
$upscope $end
$enddefinitions $end
#0
0!
1"
0#
bUUUUU $
bUUUUUUUUUUUUUUUUUUUUUUUUUUUUUUUU %
bUUUUU &
bUUUUUUUUUUUUUUUUUUUUUUUUUUUUUUUU '
0(
1)
0*
bUUUUU +
bUUUUUUUUUUUUUUUUUUUUUUUUUUUUUUUU ,
bUUUUU -
bUUUUUUUUUUUUUUUUUUUUUUUUUUUUUUUU .
b00000000000000000000000000000100 /
b00000000000000000000000000000000 0
b00000001001010100100000000100000 1
b00000000000000000000000000000000 2
b00000000000000000000000000000000 3
b00000000000000000100000000100000 4
b00000000000000000000000000000000 5
b00000000000000000000000000000000 6
b00000000000000000000000000000000 7
18
b0010 9
b01000 :
b00000000000000000000000000000000 ;
1<
0=
0>
1?
0@
0A
0B
b10 C
b01000 D
b00000000000000000000000000000000 E
1F
0G
1H
b00000000000000000000000000000100 I
b00000000000000000000000000000000 J
b00000000000000000000000000000000 K
b00000000000000000000000000000000 L
b00000001001010100100000000100000 M
b000000 N
1O
0P
0Q
1R
0S
0T
0U
b10 V
0W
1X
b01001 Y
b01010 Z
b01000 [
b00000000000000000000000000000000 \
b00000000000000000000000000000000 ]
b00000000000000000000000000000000 ^
b10 _
b100000 `
b0010 a
b00000000000000000000000000000000 b
b00000000000000000000000000000000 c
b0010 d
b00000000000000000000000000000000 e
1f
b00000000000000000000000000000000 g
b00000000000000000000000000000000 h
0i
b00000000000000000000000000000000 j
b00000000000000000000000000000000 k
b00000000000000000000000000000000 l
0m
b00000000000000000000000000000000 n
0o
b0000000000000000 p
b0000000000000000 q
0r
b0000000000000000 s
b0000000000000000 t
0u
b0000000000000000 v
0w
b0000000000000000 x
b0000000000000000 y
b00000000000000000 z
b0000000000000000 {
b0000000000000000 |
0}
b0000000000000000 !"
0""
b0000000000000000 #"
b0000000000000000 $"
b00000000000000000 %"
0&"
0'"
0("
b00000000000000000000000000000000 )"
b00000000000000000000000000000000 *"
b00000000000000000000000000000000 +"
b0 ,"
b00000000000000000000000000000000 -"
b00000000000000000000000000000000 ."
0/"
b00000000000000000000000000000000 0"
#5000000
1!
1(
1G
1W
1&"
#10000000
0!
0(
0G
0W
0&"
#15000000
1!
1(
1G
1W
1&"
#20000000
0!
0"
1#
b01001 $
b00000000000000000000000000000101 %
0(
0)
1*
b01001 +
b00000000000000000000000000000101 ,
b01001 D
b00000000000000000000000000000101 E
0G
0H
0W
b01001 [
b00000000000000000000000000000101 \
0&"
#25000000
1!
b01010 $
b00000000000000000000000000000011 %
1(
b01010 +
b00000000000000000000000000000011 ,
b00000000000000000000000000001000 /
b00000000000000000000000000000100 0
b00000001001010100100000000100010 1
b00000000000000000000000000000101 2
b00000000000000000100000000100010 4
b00000000000000000000000000000101 5
b00000000000000000000000000000101 7
08
b0110 9
b01010 D
b00000000000000000000000000000011 E
1G
b00000000000000000000000000001000 I
b00000000000000000000000000000100 J
b00000000000000000000000000000100 K
b00000000000000000000000000000100 L
b00000001001010100100000000100010 M
1W
b01010 [
b00000000000000000000000000000011 \
b00000000000000000000000000000101 ]
b100010 `
b0110 a
b00000000000000000000000000000101 b
b0110 d
b00000000000000000000000000000101 e
0f
b11111111111111111111111111111111 g
b00000000000000000000000000000101 h
1i
b00000000000000000000000000000101 j
b00000000000000000000000000000101 k
b11111111111111111111111111111111 l
1m
b00000000000000000000000000000101 n
1o
b0000000000000101 p
b0000000000000000 q
1r
b0000000000000101 s
b1111111111111111 t
1u
b0000000000000101 v
1w
b0000000000000101 x
b1111111111111010 y
b11111111111111111 z
b1111111111111111 |
1}
b0000000000000000 !"
1""
b1111111111111111 $"
b11111111111111111 %"
1&"
b00000000000000000000000000000101 )"
b1 ,"
b00000000000000000000000000000101 -"
b00000000000000000000000000000101 0"
#30000000
0!
0(
0G
0W
0&"
#35000000
1!
0#
1(
0*
b00000000000000000000000000001100 /
b00000000000000000000000000001000 0
b00000001001010100100000000100100 1
b00000000000000000000000000000011 3
b00000000000000000100000000100100 4
b00000000000000000000000000000001 5
b00000000000000000000000000000001 7
b0000 9
b00000000000000000000000000000011 ;
b01000 D
b00000000000000000000000000000001 E
1G
b00000000000000000000000000001100 I
b00000000000000000000000000001000 J
b00000000000000000000000000001000 K
b00000000000000000000000000001000 L
b00000001001010100100000000100100 M
1W
b01000 [
b00000000000000000000000000000001 \
b00000000000000000000000000000011 ^
b100100 `
b0000 a
b00000000000000000000000000000011 c
b0000 d
b00000000000000000000000000000001 e
b00000000000000000000000000000011 g
b00000000000000000000000000001000 h
0i
b00000000000000000000000000000001 j
b00000000000000000000000000000011 l
0m
b00000000000000000000000000001000 n
0o
b0000000000001000 p
b0000000000000000 q
0r
b0000000000000011 t
0u
b0000000000001000 v
0w
b0000000000000001 x
b0000000000000110 y
b00000000000001110 z
b0000000000000000 |
0}
b0000000000000000 !"
0""
b0000000000000000 $"
b00000000000000000 %"
1&"
b00000000000000000000000000000001 )"
b00000000000000000000000000000011 *"
b0 ,"
b00000000000000000000000000000001 -"
b00000000000000000000000000000001 0"
#40000000
0!
0(
0G
0W
0&"
#45000000
1!
b01000 &
1(
b01000 -
b00000000000000000000000000010000 /
b00000000000000000000000000001100 0
b00000001001010100100000000100101 1
b00000000000000000100000000100101 4
b00000000000000000000000000000111 5
b00000000000000000000000000000111 7
b0001 9
b00000000000000000000000000000111 E
1G
b00000000000000000000000000010000 I
b00000000000000000000000000001100 J
b00000000000000000000000000001100 K
b00000000000000000000000000001100 L
b00000001001010100100000000100101 M
1W
b00000000000000000000000000000111 \
b100101 `
b0001 a
b0001 d
b00000000000000000000000000000111 e
b00000000000000000000000000000111 j
1&"
b00000000000000000000000000000111 )"
b1 ,"
b00000000000000000000000000000111 -"
b00000000000000000000000000000111 0"
#46000000
#50000000
0!
0(
0G
0W
0&"
#55000000
1!
1(
b00000000000000000000000000010100 /
b00000000000000000000000000010000 0
b00000001001010100100000000101010 1
b00000000000000000100000000101010 4
b00000000000000000000000000000000 5
b00000000000000000000000000000000 7
18
b0111 9
b00000000000000000000000000000000 E
1G
b00000000000000000000000000010100 I
b00000000000000000000000000010000 J
b00000000000000000000000000010000 K
b00000000000000000000000000010000 L
b00000001001010100100000000101010 M
1W
b00000000000000000000000000000000 \
b101010 `
b0111 a
b0111 d
b00000000000000000000000000000000 e
1f
b11111111111111111111111111111100 g
b00000000000000000000000000000010 h
1i
b00000000000000000000000000000000 j
b11111111111111111111111111111100 l
1m
b00000000000000000000000000000010 n
1o
b0000000000000010 p
b0000000000000000 q
1r
b1111111111111100 t
1u
b0000000000000010 v
1w
b0000000000000100 x
b1111111111111001 y
b11111111111111011 z
b1111111111111111 |
1}
b0000000000000000 !"
1""
b1111111111111111 $"
b11111111111111111 %"
1&"
b00000000000000000000000000000000 )"
b0 ,"
b00000000000000000000000000000000 -"
b00000000000000000000000000000000 0"
#56000000
#57000000
#60000000
0!
0(
0G
0W
0&"
#65000000
1!
1(
b00000000000000000000000000011000 /
b00000000000000000000000000010100 0
b00000000000000000000000000000000 1
b00000000000000000000000000000000 2
b00000000000000000000000000000000 3
b00000000000000000000000000000000 4
b1000 9
b00000 :
b00000000000000000000000000000000 ;
b00000 D
1G
b00000000000000000000000000011000 I
b00000000000000000000000000010100 J
b00000000000000000000000000010100 K
b00000000000000000000000000010100 L
b00000000000000000000000000000000 M
1W
b00000 Y
b00000 Z
b00000 [
b00000000000000000000000000000000 ]
b00000000000000000000000000000000 ^
b000000 `
b1000 a
b00000000000000000000000000000000 b
b00000000000000000000000000000000 c
b1000 d
b00000000000000000000000000000000 g
b00000000000000000000000000000000 h
0i
b00000000000000000000000000000000 k
b00000000000000000000000000000000 l
0m
b00000000000000000000000000000000 n
0o
b0000000000000000 p
b0000000000000000 q
0r
b0000000000000000 s
b0000000000000000 t
0u
b0000000000000000 v
0w
b0000000000000000 x
b0000000000000000 y
b00000000000000000 z
b0000000000000000 |
0}
b0000000000000000 !"
0""
b0000000000000000 $"
b00000000000000000 %"
1&"
b00000000000000000000000000000000 *"
#67000000
#68000000
#70000000
0!
0(
0G
0W
0&"
#75000000
1!
1(
b00000000000000000000000000011100 /
b00000000000000000000000000011000 0
1G
b00000000000000000000000000011100 I
b00000000000000000000000000011000 J
b00000000000000000000000000011000 K
b00000000000000000000000000011000 L
1W
1&"
#78000000
#79000000
#80000000
0!
0(
0G
0W
0&"
#85000000
1!
1(
b00000000000000000000000000100000 /
b00000000000000000000000000011100 0
1G
b00000000000000000000000000100000 I
b00000000000000000000000000011100 J
b00000000000000000000000000011100 K
b00000000000000000000000000011100 L
1W
1&"
#89000000
#90000000
0!
0(
0G
0W
0&"
#95000000
1!
1(
b00000000000000000000000000100100 /
b00000000000000000000000000100000 0
1G
b00000000000000000000000000100100 I
b00000000000000000000000000100000 J
b00000000000000000000000000100000 K
b00000000000000000000000000100000 L
1W
1&"
#100000000
0!
1"
0(
1)
0G
1H
0W
0&"
#105000000
1!
1(
b00000000000000000000000000000100 /
b00000000000000000000000000000000 0
b00000001001010100100000000100000 1
b00000000000000000000000000000101 2
b00000000000000000000000000000011 3
b00000000000000000100000000100000 4
b00000000000000000000000000001000 5
b00000000000000000000000000001000 7
08
b0010 9
b01000 :
b00000000000000000000000000000011 ;
b01000 D
b00000000000000000000000000001000 E
1G
b00000000000000000000000000000100 I
b00000000000000000000000000000000 J
b00000000000000000000000000000000 K
b00000000000000000000000000000000 L
b00000001001010100100000000100000 M
1W
b01001 Y
b01010 Z
b01000 [
b00000000000000000000000000001000 \
b00000000000000000000000000000101 ]
b00000000000000000000000000000011 ^
b100000 `
b0010 a
b00000000000000000000000000000101 b
b00000000000000000000000000000011 c
b0010 d
b00000000000000000000000000001000 e
0f
b00000000000000000000000000000011 g
b00000000000000000000000000001000 h
b00000000000000000000000000001000 j
b00000000000000000000000000000101 k
b00000000000000000000000000000011 l
b00000000000000000000000000001000 n
b0000000000001000 p
b0000000000000101 s
b0000000000000011 t
b0000000000001000 v
b0000000000000001 x
b0000000000000110 y
b00000000000001110 z
1&"
b00000000000000000000000000001000 )"
b00000000000000000000000000000011 *"
b10 ,"
b00000000000000000000000000001000 -"
b00000000000000000000000000001000 0"
#110000000
0!
0(
0G
0W
0&"
#115000000
1!
1(
1G
1W
1&"
#120000000
0!
0"
1#
b01001 $
b00000000000000000000000000000101 %
0(
0)
1*
b01001 +
b00000000000000000000000000000101 ,
b01001 D
b00000000000000000000000000000101 E
0G
0H
0W
b01001 [
b00000000000000000000000000000101 \
0&"
#125000000
1!
b01010 $
b00000000000000000000000000000011 %
1(
b01010 +
b00000000000000000000000000000011 ,
b00000000000000000000000000001000 /
b00000000000000000000000000000100 0
b00000001001010100100000000100010 1
b00000000000000000100000000100010 4
b00000000000000000000000000000010 5
b00000000000000000000000000000010 7
b0110 9
b01010 D
b00000000000000000000000000000011 E
1G
b00000000000000000000000000001000 I
b00000000000000000000000000000100 J
b00000000000000000000000000000100 K
b00000000000000000000000000000100 L
b00000001001010100100000000100010 M
1W
b01010 [
b00000000000000000000000000000011 \
b100010 `
b0110 a
b0110 d
b00000000000000000000000000000010 e
b11111111111111111111111111111100 g
b00000000000000000000000000000010 h
1i
b00000000000000000000000000000010 j
b11111111111111111111111111111100 l
1m
b00000000000000000000000000000010 n
1o
b0000000000000010 p
b0000000000000000 q
1r
b1111111111111100 t
1u
b0000000000000010 v
1w
b0000000000000100 x
b1111111111111001 y
b11111111111111011 z
b1111111111111111 |
1}
b0000000000000000 !"
1""
b1111111111111111 $"
b11111111111111111 %"
1&"
b00000000000000000000000000000010 )"
b0 ,"
b00000000000000000000000000000010 -"
b00000000000000000000000000000010 0"
#130000000
0!
0(
0G
0W
0&"
#135000000
1!
0#
1(
0*
b00000000000000000000000000001100 /
b00000000000000000000000000001000 0
b00000001001010100100000000100100 1
b00000000000000000100000000100100 4
b00000000000000000000000000000001 5
b00000000000000000000000000000001 7
b0000 9
b01000 D
b00000000000000000000000000000001 E
1G
b00000000000000000000000000001100 I
b00000000000000000000000000001000 J
b00000000000000000000000000001000 K
b00000000000000000000000000001000 L
b00000001001010100100000000100100 M
1W
b01000 [
b00000000000000000000000000000001 \
b100100 `
b0000 a
b0000 d
b00000000000000000000000000000001 e
b00000000000000000000000000000011 g
b00000000000000000000000000001000 h
0i
b00000000000000000000000000000001 j
b00000000000000000000000000000011 l
0m
b00000000000000000000000000001000 n
0o
b0000000000001000 p
b0000000000000000 q
0r
b0000000000000011 t
0u
b0000000000001000 v
0w
b0000000000000001 x
b0000000000000110 y
b00000000000001110 z
b0000000000000000 |
0}
b0000000000000000 !"
0""
b0000000000000000 $"
b00000000000000000 %"
1&"
b00000000000000000000000000000001 )"
b00000000000000000000000000000001 -"
b00000000000000000000000000000001 0"
#140000000
0!
0(
0G
0W
0&"
#145000000
1!
1(
b00000000000000000000000000010000 /
b00000000000000000000000000001100 0
b00000001001010100100000000100101 1
b00000000000000000100000000100101 4
b00000000000000000000000000000111 5
b00000000000000000000000000000111 7
b0001 9
b00000000000000000000000000000111 E
1G
b00000000000000000000000000010000 I
b00000000000000000000000000001100 J
b00000000000000000000000000001100 K
b00000000000000000000000000001100 L
b00000001001010100100000000100101 M
1W
b00000000000000000000000000000111 \
b100101 `
b0001 a
b0001 d
b00000000000000000000000000000111 e
b00000000000000000000000000000111 j
1&"
b00000000000000000000000000000111 )"
b1 ,"
b00000000000000000000000000000111 -"
b00000000000000000000000000000111 0"
#146000000
#150000000
0!
0(
0G
0W
0&"
#155000000
1!
1(
b00000000000000000000000000010100 /
b00000000000000000000000000010000 0
b00000001001010100100000000101010 1
b00000000000000000100000000101010 4
b00000000000000000000000000000000 5
b00000000000000000000000000000000 7
18
b0111 9
b00000000000000000000000000000000 E
1G
b00000000000000000000000000010100 I
b00000000000000000000000000010000 J
b00000000000000000000000000010000 K
b00000000000000000000000000010000 L
b00000001001010100100000000101010 M
1W
b00000000000000000000000000000000 \
b101010 `
b0111 a
b0111 d
b00000000000000000000000000000000 e
1f
b11111111111111111111111111111100 g
b00000000000000000000000000000010 h
1i
b00000000000000000000000000000000 j
b11111111111111111111111111111100 l
1m
b00000000000000000000000000000010 n
1o
b0000000000000010 p
b0000000000000000 q
1r
b1111111111111100 t
1u
b0000000000000010 v
1w
b0000000000000100 x
b1111111111111001 y
b11111111111111011 z
b1111111111111111 |
1}
b0000000000000000 !"
1""
b1111111111111111 $"
b11111111111111111 %"
1&"
b00000000000000000000000000000000 )"
b0 ,"
b00000000000000000000000000000000 -"
b00000000000000000000000000000000 0"
#156000000
#157000000
#160000000
0!
0(
0G
0W
0&"
#165000000
1!
1(
b00000000000000000000000000011000 /
b00000000000000000000000000010100 0
b00000000000000000000000000000000 1
b00000000000000000000000000000000 2
b00000000000000000000000000000000 3
b00000000000000000000000000000000 4
b1000 9
b00000 :
b00000000000000000000000000000000 ;
b00000 D
1G
b00000000000000000000000000011000 I
b00000000000000000000000000010100 J
b00000000000000000000000000010100 K
b00000000000000000000000000010100 L
b00000000000000000000000000000000 M
1W
b00000 Y
b00000 Z
b00000 [
b00000000000000000000000000000000 ]
b00000000000000000000000000000000 ^
b000000 `
b1000 a
b00000000000000000000000000000000 b
b00000000000000000000000000000000 c
b1000 d
b00000000000000000000000000000000 g
b00000000000000000000000000000000 h
0i
b00000000000000000000000000000000 k
b00000000000000000000000000000000 l
0m
b00000000000000000000000000000000 n
0o
b0000000000000000 p
b0000000000000000 q
0r
b0000000000000000 s
b0000000000000000 t
0u
b0000000000000000 v
0w
b0000000000000000 x
b0000000000000000 y
b00000000000000000 z
b0000000000000000 |
0}
b0000000000000000 !"
0""
b0000000000000000 $"
b00000000000000000 %"
1&"
b00000000000000000000000000000000 *"
#167000000
#168000000
#170000000
0!
0(
0G
0W
0&"
#175000000
1!
1(
b00000000000000000000000000011100 /
b00000000000000000000000000011000 0
1G
b00000000000000000000000000011100 I
b00000000000000000000000000011000 J
b00000000000000000000000000011000 K
b00000000000000000000000000011000 L
1W
1&"
#178000000
#179000000
#180000000
0!
0(
0G
0W
0&"
#185000000
1!
1(
b00000000000000000000000000100000 /
b00000000000000000000000000011100 0
1G
b00000000000000000000000000100000 I
b00000000000000000000000000011100 J
b00000000000000000000000000011100 K
b00000000000000000000000000011100 L
1W
1&"
#189000000
#190000000
0!
0(
0G
0W
0&"
#195000000
1!
1(
b00000000000000000000000000100100 /
b00000000000000000000000000100000 0
1G
b00000000000000000000000000100100 I
b00000000000000000000000000100000 J
b00000000000000000000000000100000 K
b00000000000000000000000000100000 L
1W
1&"
#200000000
0!
1"
0(
1)
0G
1H
0W
0&"
#205000000
1!
1(
b00000000000000000000000000000100 /
b00000000000000000000000000000000 0
b00000001001010100100000000100000 1
b00000000000000000000000000000101 2
b00000000000000000000000000000011 3
b00000000000000000100000000100000 4
b00000000000000000000000000001000 5
b00000000000000000000000000001000 7
08
b0010 9
b01000 :
b00000000000000000000000000000011 ;
b01000 D
b00000000000000000000000000001000 E
1G
b00000000000000000000000000000100 I
b00000000000000000000000000000000 J
b00000000000000000000000000000000 K
b00000000000000000000000000000000 L
b00000001001010100100000000100000 M
1W
b01001 Y
b01010 Z
b01000 [
b00000000000000000000000000001000 \
b00000000000000000000000000000101 ]
b00000000000000000000000000000011 ^
b100000 `
b0010 a
b00000000000000000000000000000101 b
b00000000000000000000000000000011 c
b0010 d
b00000000000000000000000000001000 e
0f
b00000000000000000000000000000011 g
b00000000000000000000000000001000 h
b00000000000000000000000000001000 j
b00000000000000000000000000000101 k
b00000000000000000000000000000011 l
b00000000000000000000000000001000 n
b0000000000001000 p
b0000000000000101 s
b0000000000000011 t
b0000000000001000 v
b0000000000000001 x
b0000000000000110 y
b00000000000001110 z
1&"
b00000000000000000000000000001000 )"
b00000000000000000000000000000011 *"
b10 ,"
b00000000000000000000000000001000 -"
b00000000000000000000000000001000 0"
#210000000
0!
0(
0G
0W
0&"
#215000000
1!
1(
1G
1W
1&"
#220000000
0!
0"
1#
b01001 $
b00000000000000000000000000000101 %
0(
0)
1*
b01001 +
b00000000000000000000000000000101 ,
b01001 D
b00000000000000000000000000000101 E
0G
0H
0W
b01001 [
b00000000000000000000000000000101 \
0&"
#225000000
1!
b01010 $
b00000000000000000000000000000011 %
1(
b01010 +
b00000000000000000000000000000011 ,
b00000000000000000000000000001000 /
b00000000000000000000000000000100 0
b00000001001010100100000000100010 1
b00000000000000000100000000100010 4
b00000000000000000000000000000010 5
b00000000000000000000000000000010 7
b0110 9
b01010 D
b00000000000000000000000000000011 E
1G
b00000000000000000000000000001000 I
b00000000000000000000000000000100 J
b00000000000000000000000000000100 K
b00000000000000000000000000000100 L
b00000001001010100100000000100010 M
1W
b01010 [
b00000000000000000000000000000011 \
b100010 `
b0110 a
b0110 d
b00000000000000000000000000000010 e
b11111111111111111111111111111100 g
b00000000000000000000000000000010 h
1i
b00000000000000000000000000000010 j
b11111111111111111111111111111100 l
1m
b00000000000000000000000000000010 n
1o
b0000000000000010 p
b0000000000000000 q
1r
b1111111111111100 t
1u
b0000000000000010 v
1w
b0000000000000100 x
b1111111111111001 y
b11111111111111011 z
b1111111111111111 |
1}
b0000000000000000 !"
1""
b1111111111111111 $"
b11111111111111111 %"
1&"
b00000000000000000000000000000010 )"
b0 ,"
b00000000000000000000000000000010 -"
b00000000000000000000000000000010 0"
#230000000
0!
0(
0G
0W
0&"
#235000000
1!
0#
1(
0*
b00000000000000000000000000001100 /
b00000000000000000000000000001000 0
b00000001001010100100000000100100 1
b00000000000000000100000000100100 4
b00000000000000000000000000000001 5
b00000000000000000000000000000001 7
b0000 9
b01000 D
b00000000000000000000000000000001 E
1G
b00000000000000000000000000001100 I
b00000000000000000000000000001000 J
b00000000000000000000000000001000 K
b00000000000000000000000000001000 L
b00000001001010100100000000100100 M
1W
b01000 [
b00000000000000000000000000000001 \
b100100 `
b0000 a
b0000 d
b00000000000000000000000000000001 e
b00000000000000000000000000000011 g
b00000000000000000000000000001000 h
0i
b00000000000000000000000000000001 j
b00000000000000000000000000000011 l
0m
b00000000000000000000000000001000 n
0o
b0000000000001000 p
b0000000000000000 q
0r
b0000000000000011 t
0u
b0000000000001000 v
0w
b0000000000000001 x
b0000000000000110 y
b00000000000001110 z
b0000000000000000 |
0}
b0000000000000000 !"
0""
b0000000000000000 $"
b00000000000000000 %"
1&"
b00000000000000000000000000000001 )"
b00000000000000000000000000000001 -"
b00000000000000000000000000000001 0"
#240000000
0!
0(
0G
0W
0&"
#245000000
1!
1(
b00000000000000000000000000010000 /
b00000000000000000000000000001100 0
b00000001001010100100000000100101 1
b00000000000000000100000000100101 4
b00000000000000000000000000000111 5
b00000000000000000000000000000111 7
b0001 9
b00000000000000000000000000000111 E
1G
b00000000000000000000000000010000 I
b00000000000000000000000000001100 J
b00000000000000000000000000001100 K
b00000000000000000000000000001100 L
b00000001001010100100000000100101 M
1W
b00000000000000000000000000000111 \
b100101 `
b0001 a
b0001 d
b00000000000000000000000000000111 e
b00000000000000000000000000000111 j
1&"
b00000000000000000000000000000111 )"
b1 ,"
b00000000000000000000000000000111 -"
b00000000000000000000000000000111 0"
#246000000
#250000000
0!
0(
0G
0W
0&"
#255000000
1!
1(
b00000000000000000000000000010100 /
b00000000000000000000000000010000 0
b00000001001010100100000000101010 1
b00000000000000000100000000101010 4
b00000000000000000000000000000000 5
b00000000000000000000000000000000 7
18
b0111 9
b00000000000000000000000000000000 E
1G
b00000000000000000000000000010100 I
b00000000000000000000000000010000 J
b00000000000000000000000000010000 K
b00000000000000000000000000010000 L
b00000001001010100100000000101010 M
1W
b00000000000000000000000000000000 \
b101010 `
b0111 a
b0111 d
b00000000000000000000000000000000 e
1f
b11111111111111111111111111111100 g
b00000000000000000000000000000010 h
1i
b00000000000000000000000000000000 j
b11111111111111111111111111111100 l
1m
b00000000000000000000000000000010 n
1o
b0000000000000010 p
b0000000000000000 q
1r
b1111111111111100 t
1u
b0000000000000010 v
1w
b0000000000000100 x
b1111111111111001 y
b11111111111111011 z
b1111111111111111 |
1}
b0000000000000000 !"
1""
b1111111111111111 $"
b11111111111111111 %"
1&"
b00000000000000000000000000000000 )"
b0 ,"
b00000000000000000000000000000000 -"
b00000000000000000000000000000000 0"
#256000000
#257000000
#260000000
0!
0(
0G
0W
0&"
