Run/singlecpu.vcd
$date
  Tue Nov 18 21:10:52 2025
$end
$version
  GHDL v0
$end
$timescale
  1 fs
$end
$scope module standard $end
$upscope $end
$scope module std_logic_1164 $end
$upscope $end
$scope module numeric_std $end
$upscope $end
$scope module singlecyclecpu_tb $end
$var reg 1 ! clk $end
$var reg 1 " reset $end
$var reg 1 # dbg_we $end
$var reg 5 $ dbg_wreg[4:0] $end
$var reg 32 % dbg_wdat[31:0] $end
$var reg 5 & dbg_rreg[4:0] $end
$var reg 32 ' dbg_rdat[31:0] $end
$scope module dut $end
$var reg 1 ( clk $end
$var reg 1 ) reset $end
$var reg 1 * dbg_write_enable $end
$var reg 5 + dbg_write_reg[4:0] $end
$var reg 32 , dbg_write_data[31:0] $end
$var reg 5 - dbg_read_reg[4:0] $end
$var reg 32 . dbg_read_data[31:0] $end
$var reg 32 / pc_in[31:0] $end
$var reg 32 0 pc_out[31:0] $end
$var reg 32 1 instruction[31:0] $end
$var reg 32 2 readdata1[31:0] $end
$var reg 32 3 readdata2[31:0] $end
$var reg 32 4 signimm[31:0] $end
$var reg 32 5 aluresult[31:0] $end
$var reg 32 6 memreaddata[31:0] $end
$var reg 32 7 writedatareg[31:0] $end
$var reg 1 8 zero $end
$var reg 4 9 alucontrolsig[3:0] $end
$var reg 5 : writeregaddr[4:0] $end
$var reg 32 ; alu_b[31:0] $end
$var reg 1 < regdst $end
$var reg 1 = alusrc $end
$var reg 1 > memtoreg $end
$var reg 1 ? regwrite $end
$var reg 1 @ memread $end
$var reg 1 A memwrite $end
$var reg 1 B branch $end
$var reg 2 C aluop[1:0] $end
$var reg 5 D rf_writereg[4:0] $end
$var reg 32 E rf_writedata[31:0] $end
$var reg 1 F rf_regwrite $end
$var reg 32 G instruction_raw[31:0] $end
$var reg 32 H a_for_alu[31:0] $end
$var reg 32 I b_for_alu[31:0] $end
$scope module pc_inst $end
$var reg 1 J clk $end
$var reg 1 K reset $end
$var reg 32 L pc_in[31:0] $end
$var reg 32 M pc_out[31:0] $end
$var reg 32 N pc_reg[31:0] $end
$upscope $end
$scope module im_inst $end
$var reg 32 O address[31:0] $end
$var reg 32 P instruction[31:0] $end
$upscope $end
$scope module cu_inst $end
$var reg 6 Q opcode[5:0] $end
$var reg 1 R regdst $end
$var reg 1 S alusrc $end
$var reg 1 T memtoreg $end
$var reg 1 U regwrite $end
$var reg 1 V memread $end
$var reg 1 W memwrite $end
$var reg 1 X branch $end
$var reg 2 Y aluop[1:0] $end
$upscope $end
$scope module rf_inst $end
$var reg 1 Z clk $end
$var reg 1 [ regwrite $end
$var reg 5 \ readreg1[4:0] $end
$var reg 5 ] readreg2[4:0] $end
$var reg 5 ^ writereg[4:0] $end
$var reg 32 _ writedata[31:0] $end
$var reg 32 ` readdata1[31:0] $end
$var reg 32 a readdata2[31:0] $end
$comment regs is not handled $end
$upscope $end
$scope module aluc_inst $end
$var reg 2 b aluop[1:0] $end
$var reg 6 c funct[5:0] $end
$var reg 4 d alucontrol[3:0] $end
$upscope $end
$scope module alu_inst $end
$var reg 32 e a[31:0] $end
$var reg 32 f b[31:0] $end
$var reg 4 g alucontrol[3:0] $end
$var reg 32 h result[31:0] $end
$var reg 1 i zero $end
$var reg 32 j b_invert[31:0] $end
$var reg 32 k adder_result[31:0] $end
$var reg 1 l cin_sig $end
$var reg 32 m result_i[31:0] $end
$scope module adder32 $end
$var reg 32 n a[31:0] $end
$var reg 32 o b[31:0] $end
$var reg 1 p cin $end
$var reg 32 q sum[31:0] $end
$var reg 1 r cout $end
$var reg 16 s sum_lo[15:0] $end
$var reg 16 t sum_hi[15:0] $end
$var reg 1 u cmid $end
$scope module bk_low $end
$var reg 16 v a[15:0] $end
$var reg 16 w b[15:0] $end
$var reg 1 x cin $end
$var reg 16 y sum[15:0] $end
$var reg 1 z cout $end
$var reg 16 { g[15:0] $end
$var reg 16 | p[15:0] $end
$var reg 17 } c[16:0] $end
$scope module gen_gp(0) $end
$upscope $end
$scope module gen_gp(1) $end
$upscope $end
$scope module gen_gp(2) $end
$upscope $end
$scope module gen_gp(3) $end
$upscope $end
$scope module gen_gp(4) $end
$upscope $end
$scope module gen_gp(5) $end
$upscope $end
$scope module gen_gp(6) $end
$upscope $end
$scope module gen_gp(7) $end
$upscope $end
$scope module gen_gp(8) $end
$upscope $end
$scope module gen_gp(9) $end
$upscope $end
$scope module gen_gp(10) $end
$upscope $end
$scope module gen_gp(11) $end
$upscope $end
$scope module gen_gp(12) $end
$upscope $end
$scope module gen_gp(13) $end
$upscope $end
$scope module gen_gp(14) $end
$upscope $end
$scope module gen_gp(15) $end
$upscope $end
$scope module gen_sum(0) $end
$upscope $end
$scope module gen_sum(1) $end
$upscope $end
$scope module gen_sum(2) $end
$upscope $end
$scope module gen_sum(3) $end
$upscope $end
$scope module gen_sum(4) $end
$upscope $end
$scope module gen_sum(5) $end
$upscope $end
$scope module gen_sum(6) $end
$upscope $end
$scope module gen_sum(7) $end
$upscope $end
$scope module gen_sum(8) $end
$upscope $end
$scope module gen_sum(9) $end
$upscope $end
$scope module gen_sum(10) $end
$upscope $end
$scope module gen_sum(11) $end
$upscope $end
$scope module gen_sum(12) $end
$upscope $end
$scope module gen_sum(13) $end
$upscope $end
$scope module gen_sum(14) $end
$upscope $end
$scope module gen_sum(15) $end
$upscope $end
$upscope $end
$scope module bk_high $end
$var reg 16 !" a[15:0] $end
$var reg 16 "" b[15:0] $end
$var reg 1 #" cin $end
$var reg 16 $" sum[15:0] $end
$var reg 1 %" cout $end
$var reg 16 &" g[15:0] $end
$var reg 16 '" p[15:0] $end
$var reg 17 (" c[16:0] $end
$scope module gen_gp(0) $end
$upscope $end
$scope module gen_gp(1) $end
$upscope $end
$scope module gen_gp(2) $end
$upscope $end
$scope module gen_gp(3) $end
$upscope $end
$scope module gen_gp(4) $end
$upscope $end
$scope module gen_gp(5) $end
$upscope $end
$scope module gen_gp(6) $end
$upscope $end
$scope module gen_gp(7) $end
$upscope $end
$scope module gen_gp(8) $end
$upscope $end
$scope module gen_gp(9) $end
$upscope $end
$scope module gen_gp(10) $end
$upscope $end
$scope module gen_gp(11) $end
$upscope $end
$scope module gen_gp(12) $end
$upscope $end
$scope module gen_gp(13) $end
$upscope $end
$scope module gen_gp(14) $end
$upscope $end
$scope module gen_gp(15) $end
$upscope $end
$scope module gen_sum(0) $end
$upscope $end
$scope module gen_sum(1) $end
$upscope $end
$scope module gen_sum(2) $end
$upscope $end
$scope module gen_sum(3) $end
$upscope $end
$scope module gen_sum(4) $end
$upscope $end
$scope module gen_sum(5) $end
$upscope $end
$scope module gen_sum(6) $end
$upscope $end
$scope module gen_sum(7) $end
$upscope $end
$scope module gen_sum(8) $end
$upscope $end
$scope module gen_sum(9) $end
$upscope $end
$scope module gen_sum(10) $end
$upscope $end
$scope module gen_sum(11) $end
$upscope $end
$scope module gen_sum(12) $end
$upscope $end
$scope module gen_sum(13) $end
$upscope $end
$scope module gen_sum(14) $end
$upscope $end
$scope module gen_sum(15) $end
$upscope $end
$upscope $end
$upscope $end
$upscope $end
$scope module dm_inst $end
$var reg 1 )" clk $end
$var reg 1 *" memread $end
$var reg 1 +" memwrite $end
$var reg 32 ," address[31:0] $end
$var reg 32 -" writedata[31:0] $end
$var reg 32 ." readdata[31:0] $end
$comment ram is not handled $end
$var integer 32 /" addr_index $end
$upscope $end
$scope module wb_mux $end
$var reg 32 0" aluresult[31:0] $end
$var reg 32 1" readdata[31:0] $end
$var reg 1 2" memtoreg $end
$var reg 32 3" writedata[31:0] $end
$upscope $end
$upscope $end
$upscope $end
$enddefinitions $end
#0
0!
1"
1#
b01001 $
b00000000000000000000000000000101 %
bUUUUU &
bUUUUUUUUUUUUUUUUUUUUUUUUUUUUUUUU '
0(
1)
1*
b01001 +
b00000000000000000000000000000101 ,
bUUUUU -
bUUUUUUUUUUUUUUUUUUUUUUUUUUUUUUUU .
b00000000000000000000000000000100 /
b00000000000000000000000000000000 0
b00000000000000000000000000000000 1
b00000000000000000000000000000000 2
b00000000000000000000000000000000 3
b00000000000000000000000000000000 4
b00000000000000000000000000000000 5
b00000000000000000000000000000000 6
b00000000000000000000000000000000 7
18
b1000 9
b00000 :
b00000000000000000000000000000000 ;
1<
0=
0>
1?
0@
0A
0B
b10 C
b01001 D
b00000000000000000000000000000101 E
1F
b00000001001010100100000000100000 G
b00000000000000000000000000000000 H
b00000000000000000000000000000000 I
0J
1K
b00000000000000000000000000000100 L
b00000000000000000000000000000000 M
b00000000000000000000000000000000 N
b00000000000000000000000000000000 O
b00000001001010100100000000100000 P
b000000 Q
1R
0S
0T
1U
0V
0W
0X
b10 Y
0Z
1[
b00000 \
b00000 ]
b01001 ^
b00000000000000000000000000000101 _
b00000000000000000000000000000000 `
b00000000000000000000000000000000 a
b10 b
b000000 c
b1000 d
b00000000000000000000000000000000 e
b00000000000000000000000000000000 f
b1000 g
b00000000000000000000000000000000 h
1i
b00000000000000000000000000000000 j
b00000000000000000000000000000000 k
0l
b00000000000000000000000000000000 m
b00000000000000000000000000000000 n
b00000000000000000000000000000000 o
0p
b00000000000000000000000000000000 q
0r
b0000000000000000 s
b0000000000000000 t
0u
b0000000000000000 v
b0000000000000000 w
0x
b0000000000000000 y
0z
b0000000000000000 {
b0000000000000000 |
b00000000000000000 }
b0000000000000000 !"
b0000000000000000 ""
0#"
b0000000000000000 $"
0%"
b0000000000000000 &"
b0000000000000000 '"
b00000000000000000 ("
0)"
0*"
0+"
b00000000000000000000000000000000 ,"
b00000000000000000000000000000000 -"
b00000000000000000000000000000000 ."
b0 /"
b00000000000000000000000000000000 0"
b00000000000000000000000000000000 1"
02"
b00000000000000000000000000000000 3"
#5000000
1!
b01010 $
b00000000000000000000000000000011 %
1(
b01010 +
b00000000000000000000000000000011 ,
b01010 D
b00000000000000000000000000000011 E
1J
1Z
b01010 ^
b00000000000000000000000000000011 _
1)"
#10000000
0!
0(
0J
0Z
0)"
#15000000
1!
0"
0#
1(
0)
0*
b00000001001010100100000000100000 1
b00000000000000000000000000000101 2
b00000000000000000000000000000011 3
b00000000000000000100000000100000 4
b00000000000000000000000000001000 5
b00000000000000000000000000001000 7
08
b0010 9
b01000 :
b00000000000000000000000000000011 ;
b01000 D
b00000000000000000000000000001000 E
b00000000000000000000000000000101 H
b00000000000000000000000000000011 I
1J
0K
1Z
b01001 \
b01010 ]
b01000 ^
b00000000000000000000000000001000 _
b00000000000000000000000000000101 `
b00000000000000000000000000000011 a
b100000 c
b0010 d
b00000000000000000000000000000101 e
b00000000000000000000000000000011 f
b0010 g
b00000000000000000000000000001000 h
0i
b00000000000000000000000000000011 j
b00000000000000000000000000001000 k
b00000000000000000000000000001000 m
b00000000000000000000000000000101 n
b00000000000000000000000000000011 o
b00000000000000000000000000001000 q
b0000000000001000 s
b0000000000000101 v
b0000000000000011 w
b0000000000001000 y
b0000000000000001 {
b0000000000000110 |
b00000000000001110 }
1)"
b00000000000000000000000000001000 ,"
b00000000000000000000000000000011 -"
b10 /"
b00000000000000000000000000001000 0"
b00000000000000000000000000001000 3"
#20000000
0!
0(
0J
0Z
0)"
#25000000
1!
1(
b00000000000000000000000000001000 /
b00000000000000000000000000000100 0
b00000001001010100100000000100010 1
b00000000000000000100000000100010 4
b00000000000000000000000000000010 5
b00000000000000000000000000000010 7
b0110 9
b00000000000000000000000000000010 E
b00000001001010100100000000100010 G
1J
b00000000000000000000000000001000 L
b00000000000000000000000000000100 M
b00000000000000000000000000000100 N
b00000000000000000000000000000100 O
b00000001001010100100000000100010 P
1Z
b00000000000000000000000000000010 _
b100010 c
b0110 d
b0110 g
b00000000000000000000000000000010 h
b11111111111111111111111111111100 j
b00000000000000000000000000000010 k
1l
b00000000000000000000000000000010 m
b11111111111111111111111111111100 o
1p
b00000000000000000000000000000010 q
1r
b0000000000000010 s
b0000000000000000 t
1u
b1111111111111100 w
1x
b0000000000000010 y
1z
b0000000000000100 {
b1111111111111001 |
b11111111111111011 }
b1111111111111111 ""
1#"
b0000000000000000 $"
1%"
b1111111111111111 '"
b11111111111111111 ("
1)"
b00000000000000000000000000000010 ,"
b0 /"
b00000000000000000000000000000010 0"
b00000000000000000000000000000010 3"
#30000000
0!
0(
0J
0Z
0)"
#35000000
1!
b01000 &
1(
b01000 -
b00000000000000000000000000001100 /
b00000000000000000000000000001000 0
b00000001001010100100000000100100 1
b00000000000000000100000000100100 4
b00000000000000000000000000000001 5
b00000000000000000000000000000001 7
b0000 9
b00000000000000000000000000000001 E
b00000001001010100100000000100100 G
1J
b00000000000000000000000000001100 L
b00000000000000000000000000001000 M
b00000000000000000000000000001000 N
b00000000000000000000000000001000 O
b00000001001010100100000000100100 P
1Z
b00000000000000000000000000000001 _
b100100 c
b0000 d
b0000 g
b00000000000000000000000000000001 h
b00000000000000000000000000000011 j
b00000000000000000000000000001000 k
0l
b00000000000000000000000000000001 m
b00000000000000000000000000000011 o
0p
b00000000000000000000000000001000 q
0r
b0000000000001000 s
b0000000000000000 t
0u
b0000000000000011 w
0x
b0000000000001000 y
0z
b0000000000000001 {
b0000000000000110 |
b00000000000001110 }
b0000000000000000 ""
0#"
b0000000000000000 $"
0%"
b0000000000000000 '"
b00000000000000000 ("
1)"
b00000000000000000000000000000001 ,"
b00000000000000000000000000000001 0"
b00000000000000000000000000000001 3"
#36000000
#40000000
0!
0(
0J
0Z
0)"
#45000000
1!
1(
b00000000000000000000000000010000 /
b00000000000000000000000000001100 0
b00000001001010100100000000100101 1
b00000000000000000100000000100101 4
b00000000000000000000000000000111 5
b00000000000000000000000000000111 7
b0001 9
b00000000000000000000000000000111 E
b00000001001010100100000000100101 G
1J
b00000000000000000000000000010000 L
b00000000000000000000000000001100 M
b00000000000000000000000000001100 N
b00000000000000000000000000001100 O
b00000001001010100100000000100101 P
1Z
b00000000000000000000000000000111 _
b100101 c
b0001 d
b0001 g
b00000000000000000000000000000111 h
b00000000000000000000000000000111 m
1)"
b00000000000000000000000000000111 ,"
b1 /"
b00000000000000000000000000000111 0"
b00000000000000000000000000000111 3"
#46000000
#47000000
#50000000
0!
0(
0J
0Z
0)"
#55000000
1!
1(
b00000000000000000000000000010100 /
b00000000000000000000000000010000 0
b00000001001010100100000000101010 1
b00000000000000000100000000101010 4
b00000000000000000000000000000000 5
b00000000000000000000000000000000 7
18
b0111 9
b00000000000000000000000000000000 E
b00000001001010100100000000101010 G
1J
b00000000000000000000000000010100 L
b00000000000000000000000000010000 M
b00000000000000000000000000010000 N
b00000000000000000000000000010000 O
b00000001001010100100000000101010 P
1Z
b00000000000000000000000000000000 _
b101010 c
b0111 d
b0111 g
b00000000000000000000000000000000 h
1i
b11111111111111111111111111111100 j
b00000000000000000000000000000010 k
1l
b00000000000000000000000000000000 m
b11111111111111111111111111111100 o
1p
b00000000000000000000000000000010 q
1r
b0000000000000010 s
b0000000000000000 t
1u
b1111111111111100 w
1x
b0000000000000010 y
1z
b0000000000000100 {
b1111111111111001 |
b11111111111111011 }
b1111111111111111 ""
1#"
b0000000000000000 $"
1%"
b1111111111111111 '"
b11111111111111111 ("
1)"
b00000000000000000000000000000000 ,"
b0 /"
b00000000000000000000000000000000 0"
b00000000000000000000000000000000 3"
#57000000
#58000000
#60000000
0!
0(
0J
0Z
0)"
#65000000
1!
1(
b00000000000000000000000000011000 /
b00000000000000000000000000010100 0
b00000000000000000000000000000000 1
b00000000000000000000000000000000 2
b00000000000000000000000000000000 3
b00000000000000000000000000000000 4
b1000 9
b00000 :
b00000000000000000000000000000000 ;
b00000 D
b00000000000000000000000000000000 G
b00000000000000000000000000000000 H
b00000000000000000000000000000000 I
1J
b00000000000000000000000000011000 L
b00000000000000000000000000010100 M
b00000000000000000000000000010100 N
b00000000000000000000000000010100 O
b00000000000000000000000000000000 P
1Z
b00000 \
b00000 ]
b00000 ^
b00000000000000000000000000000000 `
b00000000000000000000000000000000 a
b000000 c
b1000 d
b00000000000000000000000000000000 e
b00000000000000000000000000000000 f
b1000 g
b00000000000000000000000000000000 j
b00000000000000000000000000000000 k
0l
b00000000000000000000000000000000 n
b00000000000000000000000000000000 o
0p
b00000000000000000000000000000000 q
0r
b0000000000000000 s
b0000000000000000 t
0u
b0000000000000000 v
b0000000000000000 w
0x
b0000000000000000 y
0z
b0000000000000000 {
b0000000000000000 |
b00000000000000000 }
b0000000000000000 ""
0#"
b0000000000000000 $"
0%"
b0000000000000000 '"
b00000000000000000 ("
1)"
b00000000000000000000000000000000 -"
#68000000
#69000000
#70000000
0!
0(
0J
0Z
0)"
#75000000
1!
1(
b00000000000000000000000000011100 /
b00000000000000000000000000011000 0
1J
b00000000000000000000000000011100 L
b00000000000000000000000000011000 M
b00000000000000000000000000011000 N
b00000000000000000000000000011000 O
1Z
1)"
#79000000
#80000000
0!
0(
0J
0Z
0)"
#85000000
1!
1(
b00000000000000000000000000100000 /
b00000000000000000000000000011100 0
1J
b00000000000000000000000000100000 L
b00000000000000000000000000011100 M
b00000000000000000000000000011100 N
b00000000000000000000000000011100 O
1Z
1)"
#90000000
0!
1"
1#
b01001 $
b00000000000000000000000000000101 %
0(
1)
1*
b01001 +
b00000000000000000000000000000101 ,
b01001 D
b00000000000000000000000000000101 E
0J
1K
0Z
b01001 ^
b00000000000000000000000000000101 _
0)"
#95000000
1!
b01010 $
b00000000000000000000000000000011 %
1(
b01010 +
b00000000000000000000000000000011 ,
b00000000000000000000000000000100 /
b00000000000000000000000000000000 0
b01010 D
b00000000000000000000000000000011 E
b00000001001010100100000000100000 G
1J
b00000000000000000000000000000100 L
b00000000000000000000000000000000 M
b00000000000000000000000000000000 N
b00000000000000000000000000000000 O
b00000001001010100100000000100000 P
1Z
b01010 ^
b00000000000000000000000000000011 _
1)"
#100000000
0!
0(
0J
0Z
0)"
#105000000
1!
0"
0#
1(
0)
0*
b00000001001010100100000000100000 1
b00000000000000000000000000000101 2
b00000000000000000000000000000011 3
b00000000000000000100000000100000 4
b00000000000000000000000000001000 5
b00000000000000000000000000001000 7
08
b0010 9
b01000 :
b00000000000000000000000000000011 ;
b01000 D
b00000000000000000000000000001000 E
b00000000000000000000000000000101 H
b00000000000000000000000000000011 I
1J
0K
1Z
b01001 \
b01010 ]
b01000 ^
b00000000000000000000000000001000 _
b00000000000000000000000000000101 `
b00000000000000000000000000000011 a
b100000 c
b0010 d
b00000000000000000000000000000101 e
b00000000000000000000000000000011 f
b0010 g
b00000000000000000000000000001000 h
0i
b00000000000000000000000000000011 j
b00000000000000000000000000001000 k
b00000000000000000000000000001000 m
b00000000000000000000000000000101 n
b00000000000000000000000000000011 o
b00000000000000000000000000001000 q
b0000000000001000 s
b0000000000000101 v
b0000000000000011 w
b0000000000001000 y
b0000000000000001 {
b0000000000000110 |
b00000000000001110 }
1)"
b00000000000000000000000000001000 ,"
b00000000000000000000000000000011 -"
b10 /"
b00000000000000000000000000001000 0"
b00000000000000000000000000001000 3"
#110000000
0!
0(
0J
0Z
0)"
#115000000
1!
1(
b00000000000000000000000000001000 /
b00000000000000000000000000000100 0
b00000001001010100100000000100010 1
b00000000000000000100000000100010 4
b00000000000000000000000000000010 5
b00000000000000000000000000000010 7
b0110 9
b00000000000000000000000000000010 E
b00000001001010100100000000100010 G
1J
b00000000000000000000000000001000 L
b00000000000000000000000000000100 M
b00000000000000000000000000000100 N
b00000000000000000000000000000100 O
b00000001001010100100000000100010 P
1Z
b00000000000000000000000000000010 _
b100010 c
b0110 d
b0110 g
b00000000000000000000000000000010 h
b11111111111111111111111111111100 j
b00000000000000000000000000000010 k
1l
b00000000000000000000000000000010 m
b11111111111111111111111111111100 o
1p
b00000000000000000000000000000010 q
1r
b0000000000000010 s
b0000000000000000 t
1u
b1111111111111100 w
1x
b0000000000000010 y
1z
b0000000000000100 {
b1111111111111001 |
b11111111111111011 }
b1111111111111111 ""
1#"
b0000000000000000 $"
1%"
b1111111111111111 '"
b11111111111111111 ("
1)"
b00000000000000000000000000000010 ,"
b0 /"
b00000000000000000000000000000010 0"
b00000000000000000000000000000010 3"
#120000000
0!
0(
0J
0Z
0)"
#125000000
1!
1(
b00000000000000000000000000001100 /
b00000000000000000000000000001000 0
b00000001001010100100000000100100 1
b00000000000000000100000000100100 4
b00000000000000000000000000000001 5
b00000000000000000000000000000001 7
b0000 9
b00000000000000000000000000000001 E
b00000001001010100100000000100100 G
1J
b00000000000000000000000000001100 L
b00000000000000000000000000001000 M
b00000000000000000000000000001000 N
b00000000000000000000000000001000 O
b00000001001010100100000000100100 P
1Z
b00000000000000000000000000000001 _
b100100 c
b0000 d
b0000 g
b00000000000000000000000000000001 h
b00000000000000000000000000000011 j
b00000000000000000000000000001000 k
0l
b00000000000000000000000000000001 m
b00000000000000000000000000000011 o
0p
b00000000000000000000000000001000 q
0r
b0000000000001000 s
b0000000000000000 t
0u
b0000000000000011 w
0x
b0000000000001000 y
0z
b0000000000000001 {
b0000000000000110 |
b00000000000001110 }
b0000000000000000 ""
0#"
b0000000000000000 $"
0%"
b0000000000000000 '"
b00000000000000000 ("
1)"
b00000000000000000000000000000001 ,"
b00000000000000000000000000000001 0"
b00000000000000000000000000000001 3"
#126000000
#130000000
0!
0(
0J
0Z
0)"
#135000000
1!
1(
b00000000000000000000000000010000 /
b00000000000000000000000000001100 0
b00000001001010100100000000100101 1
b00000000000000000100000000100101 4
b00000000000000000000000000000111 5
b00000000000000000000000000000111 7
b0001 9
b00000000000000000000000000000111 E
b00000001001010100100000000100101 G
1J
b00000000000000000000000000010000 L
b00000000000000000000000000001100 M
b00000000000000000000000000001100 N
b00000000000000000000000000001100 O
b00000001001010100100000000100101 P
1Z
b00000000000000000000000000000111 _
b100101 c
b0001 d
b0001 g
b00000000000000000000000000000111 h
b00000000000000000000000000000111 m
1)"
b00000000000000000000000000000111 ,"
b1 /"
b00000000000000000000000000000111 0"
b00000000000000000000000000000111 3"
#136000000
#137000000
#140000000
0!
0(
0J
0Z
0)"
#145000000
1!
1(
b00000000000000000000000000010100 /
b00000000000000000000000000010000 0
b00000001001010100100000000101010 1
b00000000000000000100000000101010 4
b00000000000000000000000000000000 5
b00000000000000000000000000000000 7
18
b0111 9
b00000000000000000000000000000000 E
b00000001001010100100000000101010 G
1J
b00000000000000000000000000010100 L
b00000000000000000000000000010000 M
b00000000000000000000000000010000 N
b00000000000000000000000000010000 O
b00000001001010100100000000101010 P
1Z
b00000000000000000000000000000000 _
b101010 c
b0111 d
b0111 g
b00000000000000000000000000000000 h
1i
b11111111111111111111111111111100 j
b00000000000000000000000000000010 k
1l
b00000000000000000000000000000000 m
b11111111111111111111111111111100 o
1p
b00000000000000000000000000000010 q
1r
b0000000000000010 s
b0000000000000000 t
1u
b1111111111111100 w
1x
b0000000000000010 y
1z
b0000000000000100 {
b1111111111111001 |
b11111111111111011 }
b1111111111111111 ""
1#"
b0000000000000000 $"
1%"
b1111111111111111 '"
b11111111111111111 ("
1)"
b00000000000000000000000000000000 ,"
b0 /"
b00000000000000000000000000000000 0"
b00000000000000000000000000000000 3"
#147000000
#148000000
#150000000
0!
0(
0J
0Z
0)"
#155000000
1!
1(
b00000000000000000000000000011000 /
b00000000000000000000000000010100 0
b00000000000000000000000000000000 1
b00000000000000000000000000000000 2
b00000000000000000000000000000000 3
b00000000000000000000000000000000 4
b1000 9
b00000 :
b00000000000000000000000000000000 ;
b00000 D
b00000000000000000000000000000000 G
b00000000000000000000000000000000 H
b00000000000000000000000000000000 I
1J
b00000000000000000000000000011000 L
b00000000000000000000000000010100 M
b00000000000000000000000000010100 N
b00000000000000000000000000010100 O
b00000000000000000000000000000000 P
1Z
b00000 \
b00000 ]
b00000 ^
b00000000000000000000000000000000 `
b00000000000000000000000000000000 a
b000000 c
b1000 d
b00000000000000000000000000000000 e
b00000000000000000000000000000000 f
b1000 g
b00000000000000000000000000000000 j
b00000000000000000000000000000000 k
0l
b00000000000000000000000000000000 n
b00000000000000000000000000000000 o
0p
b00000000000000000000000000000000 q
0r
b0000000000000000 s
b0000000000000000 t
0u
b0000000000000000 v
b0000000000000000 w
0x
b0000000000000000 y
0z
b0000000000000000 {
b0000000000000000 |
b00000000000000000 }
b0000000000000000 ""
0#"
b0000000000000000 $"
0%"
b0000000000000000 '"
b00000000000000000 ("
1)"
b00000000000000000000000000000000 -"
#158000000
#159000000
#160000000
0!
0(
0J
0Z
0)"
#165000000
1!
1(
b00000000000000000000000000011100 /
b00000000000000000000000000011000 0
1J
b00000000000000000000000000011100 L
b00000000000000000000000000011000 M
b00000000000000000000000000011000 N
b00000000000000000000000000011000 O
1Z
1)"
#169000000
#170000000
0!
0(
0J
0Z
0)"
#175000000
1!
1(
b00000000000000000000000000100000 /
b00000000000000000000000000011100 0
1J
b00000000000000000000000000100000 L
b00000000000000000000000000011100 M
b00000000000000000000000000011100 N
b00000000000000000000000000011100 O
1Z
1)"
#180000000
0!
1"
1#
b01001 $
b00000000000000000000000000000101 %
0(
1)
1*
b01001 +
b00000000000000000000000000000101 ,
b01001 D
b00000000000000000000000000000101 E
0J
1K
0Z
b01001 ^
b00000000000000000000000000000101 _
0)"
#185000000
1!
b01010 $
b00000000000000000000000000000011 %
1(
b01010 +
b00000000000000000000000000000011 ,
b00000000000000000000000000000100 /
b00000000000000000000000000000000 0
b01010 D
b00000000000000000000000000000011 E
b00000001001010100100000000100000 G
1J
b00000000000000000000000000000100 L
b00000000000000000000000000000000 M
b00000000000000000000000000000000 N
b00000000000000000000000000000000 O
b00000001001010100100000000100000 P
1Z
b01010 ^
b00000000000000000000000000000011 _
1)"
#190000000
0!
0(
0J
0Z
0)"
#195000000
1!
0"
0#
1(
0)
0*
b00000001001010100100000000100000 1
b00000000000000000000000000000101 2
b00000000000000000000000000000011 3
b00000000000000000100000000100000 4
b00000000000000000000000000001000 5
b00000000000000000000000000001000 7
08
b0010 9
b01000 :
b00000000000000000000000000000011 ;
b01000 D
b00000000000000000000000000001000 E
b00000000000000000000000000000101 H
b00000000000000000000000000000011 I
1J
0K
1Z
b01001 \
b01010 ]
b01000 ^
b00000000000000000000000000001000 _
b00000000000000000000000000000101 `
b00000000000000000000000000000011 a
b100000 c
b0010 d
b00000000000000000000000000000101 e
b00000000000000000000000000000011 f
b0010 g
b00000000000000000000000000001000 h
0i
b00000000000000000000000000000011 j
b00000000000000000000000000001000 k
b00000000000000000000000000001000 m
b00000000000000000000000000000101 n
b00000000000000000000000000000011 o
b00000000000000000000000000001000 q
b0000000000001000 s
b0000000000000101 v
b0000000000000011 w
b0000000000001000 y
b0000000000000001 {
b0000000000000110 |
b00000000000001110 }
1)"
b00000000000000000000000000001000 ,"
b00000000000000000000000000000011 -"
b10 /"
b00000000000000000000000000001000 0"
b00000000000000000000000000001000 3"
#200000000
0!
0(
0J
0Z
0)"
#205000000
1!
1(
b00000000000000000000000000001000 /
b00000000000000000000000000000100 0
b00000001001010100100000000100010 1
b00000000000000000100000000100010 4
b00000000000000000000000000000010 5
b00000000000000000000000000000010 7
b0110 9
b00000000000000000000000000000010 E
b00000001001010100100000000100010 G
1J
b00000000000000000000000000001000 L
b00000000000000000000000000000100 M
b00000000000000000000000000000100 N
b00000000000000000000000000000100 O
b00000001001010100100000000100010 P
1Z
b00000000000000000000000000000010 _
b100010 c
b0110 d
b0110 g
b00000000000000000000000000000010 h
b11111111111111111111111111111100 j
b00000000000000000000000000000010 k
1l
b00000000000000000000000000000010 m
b11111111111111111111111111111100 o
1p
b00000000000000000000000000000010 q
1r
b0000000000000010 s
b0000000000000000 t
1u
b1111111111111100 w
1x
b0000000000000010 y
1z
b0000000000000100 {
b1111111111111001 |
b11111111111111011 }
b1111111111111111 ""
1#"
b0000000000000000 $"
1%"
b1111111111111111 '"
b11111111111111111 ("
1)"
b00000000000000000000000000000010 ,"
b0 /"
b00000000000000000000000000000010 0"
b00000000000000000000000000000010 3"
#210000000
0!
0(
0J
0Z
0)"
#215000000
1!
1(
b00000000000000000000000000001100 /
b00000000000000000000000000001000 0
b00000001001010100100000000100100 1
b00000000000000000100000000100100 4
b00000000000000000000000000000001 5
b00000000000000000000000000000001 7
b0000 9
b00000000000000000000000000000001 E
b00000001001010100100000000100100 G
1J
b00000000000000000000000000001100 L
b00000000000000000000000000001000 M
b00000000000000000000000000001000 N
b00000000000000000000000000001000 O
b00000001001010100100000000100100 P
1Z
b00000000000000000000000000000001 _
b100100 c
b0000 d
b0000 g
b00000000000000000000000000000001 h
b00000000000000000000000000000011 j
b00000000000000000000000000001000 k
0l
b00000000000000000000000000000001 m
b00000000000000000000000000000011 o
0p
b00000000000000000000000000001000 q
0r
b0000000000001000 s
b0000000000000000 t
0u
b0000000000000011 w
0x
b0000000000001000 y
0z
b0000000000000001 {
b0000000000000110 |
b00000000000001110 }
b0000000000000000 ""
0#"
b0000000000000000 $"
0%"
b0000000000000000 '"
b00000000000000000 ("
1)"
b00000000000000000000000000000001 ,"
b00000000000000000000000000000001 0"
b00000000000000000000000000000001 3"
#216000000
#220000000
0!
0(
0J
0Z
0)"
#225000000
1!
1(
b00000000000000000000000000010000 /
b00000000000000000000000000001100 0
b00000001001010100100000000100101 1
b00000000000000000100000000100101 4
b00000000000000000000000000000111 5
b00000000000000000000000000000111 7
b0001 9
b00000000000000000000000000000111 E
b00000001001010100100000000100101 G
1J
b00000000000000000000000000010000 L
b00000000000000000000000000001100 M
b00000000000000000000000000001100 N
b00000000000000000000000000001100 O
b00000001001010100100000000100101 P
1Z
b00000000000000000000000000000111 _
b100101 c
b0001 d
b0001 g
b00000000000000000000000000000111 h
b00000000000000000000000000000111 m
1)"
b00000000000000000000000000000111 ,"
b1 /"
b00000000000000000000000000000111 0"
b00000000000000000000000000000111 3"
#226000000
#227000000
#230000000
0!
0(
0J
0Z
0)"
